{
  "tag": "2019-11-22_001745",
  "event": {
    "event_type": "scroll",
    "x": null,
    "y": null,
    "view": {
      "package": "com.haringeymobile.ukweather",
      "visible": true,
      "checkable": false,
      "child_count": 1,
      "editable": false,
      "clickable": false,
      "is_password": false,
      "focusable": true,
      "enabled": true,
      "content_description": null,
      "children": [
        11
      ],
      "focused": false,
      "bounds": [
        [
          0,
          249
        ],
        [
          1080,
          1776
        ]
      ],
      "resource_id": null,
      "checked": false,
      "text": null,
      "class": "android.widget.ScrollView",
      "scrollable": true,
      "selected": false,
      "long_clickable": false,
      "parent": 5,
      "temp_id": 10,
      "size": "1080*1527",
      "signature": "[class]android.widget.ScrollView[resource_id]None[text]None[enabled,,]",
      "view_str": "8974cf09d6f1e85f2a1900bf9ed826fb",
      "content_free_signature": "[class]android.widget.ScrollView[resource_id]None"
    },
    "direction": "UP"
  },
  "start_state": "8058603de793ed65bac5648a19f9a2f5",
  "stop_state": "8058603de793ed65bac5648a19f9a2f5",
  "event_str": "ScrollEvent(state=8058603de793ed65bac5648a19f9a2f5, view=8974cf09d6f1e85f2a1900bf9ed826fb, direction=UP)"
}