{
  "tag": "2019-11-22_000352",
  "event": {
    "event_type": "touch",
    "x": null,
    "y": null,
    "view": {
      "package": "com.haringeymobile.ukweather",
      "visible": true,
      "checkable": false,
      "child_count": 0,
      "editable": false,
      "clickable": true,
      "is_password": false,
      "focusable": true,
      "enabled": true,
      "content_description": null,
      "children": [],
      "focused": false,
      "bounds": [
        [
          412,
          258
        ],
        [
          748,
          402
        ]
      ],
      "resource_id": null,
      "checked": false,
      "text": "Thu  Dec 05",
      "class": "android.widget.TextView",
      "scrollable": false,
      "selected": false,
      "long_clickable": false,
      "parent": 13,
      "temp_id": 28,
      "size": "336*144",
      "signature": "[class]android.widget.TextView[resource_id]None[text]Thu  Dec 05[enabled,,]",
      "view_str": "2032e42f01618c43621bde5ee20ed33e",
      "content_free_signature": "[class]android.widget.TextView[resource_id]None"
    }
  },
  "start_state": "d5e2e5aadc17c9255e9e810af390066b",
  "stop_state": "3d228674c2387f1710dd406c52d9b126",
  "event_str": "TouchEvent(state=d5e2e5aadc17c9255e9e810af390066b, view=2032e42f01618c43621bde5ee20ed33e)"
}