{
  "tag": "2019-11-22_002526",
  "event": {
    "event_type": "intent",
    "intent": "am start com.haringeymobile.ukweather/com.haringeymobile.ukweather.MainActivity"
  },
  "start_state": "d33c5c592c5a2d4ba75aaa5a4eb1e2eb",
  "stop_state": "bc23ecbb74f1b259d5c9284e74e55d0c",
  "event_str": "IntentEvent(intent='am start com.haringeymobile.ukweather/com.haringeymobile.ukweather.MainActivity')"
}