{
  "tag": "2019-11-21_234725",
  "event": {
    "event_type": "touch",
    "x": null,
    "y": null,
    "view": {
      "package": "com.haringeymobile.ukweather",
      "visible": true,
      "checkable": false,
      "child_count": 0,
      "editable": false,
      "clickable": true,
      "is_password": false,
      "focusable": true,
      "enabled": true,
      "content_description": null,
      "children": [],
      "focused": false,
      "bounds": [
        [
          856,
          258
        ],
        [
          1065,
          402
        ]
      ],
      "resource_id": null,
      "checked": false,
      "text": "SAT  DEC 07",
      "class": "android.widget.TextView",
      "scrollable": false,
      "selected": false,
      "long_clickable": false,
      "parent": 13,
      "temp_id": 29,
      "size": "209*144",
      "signature": "[class]android.widget.TextView[resource_id]None[text]SAT  DEC 07[enabled,,]",
      "view_str": "472ce32dc0f06a0eb624125d69e00f48",
      "content_free_signature": "[class]android.widget.TextView[resource_id]None"
    }
  },
  "start_state": "92c84b4adcde37b45ca13c98a24af3f7",
  "stop_state": "92c84b4adcde37b45ca13c98a24af3f7",
  "event_str": "TouchEvent(state=92c84b4adcde37b45ca13c98a24af3f7, view=472ce32dc0f06a0eb624125d69e00f48)"
}