{
  "tag": "2019-11-21_235054",
  "event": {
    "event_type": "touch",
    "x": null,
    "y": null,
    "view": {
      "package": "com.haringeymobile.ukweather",
      "visible": false,
      "checkable": false,
      "child_count": 0,
      "editable": false,
      "clickable": true,
      "is_password": false,
      "focusable": true,
      "enabled": true,
      "content_description": null,
      "children": [],
      "focused": false,
      "bounds": [
        [
          3916,
          258
        ],
        [
          1065,
          402
        ]
      ],
      "resource_id": null,
      "checked": false,
      "text": "TUE  DEC 03",
      "class": "android.widget.TextView",
      "scrollable": false,
      "selected": false,
      "long_clickable": false,
      "parent": 13,
      "temp_id": 25,
      "size": "-2851*144",
      "signature": "[class]android.widget.TextView[resource_id]None[text]TUE  DEC 03[enabled,,]",
      "view_str": "8f450d5da269b057f1628f40bdcbf941",
      "content_free_signature": "[class]android.widget.TextView[resource_id]None"
    }
  },
  "start_state": "472e31769278773dea11507f3f256da7",
  "stop_state": "472e31769278773dea11507f3f256da7",
  "event_str": "TouchEvent(state=472e31769278773dea11507f3f256da7, view=8f450d5da269b057f1628f40bdcbf941)"
}