{
  "tag": "2019-11-22_001851",
  "event": {
    "event_type": "touch",
    "x": null,
    "y": null,
    "view": {
      "package": "com.haringeymobile.ukweather",
      "visible": true,
      "checkable": false,
      "child_count": 0,
      "editable": false,
      "clickable": true,
      "is_password": false,
      "focusable": true,
      "enabled": true,
      "content_description": null,
      "children": [],
      "focused": false,
      "bounds": [
        [
          861,
          779
        ],
        [
          981,
          935
        ]
      ],
      "resource_id": "com.haringeymobile.ukweather:id/ac_search_button",
      "checked": false,
      "text": null,
      "class": "android.widget.ImageButton",
      "scrollable": false,
      "selected": false,
      "long_clickable": false,
      "parent": 11,
      "temp_id": 13,
      "size": "120*156",
      "signature": "[class]android.widget.ImageButton[resource_id]com.haringeymobile.ukweather:id/ac_search_button[text]None[enabled,,]",
      "view_str": "1ef8dcb10c43a72e33cd3409fd496084",
      "content_free_signature": "[class]android.widget.ImageButton[resource_id]com.haringeymobile.ukweather:id/ac_search_button"
    }
  },
  "start_state": "8bfc6274d4784c26e26a2d0b7763eb14",
  "stop_state": "fadde0f26ab85295730ef687e936bdd4",
  "event_str": "TouchEvent(state=8bfc6274d4784c26e26a2d0b7763eb14, view=1ef8dcb10c43a72e33cd3409fd496084)"
}