{
  "tag": "2019-11-21_234919",
  "event": {
    "event_type": "touch",
    "x": null,
    "y": null,
    "view": {
      "package": "com.haringeymobile.ukweather",
      "visible": false,
      "checkable": false,
      "child_count": 0,
      "editable": false,
      "clickable": true,
      "is_password": false,
      "focusable": true,
      "enabled": true,
      "content_description": null,
      "children": [],
      "focused": false,
      "bounds": [
        [
          1585,
          258
        ],
        [
          1065,
          402
        ]
      ],
      "resource_id": null,
      "checked": false,
      "text": "SUN  DEC 01",
      "class": "android.widget.TextView",
      "scrollable": false,
      "selected": false,
      "long_clickable": false,
      "parent": 13,
      "temp_id": 24,
      "size": "-520*144",
      "signature": "[class]android.widget.TextView[resource_id]None[text]SUN  DEC 01[enabled,,]",
      "view_str": "a772ba85d76927d3c4d77e54ec0b90dd",
      "content_free_signature": "[class]android.widget.TextView[resource_id]None"
    }
  },
  "start_state": "011294c7669224f12358aaf11fe89914",
  "stop_state": "011294c7669224f12358aaf11fe89914",
  "event_str": "TouchEvent(state=011294c7669224f12358aaf11fe89914, view=a772ba85d76927d3c4d77e54ec0b90dd)"
}