{
  "tag": "2019-11-22_000652",
  "event": {
    "event_type": "touch",
    "x": null,
    "y": null,
    "view": {
      "package": "com.haringeymobile.ukweather",
      "visible": false,
      "checkable": false,
      "child_count": 0,
      "editable": false,
      "clickable": true,
      "is_password": false,
      "focusable": true,
      "enabled": true,
      "content_description": null,
      "children": [],
      "focused": false,
      "bounds": [
        [
          15,
          258
        ],
        [
          -2857,
          402
        ]
      ],
      "resource_id": null,
      "checked": false,
      "text": "Mon  Nov 25",
      "class": "android.widget.TextView",
      "scrollable": false,
      "selected": false,
      "long_clickable": false,
      "parent": 13,
      "temp_id": 17,
      "size": "-2872*144",
      "signature": "[class]android.widget.TextView[resource_id]None[text]Mon  Nov 25[enabled,,]",
      "view_str": "c19c21f696067815f075ff0220323cbe",
      "content_free_signature": "[class]android.widget.TextView[resource_id]None"
    }
  },
  "start_state": "4ed0d81fe11ed59258ca3bd2f0bb6c4d",
  "stop_state": "4ed0d81fe11ed59258ca3bd2f0bb6c4d",
  "event_str": "TouchEvent(state=4ed0d81fe11ed59258ca3bd2f0bb6c4d, view=c19c21f696067815f075ff0220323cbe)"
}