{
  "tag": "2019-11-22_001909",
  "event": {
    "event_type": "touch",
    "x": null,
    "y": null,
    "view": {
      "package": "com.haringeymobile.ukweather",
      "visible": true,
      "checkable": false,
      "child_count": 0,
      "editable": false,
      "clickable": true,
      "is_password": false,
      "focusable": true,
      "enabled": true,
      "content_description": null,
      "children": [],
      "focused": false,
      "bounds": [
        [
          777,
          1219
        ],
        [
          969,
          1363
        ]
      ],
      "resource_id": "android:id/button1",
      "checked": false,
      "text": "OK",
      "class": "android.widget.Button",
      "scrollable": false,
      "selected": false,
      "long_clickable": false,
      "parent": 13,
      "temp_id": 14,
      "size": "192*144",
      "signature": "[class]android.widget.Button[resource_id]android:id/button1[text]OK[enabled,,]",
      "view_str": "a052032f5d62c84851068beb69ceb649",
      "content_free_signature": "[class]android.widget.Button[resource_id]android:id/button1"
    }
  },
  "start_state": "fadde0f26ab85295730ef687e936bdd4",
  "stop_state": "8bfc6274d4784c26e26a2d0b7763eb14",
  "event_str": "TouchEvent(state=fadde0f26ab85295730ef687e936bdd4, view=a052032f5d62c84851068beb69ceb649)"
}