{
  "tag": "2019-11-21_235202",
  "event": {
    "event_type": "touch",
    "x": null,
    "y": null,
    "view": {
      "package": "com.haringeymobile.ukweather",
      "visible": false,
      "checkable": false,
      "child_count": 0,
      "editable": false,
      "clickable": true,
      "is_password": false,
      "focusable": true,
      "enabled": true,
      "content_description": null,
      "children": [],
      "focused": false,
      "bounds": [
        [
          1574,
          258
        ],
        [
          1065,
          402
        ]
      ],
      "resource_id": null,
      "checked": false,
      "text": "MON  DEC 02",
      "class": "android.widget.TextView",
      "scrollable": false,
      "selected": false,
      "long_clickable": false,
      "parent": 13,
      "temp_id": 24,
      "size": "-509*144",
      "signature": "[class]android.widget.TextView[resource_id]None[text]MON  DEC 02[enabled,,]",
      "view_str": "70a49a11f5021393e58343daca42825b",
      "content_free_signature": "[class]android.widget.TextView[resource_id]None"
    }
  },
  "start_state": "eaa9f7ecb522ab25fe7e00c58f7651dd",
  "stop_state": "eaa9f7ecb522ab25fe7e00c58f7651dd",
  "event_str": "TouchEvent(state=eaa9f7ecb522ab25fe7e00c58f7651dd, view=70a49a11f5021393e58343daca42825b)"
}