{
  "tag": "2019-11-21_235041",
  "event": {
    "event_type": "touch",
    "x": null,
    "y": null,
    "view": {
      "package": "com.haringeymobile.ukweather",
      "visible": false,
      "checkable": false,
      "child_count": 0,
      "editable": false,
      "clickable": true,
      "is_password": false,
      "focusable": true,
      "enabled": true,
      "content_description": null,
      "children": [],
      "focused": false,
      "bounds": [
        [
          15,
          258
        ],
        [
          -4076,
          402
        ]
      ],
      "resource_id": null,
      "checked": false,
      "text": "THU  NOV 21",
      "class": "android.widget.TextView",
      "scrollable": false,
      "selected": false,
      "long_clickable": false,
      "parent": 13,
      "temp_id": 14,
      "size": "-4091*144",
      "signature": "[class]android.widget.TextView[resource_id]None[text]THU  NOV 21[enabled,,]",
      "view_str": "c3047b362f9799f1beb0fc5381054be9",
      "content_free_signature": "[class]android.widget.TextView[resource_id]None"
    }
  },
  "start_state": "200f0ff38cc626ab43bfb4c416021642",
  "stop_state": "200f0ff38cc626ab43bfb4c416021642",
  "event_str": "TouchEvent(state=200f0ff38cc626ab43bfb4c416021642, view=c3047b362f9799f1beb0fc5381054be9)"
}