{
  "tag": "2019-11-21_234412",
  "event": {
    "event_type": "touch",
    "x": null,
    "y": null,
    "view": {
      "package": "com.haringeymobile.ukweather",
      "visible": false,
      "checkable": false,
      "child_count": 0,
      "editable": false,
      "clickable": true,
      "is_password": false,
      "focusable": true,
      "enabled": true,
      "content_description": null,
      "children": [],
      "focused": false,
      "bounds": [
        [
          1583,
          258
        ],
        [
          1065,
          402
        ]
      ],
      "resource_id": null,
      "checked": false,
      "text": "WED  DEC 04",
      "class": "android.widget.TextView",
      "scrollable": false,
      "selected": false,
      "long_clickable": false,
      "parent": 13,
      "temp_id": 26,
      "size": "-518*144",
      "signature": "[class]android.widget.TextView[resource_id]None[text]WED  DEC 04[enabled,,]",
      "view_str": "383543108cfd7697b444b2957f0d58af",
      "content_free_signature": "[class]android.widget.TextView[resource_id]None"
    }
  },
  "start_state": "b50aa9c467caef186a3006d09c608c70",
  "stop_state": "b50aa9c467caef186a3006d09c608c70",
  "event_str": "TouchEvent(state=b50aa9c467caef186a3006d09c608c70, view=383543108cfd7697b444b2957f0d58af)"
}