{
  "tag": "2019-11-22_001217",
  "event": {
    "event_type": "touch",
    "x": null,
    "y": null,
    "view": {
      "package": "com.haringeymobile.ukweather",
      "visible": false,
      "checkable": false,
      "child_count": 0,
      "editable": false,
      "clickable": true,
      "is_password": false,
      "focusable": true,
      "enabled": true,
      "content_description": null,
      "children": [],
      "focused": false,
      "bounds": [
        [
          2185,
          258
        ],
        [
          1065,
          402
        ]
      ],
      "resource_id": null,
      "checked": false,
      "text": "Tue  Dec 03",
      "class": "android.widget.TextView",
      "scrollable": false,
      "selected": false,
      "long_clickable": false,
      "parent": 13,
      "temp_id": 26,
      "size": "-1120*144",
      "signature": "[class]android.widget.TextView[resource_id]None[text]Tue  Dec 03[enabled,,]",
      "view_str": "68ac9e09ed5f14f3750eaa6f7f197b57",
      "content_free_signature": "[class]android.widget.TextView[resource_id]None"
    }
  },
  "start_state": "00f34874994c6285157827ad4985ac9e",
  "stop_state": "00f34874994c6285157827ad4985ac9e",
  "event_str": "TouchEvent(state=00f34874994c6285157827ad4985ac9e, view=68ac9e09ed5f14f3750eaa6f7f197b57)"
}