{
  "tag": "2019-11-22_000814",
  "event": {
    "event_type": "long_touch",
    "x": null,
    "y": null,
    "view": {
      "package": "com.haringeymobile.ukweather",
      "visible": true,
      "checkable": false,
      "child_count": 0,
      "editable": false,
      "clickable": true,
      "is_password": false,
      "focusable": true,
      "enabled": true,
      "content_description": "Add city",
      "children": [],
      "focused": false,
      "bounds": [
        [
          792,
          84
        ],
        [
          936,
          228
        ]
      ],
      "resource_id": "com.haringeymobile.ukweather:id/mi_add_city",
      "checked": false,
      "text": null,
      "class": "android.widget.TextView",
      "scrollable": false,
      "selected": false,
      "long_clickable": true,
      "parent": 8,
      "temp_id": 12,
      "size": "144*144",
      "signature": "[class]android.widget.TextView[resource_id]com.haringeymobile.ukweather:id/mi_add_city[text]None[enabled,,]",
      "view_str": "7e28ba3051bbcdd2d4bd967744956ebc",
      "content_free_signature": "[class]android.widget.TextView[resource_id]com.haringeymobile.ukweather:id/mi_add_city"
    },
    "duration": 2000
  },
  "start_state": "b6ad1e47879df245123afa4d36879077",
  "stop_state": "b6ad1e47879df245123afa4d36879077",
  "event_str": "LongTouchEvent(state=b6ad1e47879df245123afa4d36879077, view=7e28ba3051bbcdd2d4bd967744956ebc, duration=2000)"
}