{
  "tag": "2019-11-21_235234",
  "event": {
    "event_type": "touch",
    "x": null,
    "y": null,
    "view": {
      "package": "com.haringeymobile.ukweather",
      "visible": true,
      "checkable": false,
      "child_count": 0,
      "editable": false,
      "clickable": true,
      "is_password": false,
      "focusable": true,
      "enabled": true,
      "content_description": null,
      "children": [],
      "focused": false,
      "bounds": [
        [
          385,
          258
        ],
        [
          719,
          402
        ]
      ],
      "resource_id": null,
      "checked": false,
      "text": "FRI  DEC 06",
      "class": "android.widget.TextView",
      "scrollable": false,
      "selected": false,
      "long_clickable": false,
      "parent": 13,
      "temp_id": 28,
      "size": "334*144",
      "signature": "[class]android.widget.TextView[resource_id]None[text]FRI  DEC 06[enabled,,]",
      "view_str": "8c23f85f188216682cb03e72cd29d96d",
      "content_free_signature": "[class]android.widget.TextView[resource_id]None"
    }
  },
  "start_state": "9d3c15fe4d04e28db59e9fc19200bc55",
  "stop_state": "81bc8be21900a6d1c33389bff452c724",
  "event_str": "TouchEvent(state=9d3c15fe4d04e28db59e9fc19200bc55, view=8c23f85f188216682cb03e72cd29d96d)"
}