{
  "tag": "2019-11-21_234816",
  "event": {
    "event_type": "touch",
    "x": null,
    "y": null,
    "view": {
      "package": "com.haringeymobile.ukweather",
      "visible": false,
      "checkable": false,
      "child_count": 0,
      "editable": false,
      "clickable": true,
      "is_password": false,
      "focusable": true,
      "enabled": true,
      "content_description": null,
      "children": [],
      "focused": false,
      "bounds": [
        [
          2867,
          258
        ],
        [
          1065,
          402
        ]
      ],
      "resource_id": null,
      "checked": false,
      "text": "FRI  NOV 29",
      "class": "android.widget.TextView",
      "scrollable": false,
      "selected": false,
      "long_clickable": false,
      "parent": 13,
      "temp_id": 22,
      "size": "-1802*144",
      "signature": "[class]android.widget.TextView[resource_id]None[text]FRI  NOV 29[enabled,,]",
      "view_str": "ff43816725ac81cd58d7f04da27c6e9e",
      "content_free_signature": "[class]android.widget.TextView[resource_id]None"
    }
  },
  "start_state": "a3cf1fcc99810b55d7eb18de883aeef7",
  "stop_state": "a3cf1fcc99810b55d7eb18de883aeef7",
  "event_str": "TouchEvent(state=a3cf1fcc99810b55d7eb18de883aeef7, view=ff43816725ac81cd58d7f04da27c6e9e)"
}