{
  "tag": "2019-11-21_234236",
  "event": {
    "event_type": "touch",
    "x": null,
    "y": null,
    "view": {
      "package": "com.haringeymobile.ukweather",
      "visible": true,
      "checkable": false,
      "child_count": 2,
      "editable": false,
      "clickable": true,
      "is_password": false,
      "focusable": false,
      "enabled": true,
      "content_description": null,
      "children": [
        53,
        54
      ],
      "focused": false,
      "bounds": [
        [
          12,
          1377
        ],
        [
          1068,
          1723
        ]
      ],
      "resource_id": null,
      "checked": false,
      "text": null,
      "class": "android.widget.LinearLayout",
      "scrollable": false,
      "selected": false,
      "long_clickable": false,
      "parent": 15,
      "temp_id": 52,
      "size": "1056*346",
      "signature": "[class]android.widget.LinearLayout[resource_id]None[text]None[enabled,,]",
      "view_str": "6ecf3844645bca7a6aa98044f0554f50",
      "content_free_signature": "[class]android.widget.LinearLayout[resource_id]None"
    }
  },
  "start_state": "e62f2e3668de189dacb92489ea106769",
  "stop_state": "96adf67e83522b8c03114ec02ca586ea",
  "event_str": "TouchEvent(state=e62f2e3668de189dacb92489ea106769, view=6ecf3844645bca7a6aa98044f0554f50)"
}