{
  "tag": "2019-11-22_001321",
  "event": {
    "event_type": "touch",
    "x": null,
    "y": null,
    "view": {
      "package": "com.haringeymobile.ukweather",
      "visible": true,
      "checkable": false,
      "child_count": 2,
      "editable": false,
      "clickable": true,
      "is_password": false,
      "focusable": false,
      "enabled": true,
      "content_description": null,
      "children": [
        53,
        54
      ],
      "focused": false,
      "bounds": [
        [
          12,
          1389
        ],
        [
          1068,
          1735
        ]
      ],
      "resource_id": null,
      "checked": false,
      "text": null,
      "class": "android.widget.LinearLayout",
      "scrollable": false,
      "selected": false,
      "long_clickable": false,
      "parent": 15,
      "temp_id": 52,
      "size": "1056*346",
      "signature": "[class]android.widget.LinearLayout[resource_id]None[text]None[enabled,,]",
      "view_str": "f0ef2fd311ebb462b710357d713af9d1",
      "content_free_signature": "[class]android.widget.LinearLayout[resource_id]None"
    }
  },
  "start_state": "bc23ecbb74f1b259d5c9284e74e55d0c",
  "stop_state": "e2bca6cbc65ae6de930a9da9ea77c576",
  "event_str": "TouchEvent(state=bc23ecbb74f1b259d5c9284e74e55d0c, view=f0ef2fd311ebb462b710357d713af9d1)"
}