{
  "tag": "2019-11-22_000257",
  "event": {
    "event_type": "touch",
    "x": null,
    "y": null,
    "view": {
      "package": "com.haringeymobile.ukweather",
      "visible": false,
      "checkable": false,
      "child_count": 0,
      "editable": false,
      "clickable": true,
      "is_password": false,
      "focusable": true,
      "enabled": true,
      "content_description": null,
      "children": [],
      "focused": false,
      "bounds": [
        [
          1193,
          258
        ],
        [
          1065,
          402
        ]
      ],
      "resource_id": null,
      "checked": false,
      "text": "Wed  Nov 27",
      "class": "android.widget.TextView",
      "scrollable": false,
      "selected": false,
      "long_clickable": false,
      "parent": 13,
      "temp_id": 20,
      "size": "-128*144",
      "signature": "[class]android.widget.TextView[resource_id]None[text]Wed  Nov 27[enabled,,]",
      "view_str": "66e8c5477acd7f763b3f46e85b18473a",
      "content_free_signature": "[class]android.widget.TextView[resource_id]None"
    }
  },
  "start_state": "65f5aed792bff27b5388bcc9a6f590f4",
  "stop_state": "65f5aed792bff27b5388bcc9a6f590f4",
  "event_str": "TouchEvent(state=65f5aed792bff27b5388bcc9a6f590f4, view=66e8c5477acd7f763b3f46e85b18473a)"
}