{
  "tag": "2019-11-22_000835",
  "event": {
    "event_type": "touch",
    "x": null,
    "y": null,
    "view": {
      "package": "com.haringeymobile.ukweather",
      "visible": false,
      "checkable": false,
      "child_count": 0,
      "editable": false,
      "clickable": false,
      "is_password": false,
      "focusable": false,
      "enabled": true,
      "content_description": null,
      "children": [],
      "focused": false,
      "bounds": [
        [
          139,
          1969
        ],
        [
          331,
          1776
        ]
      ],
      "resource_id": null,
      "checked": false,
      "text": "Current\nweather",
      "class": "android.widget.TextView",
      "scrollable": false,
      "selected": false,
      "long_clickable": false,
      "parent": 67,
      "temp_id": 69,
      "size": "192*-193",
      "signature": "[class]android.widget.TextView[resource_id]None[text]Current\nweather[enabled,,]",
      "view_str": "2038756c451c703c14be010d90ef09e6",
      "content_free_signature": "[class]android.widget.TextView[resource_id]None"
    }
  },
  "start_state": "b6ad1e47879df245123afa4d36879077",
  "stop_state": "15fbe79971cc902661672de3c1249294",
  "event_str": "TouchEvent(state=b6ad1e47879df245123afa4d36879077, view=2038756c451c703c14be010d90ef09e6)"
}