{
  "tag": "2019-11-22_000706",
  "event": {
    "event_type": "touch",
    "x": null,
    "y": null,
    "view": {
      "package": "com.haringeymobile.ukweather",
      "visible": true,
      "checkable": false,
      "child_count": 0,
      "editable": false,
      "clickable": true,
      "is_password": false,
      "focusable": true,
      "enabled": true,
      "content_description": null,
      "children": [],
      "focused": false,
      "bounds": [
        [
          36,
          1382
        ],
        [
          1044,
          1776
        ]
      ],
      "resource_id": "com.haringeymobile.ukweather:id/about_textview_part_2",
      "checked": false,
      "text": "\nCREDITS and LICENSES:\n\n(1) OpenWeatherMap - free weather data and forecast API\nhttp://openweathermap.org\n\nAll data are provided under the CC-BY-SA 2.0:\nhttp://creativecommons.org/licenses/by-sa/2.0\n\n(2) Android Asset Studio - a set of icon generators and other tools\nhttp://android-ui-utils.googlecode.com/hg/asset-studio/dist/index.html\n\nCreative Commons 3.0 BY license for Android Asset Studio content:\nhttp://creativecommons.org/licenses/by/3.0/legalcode\n\n(3) PagerSlidingTabStrip - an interactive indicator to navigate between the different pages of a ViewPager\nhttps://github.com/astuetz/PagerSlidingTabStrip\n\n\u00a9 2013 Andreas Stuetz\nApache license for PagerSlidingTabStrip:\nhttp://www.apache.org/licenses/LICENSE-2.0\n\n(4) DragSortListView - a subclass of the Android ListView component that enables drag and drop re-ordering of list items\nhttps://github.com/bauerca/drag-sort-listview\n\n\u00a9 2012 Carl Bauer\nApache license for DragSortListView:\nhttp://www.apache.org/licenses/LICENSE-2.0\n\n(5) Wind icon\nArtist: Aha-Soft Team\nLicense: Free for non-commercial use. Commercial usage: Not allowed\nhttp://www.iconarchive.com/icons/large-icons/large-weather/license.txt\n\n(6) Weblate \u2013 a web-based translation management system\n \u00a9 2012\u20132016 Michal \u010ciha\u0159\nhttps://weblate.org/en/?utm_source=weblate&utm_term=2.9-dev\n\n(7) Special thanks to our translators:\n\n   # Spanish - Suso Comesa\u00f1a\n   # Japanese - naofum\n   # Lithuanian - Kestutis Z.\n   # Polish - Micha\u0142 Korczak, verdulo\n   # Portuguese - dllud, Manuela Silva\n   # Chinese (Simplified) - yahooor\n   # Russian - Firstborned\n   # Dutch - Heimen Stoffels\n   # Esperanto - verdulo\n\nYou are welcome to contribute your own translations here:\nhttps://hosted.weblate.org/projects/world-weather\n\n(8) This app is open sourced! The source code can be found at\nhttps://github.com/Kestutis-Z/World-Weather\n\nApache license for the source code and the compiled code:\nhttps://www.apache.org/licenses/LICENSE-2.0\n",
      "class": "android.widget.TextView",
      "scrollable": false,
      "selected": false,
      "long_clickable": true,
      "parent": 11,
      "temp_id": 14,
      "size": "1008*394",
      "signature": "[class]android.widget.TextView[resource_id]com.haringeymobile.ukweather:id/about_textview_part_2[text]None[enabled,,]",
      "view_str": "f4238c725337640e11b65981bc2dae8a",
      "content_free_signature": "[class]android.widget.TextView[resource_id]com.haringeymobile.ukweather:id/about_textview_part_2"
    }
  },
  "start_state": "8058603de793ed65bac5648a19f9a2f5",
  "stop_state": "8058603de793ed65bac5648a19f9a2f5",
  "event_str": "TouchEvent(state=8058603de793ed65bac5648a19f9a2f5, view=f4238c725337640e11b65981bc2dae8a)"
}