{
  "tag": "2019-11-21_235711",
  "event": {
    "event_type": "touch",
    "x": null,
    "y": null,
    "view": {
      "package": "com.haringeymobile.ukweather",
      "visible": false,
      "checkable": false,
      "child_count": 2,
      "editable": false,
      "clickable": true,
      "is_password": false,
      "focusable": true,
      "enabled": true,
      "content_description": null,
      "children": [
        68,
        69
      ],
      "focused": false,
      "bounds": [
        [
          30,
          1936
        ],
        [
          358,
          1776
        ]
      ],
      "resource_id": "com.haringeymobile.ukweather:id/city_current_weather_button",
      "checked": false,
      "text": null,
      "class": "android.widget.LinearLayout",
      "scrollable": false,
      "selected": false,
      "long_clickable": false,
      "parent": 66,
      "temp_id": 67,
      "size": "328*-160",
      "signature": "[class]android.widget.LinearLayout[resource_id]com.haringeymobile.ukweather:id/city_current_weather_button[text]None[enabled,,]",
      "view_str": "806c40b373855a171f1b07ddb2182bed",
      "content_free_signature": "[class]android.widget.LinearLayout[resource_id]com.haringeymobile.ukweather:id/city_current_weather_button"
    }
  },
  "start_state": "b6ad1e47879df245123afa4d36879077",
  "stop_state": "06b9e9e42a8d955b6da2681efd620458",
  "event_str": "TouchEvent(state=b6ad1e47879df245123afa4d36879077, view=806c40b373855a171f1b07ddb2182bed)"
}