{
  "tag": "2019-11-22_002033",
  "event": {
    "event_type": "touch",
    "x": null,
    "y": null,
    "view": {
      "package": "com.haringeymobile.ukweather",
      "visible": true,
      "checkable": false,
      "child_count": 0,
      "editable": false,
      "clickable": false,
      "is_password": false,
      "focusable": false,
      "enabled": true,
      "content_description": null,
      "children": [],
      "focused": false,
      "bounds": [
        [
          48,
          115
        ],
        [
          441,
          196
        ]
      ],
      "resource_id": null,
      "checked": false,
      "text": "World Weather",
      "class": "android.widget.TextView",
      "scrollable": false,
      "selected": false,
      "long_clickable": false,
      "parent": 6,
      "temp_id": 7,
      "size": "393*81",
      "signature": "[class]android.widget.TextView[resource_id]None[text]World Weather[enabled,,]",
      "view_str": "14b19dcf0907c2612f0d96cd451f1303",
      "content_free_signature": "[class]android.widget.TextView[resource_id]None"
    }
  },
  "start_state": "bc23ecbb74f1b259d5c9284e74e55d0c",
  "stop_state": "bc23ecbb74f1b259d5c9284e74e55d0c",
  "event_str": "TouchEvent(state=bc23ecbb74f1b259d5c9284e74e55d0c, view=14b19dcf0907c2612f0d96cd451f1303)"
}