{
  "tag": "2019-11-21_234547",
  "event": {
    "event_type": "touch",
    "x": null,
    "y": null,
    "view": {
      "package": "com.haringeymobile.ukweather",
      "visible": false,
      "checkable": false,
      "child_count": 0,
      "editable": false,
      "clickable": true,
      "is_password": false,
      "focusable": true,
      "enabled": true,
      "content_description": null,
      "children": [],
      "focused": false,
      "bounds": [
        [
          2151,
          258
        ],
        [
          1065,
          402
        ]
      ],
      "resource_id": null,
      "checked": false,
      "text": "THU  NOV 28",
      "class": "android.widget.TextView",
      "scrollable": false,
      "selected": false,
      "long_clickable": false,
      "parent": 13,
      "temp_id": 20,
      "size": "-1086*144",
      "signature": "[class]android.widget.TextView[resource_id]None[text]THU  NOV 28[enabled,,]",
      "view_str": "58c9cca0ed8f251dd83211f806caac32",
      "content_free_signature": "[class]android.widget.TextView[resource_id]None"
    }
  },
  "start_state": "b8d88e797787d61e3b84897cd9ade1b5",
  "stop_state": "b8d88e797787d61e3b84897cd9ade1b5",
  "event_str": "TouchEvent(state=b8d88e797787d61e3b84897cd9ade1b5, view=58c9cca0ed8f251dd83211f806caac32)"
}