{
  "tag": "2019-11-22_000000",
  "event": {
    "event_type": "touch",
    "x": null,
    "y": null,
    "view": {
      "package": "com.haringeymobile.ukweather",
      "visible": false,
      "checkable": false,
      "child_count": 0,
      "editable": false,
      "clickable": true,
      "is_password": false,
      "focusable": true,
      "enabled": true,
      "content_description": null,
      "children": [],
      "focused": false,
      "bounds": [
        [
          2031,
          258
        ],
        [
          1065,
          402
        ]
      ],
      "resource_id": null,
      "checked": false,
      "text": "Thu  Nov 28",
      "class": "android.widget.TextView",
      "scrollable": false,
      "selected": false,
      "long_clickable": false,
      "parent": 13,
      "temp_id": 20,
      "size": "-966*144",
      "signature": "[class]android.widget.TextView[resource_id]None[text]Thu  Nov 28[enabled,,]",
      "view_str": "441ee44daacc36cf4e8ed2f861c957c0",
      "content_free_signature": "[class]android.widget.TextView[resource_id]None"
    }
  },
  "start_state": "bc2f2b6a7e1e62458e6d0b199474b6a2",
  "stop_state": "bc2f2b6a7e1e62458e6d0b199474b6a2",
  "event_str": "TouchEvent(state=bc2f2b6a7e1e62458e6d0b199474b6a2, view=441ee44daacc36cf4e8ed2f861c957c0)"
}