{
  "tag": "2019-11-21_235245",
  "event": {
    "event_type": "touch",
    "x": null,
    "y": null,
    "view": {
      "package": "com.haringeymobile.ukweather",
      "visible": true,
      "checkable": false,
      "child_count": 0,
      "editable": false,
      "clickable": true,
      "is_password": false,
      "focusable": true,
      "enabled": true,
      "content_description": null,
      "children": [],
      "focused": false,
      "bounds": [
        [
          15,
          258
        ],
        [
          34,
          402
        ]
      ],
      "resource_id": null,
      "checked": false,
      "text": "WED  DEC 04",
      "class": "android.widget.TextView",
      "scrollable": false,
      "selected": false,
      "long_clickable": false,
      "parent": 13,
      "temp_id": 26,
      "size": "19*144",
      "signature": "[class]android.widget.TextView[resource_id]None[text]WED  DEC 04[enabled,,]",
      "view_str": "383543108cfd7697b444b2957f0d58af",
      "content_free_signature": "[class]android.widget.TextView[resource_id]None"
    }
  },
  "start_state": "81bc8be21900a6d1c33389bff452c724",
  "stop_state": "b948ff9c3eafa1d241e4501964d725a3",
  "event_str": "TouchEvent(state=81bc8be21900a6d1c33389bff452c724, view=383543108cfd7697b444b2957f0d58af)"
}