{
  "tag": "2019-11-22_002035",
  "event": {
    "event_type": "key",
    "name": "MENU"
  },
  "start_state": "bc23ecbb74f1b259d5c9284e74e55d0c",
  "stop_state": "bc23ecbb74f1b259d5c9284e74e55d0c",
  "event_str": "KeyEvent(state=bc23ecbb74f1b259d5c9284e74e55d0c, name=MENU)"
}