{
  "tag": "2019-11-22_002254",
  "event": {
    "event_type": "touch",
    "x": null,
    "y": null,
    "view": {
      "package": "com.haringeymobile.ukweather",
      "visible": false,
      "checkable": false,
      "child_count": 2,
      "editable": false,
      "clickable": true,
      "is_password": false,
      "focusable": true,
      "enabled": true,
      "content_description": null,
      "children": [
        74,
        75
      ],
      "focused": false,
      "bounds": [
        [
          722,
          1936
        ],
        [
          1050,
          1776
        ]
      ],
      "resource_id": "com.haringeymobile.ukweather:id/city_three_hourly_weather_forecast_button",
      "checked": false,
      "text": null,
      "class": "android.widget.LinearLayout",
      "scrollable": false,
      "selected": false,
      "long_clickable": false,
      "parent": 66,
      "temp_id": 73,
      "size": "328*-160",
      "signature": "[class]android.widget.LinearLayout[resource_id]com.haringeymobile.ukweather:id/city_three_hourly_weather_forecast_button[text]None[enabled,,]",
      "view_str": "60cc807356987e7d0d0e66cd64b83852",
      "content_free_signature": "[class]android.widget.LinearLayout[resource_id]com.haringeymobile.ukweather:id/city_three_hourly_weather_forecast_button"
    }
  },
  "start_state": "bc23ecbb74f1b259d5c9284e74e55d0c",
  "stop_state": "d33c5c592c5a2d4ba75aaa5a4eb1e2eb",
  "event_str": "TouchEvent(state=bc23ecbb74f1b259d5c9284e74e55d0c, view=60cc807356987e7d0d0e66cd64b83852)"
}