{
  "tag": "2019-11-21_234449",
  "event": {
    "event_type": "touch",
    "x": null,
    "y": null,
    "view": {
      "package": "com.haringeymobile.ukweather",
      "visible": true,
      "checkable": false,
      "child_count": 0,
      "editable": false,
      "clickable": true,
      "is_password": false,
      "focusable": true,
      "enabled": true,
      "content_description": null,
      "children": [],
      "focused": false,
      "bounds": [
        [
          171,
          258
        ],
        [
          522,
          402
        ]
      ],
      "resource_id": null,
      "checked": false,
      "text": "THU  DEC 05",
      "class": "android.widget.TextView",
      "scrollable": false,
      "selected": false,
      "long_clickable": false,
      "parent": 13,
      "temp_id": 27,
      "size": "351*144",
      "signature": "[class]android.widget.TextView[resource_id]None[text]THU  DEC 05[enabled,,]",
      "view_str": "e59c9a6d1ae9e30a98871dd55e828eef",
      "content_free_signature": "[class]android.widget.TextView[resource_id]None"
    }
  },
  "start_state": "4601094c8080623f9f7e107c7af84ee3",
  "stop_state": "4601094c8080623f9f7e107c7af84ee3",
  "event_str": "TouchEvent(state=4601094c8080623f9f7e107c7af84ee3, view=e59c9a6d1ae9e30a98871dd55e828eef)"
}