{
  "tag": "2019-11-22_000709",
  "event": {
    "event_type": "touch",
    "x": null,
    "y": null,
    "view": {
      "package": "com.haringeymobile.ukweather",
      "visible": true,
      "checkable": false,
      "child_count": 0,
      "editable": false,
      "clickable": true,
      "is_password": false,
      "focusable": true,
      "enabled": true,
      "content_description": "Navigate up",
      "children": [],
      "focused": false,
      "bounds": [
        [
          0,
          72
        ],
        [
          168,
          240
        ]
      ],
      "resource_id": null,
      "checked": false,
      "text": null,
      "class": "android.widget.ImageButton",
      "scrollable": false,
      "selected": false,
      "long_clickable": false,
      "parent": 6,
      "temp_id": 7,
      "size": "168*168",
      "signature": "[class]android.widget.ImageButton[resource_id]None[text]None[enabled,,]",
      "view_str": "aab4f898d2a8d1125b6ae8da56d9a039",
      "content_free_signature": "[class]android.widget.ImageButton[resource_id]None"
    }
  },
  "start_state": "8058603de793ed65bac5648a19f9a2f5",
  "stop_state": "b6ad1e47879df245123afa4d36879077",
  "event_str": "TouchEvent(state=8058603de793ed65bac5648a19f9a2f5, view=aab4f898d2a8d1125b6ae8da56d9a039)"
}