{
  "tag": "2019-11-21_234322",
  "event": {
    "event_type": "touch",
    "x": null,
    "y": null,
    "view": {
      "package": "com.haringeymobile.ukweather",
      "visible": false,
      "checkable": false,
      "child_count": 0,
      "editable": false,
      "clickable": true,
      "is_password": false,
      "focusable": true,
      "enabled": true,
      "content_description": null,
      "children": [],
      "focused": false,
      "bounds": [
        [
          2312,
          258
        ],
        [
          1065,
          402
        ]
      ],
      "resource_id": null,
      "checked": false,
      "text": "SAT  NOV 30",
      "class": "android.widget.TextView",
      "scrollable": false,
      "selected": false,
      "long_clickable": false,
      "parent": 13,
      "temp_id": 22,
      "size": "-1247*144",
      "signature": "[class]android.widget.TextView[resource_id]None[text]SAT  NOV 30[enabled,,]",
      "view_str": "06a25270fa30fcc49ca6615fc008d4bf",
      "content_free_signature": "[class]android.widget.TextView[resource_id]None"
    }
  },
  "start_state": "999667c496235db1ce011709c9965110",
  "stop_state": "999667c496235db1ce011709c9965110",
  "event_str": "TouchEvent(state=999667c496235db1ce011709c9965110, view=06a25270fa30fcc49ca6615fc008d4bf)"
}