{
  "tag": "2019-11-21_235343",
  "event": {
    "event_type": "long_touch",
    "x": null,
    "y": null,
    "view": {
      "package": "com.haringeymobile.ukweather",
      "visible": true,
      "checkable": false,
      "child_count": 0,
      "editable": true,
      "clickable": true,
      "is_password": false,
      "focusable": true,
      "enabled": true,
      "content_description": null,
      "children": [],
      "focused": true,
      "bounds": [
        [
          99,
          779
        ],
        [
          852,
          935
        ]
      ],
      "resource_id": "com.haringeymobile.ukweather:id/ac_search_edit_text",
      "checked": false,
      "text": "city,country",
      "class": "android.widget.EditText",
      "scrollable": false,
      "selected": false,
      "long_clickable": true,
      "parent": 11,
      "temp_id": 12,
      "size": "753*156",
      "signature": "[class]android.widget.EditText[resource_id]com.haringeymobile.ukweather:id/ac_search_edit_text[text]city,country[enabled,,]",
      "view_str": "ef827f30929bc3396d24305a9d1131f6",
      "content_free_signature": "[class]android.widget.EditText[resource_id]com.haringeymobile.ukweather:id/ac_search_edit_text"
    },
    "duration": 2000
  },
  "start_state": "1e5ce54871e7838428ebd02d9bdb7387",
  "stop_state": "1e5ce54871e7838428ebd02d9bdb7387",
  "event_str": "LongTouchEvent(state=1e5ce54871e7838428ebd02d9bdb7387, view=ef827f30929bc3396d24305a9d1131f6, duration=2000)"
}