{
  "tag": "2019-11-22_000512",
  "event": {
    "event_type": "touch",
    "x": null,
    "y": null,
    "view": {
      "package": "com.haringeymobile.ukweather",
      "visible": false,
      "checkable": false,
      "child_count": 0,
      "editable": false,
      "clickable": true,
      "is_password": false,
      "focusable": true,
      "enabled": true,
      "content_description": null,
      "children": [],
      "focused": false,
      "bounds": [
        [
          2523,
          258
        ],
        [
          1065,
          402
        ]
      ],
      "resource_id": null,
      "checked": false,
      "text": "Mon  Dec 02",
      "class": "android.widget.TextView",
      "scrollable": false,
      "selected": false,
      "long_clickable": false,
      "parent": 13,
      "temp_id": 24,
      "size": "-1458*144",
      "signature": "[class]android.widget.TextView[resource_id]None[text]Mon  Dec 02[enabled,,]",
      "view_str": "10da243e27130f4cd9e832e37675233f",
      "content_free_signature": "[class]android.widget.TextView[resource_id]None"
    }
  },
  "start_state": "5758602dcc91736e67814bcf73272e29",
  "stop_state": "5758602dcc91736e67814bcf73272e29",
  "event_str": "TouchEvent(state=5758602dcc91736e67814bcf73272e29, view=10da243e27130f4cd9e832e37675233f)"
}