{
  "tag": "2019-11-22_001932",
  "state_str": "3d06b380c4f1282ecd7b5fc52382ad9d",
  "state_str_content_free": "4b83cc5d4c43b3294029a426960a79fd",
  "foreground_activity": "com.haringeymobile.ukweather/.MainActivity",
  "activity_stack": [
    "com.haringeymobile.ukweather/.MainActivity"
  ],
  "background_services": [
    "com.google.android.apps.messaging/com.google.android.ims.service.JibeService",
    "com.google.android.gms/.deviceconnection.service.DeviceConnectionWatcherService",
    "com.google.android.gms/com.google.android.location.places.service.PlaceDetectionAsyncService",
    "com.android.systemui/.keyguard.KeyguardService",
    "com.google.android.gms/.measurement.service.MeasurementBrokerService",
    "com.android.systemui/.ImageWallpaper",
    "com.google.android.gms/com.google.android.location.geocode.GeocodeService",
    "com.google.android.gms/.auth.setup.devicesignals.LockScreenService",
    "com.google.android.gms/.gcm.GcmService",
    "com.google.android.gms/.auth.proximity.firstparty.SystemMemoryCacheService",
    "com.google.android.gms/.chimera.PersistentApiService",
    "com.android.phone/com.android.internal.telephony.CellularNetworkService",
    "com.google.android.gms/.chimera.PersistentBoundBrokerService",
    "com.google.android.gm/org.chromium.content.app.SandboxedProcessService0",
    "com.google.android.ims/.services.WakeLockService",
    "com.google.android.gms/.chimera.GmsBoundBrokerService",
    "com.google.android.gms/.chimera.GmsApiService",
    "com.google.android.gms/.fido.fido2.pollux.CableAuthenticatorService",
    "com.google.android.googlequicksearchbox/com.google.android.apps.gsa.nowoverlayservice.DrawerOverlayService",
    "io.github.ylimit.droidbotapp/.DroidBotIME",
    "com.google.android.gms/.beacon.BleService",
    "com.google.android.gms/com.google.android.location.fused.FusedLocationService",
    "com.google.android.gms/.gcm.nts.SchedulerService",
    "com.android.vending/com.google.android.finsky.deviceconfig.PhoneskyFirebaseMessagingService",
    "io.github.ylimit.droidbotapp/io.github.privacystreams.accessibility.PSAccessibilityService",
    "com.google.android.gms/com.google.android.location.geofencer.service.GeofenceProviderService",
    "com.google.android.gms/.thunderbird.EmergencyPersistentService",
    "com.google.android.apps.messaging/.fcm.BugleFirebaseInstanceIDService",
    "com.android.systemui/.SystemUIService",
    "android/.hardware.location.GeofenceHardwareService",
    "com.android.se/.SecureElementService",
    "com.google.android.ims/.services.RcsService",
    "com.google.android.gms/.chimera.GmsIntentOperationService",
    "com.google.android.gms/.chimera.PersistentDirectBootAwareApiService",
    "com.google.android.ext.services/android.ext.services.notification.Assistant",
    "com.google.android.gms/.location.persistent.LocationPersistentService",
    "com.google.android.gms/com.google.android.location.internal.PendingIntentCallbackService",
    "com.google.android.googlequicksearchbox/com.google.android.apps.gsa.search.core.service.SearchService",
    "com.google.android.gms/com.google.android.location.internal.server.GoogleLocationService",
    "com.google.android.gms/com.google.android.contextmanager.service.ContextManagerService",
    "com.google.android.gms/com.google.android.location.network.NetworkLocationService",
    "com.google.android.gms/com.google.android.location.internal.GoogleLocationManagerService",
    "com.google.android.apps.messaging/com.google.firebase.iid.FirebaseInstanceIdService",
    "com.android.phone/com.android.internal.telephony.dataconnection.CellularDataService",
    "com.android.server.telecom/.components.TelecomService",
    "com.google.android.googlequicksearchbox/com.google.android.voiceinteraction.GsaVoiceInteractionService",
    "com.android.smspush/.WapPushManager",
    "com.android.phone/.vvm.RemoteVvmTaskManager",
    "android/com.android.server.content.SyncJobService",
    "com.google.android.gms/.common.stats.GmsCoreStatsService",
    "com.google.android.gms/com.google.android.location.internal.server.HardwareArProviderService",
    "com.android.phone/.TelephonyDebugService",
    "com.google.android.videos/.service.pinning.TransferService",
    "com.google.android.apps.nexuslauncher/com.android.quickstep.TouchInteractionService",
    "com.google.android.ims/.services.NetworkConnectionsService"
  ],
  "views": [
    {
      "package": "com.haringeymobile.ukweather",
      "visible": true,
      "checkable": false,
      "child_count": 3,
      "editable": false,
      "clickable": false,
      "is_password": false,
      "focusable": false,
      "enabled": true,
      "content_description": null,
      "children": [
        1,
        81,
        82
      ],
      "focused": false,
      "bounds": [
        [
          0,
          0
        ],
        [
          1080,
          1920
        ]
      ],
      "resource_id": null,
      "checked": false,
      "text": null,
      "class": "android.widget.FrameLayout",
      "scrollable": false,
      "selected": false,
      "long_clickable": false,
      "parent": -1,
      "temp_id": 0,
      "size": "1080*1920",
      "signature": "[class]android.widget.FrameLayout[resource_id]None[text]None[enabled,,]",
      "view_str": "c268f97ca0338aac695f6643f9bfb016",
      "content_free_signature": "[class]android.widget.FrameLayout[resource_id]None"
    },
    {
      "package": "com.haringeymobile.ukweather",
      "visible": true,
      "checkable": false,
      "child_count": 1,
      "editable": false,
      "clickable": false,
      "is_password": false,
      "focusable": false,
      "enabled": true,
      "content_description": null,
      "children": [
        2
      ],
      "focused": false,
      "bounds": [
        [
          0,
          0
        ],
        [
          1080,
          1776
        ]
      ],
      "resource_id": null,
      "checked": false,
      "text": null,
      "class": "android.widget.LinearLayout",
      "scrollable": false,
      "selected": false,
      "long_clickable": false,
      "parent": 0,
      "temp_id": 1,
      "size": "1080*1776",
      "signature": "[class]android.widget.LinearLayout[resource_id]None[text]None[enabled,,]",
      "view_str": "77aab844a4f7c1aa44540d89bf2a6da8",
      "content_free_signature": "[class]android.widget.LinearLayout[resource_id]None"
    },
    {
      "package": "com.haringeymobile.ukweather",
      "visible": true,
      "checkable": false,
      "child_count": 1,
      "editable": false,
      "clickable": false,
      "is_password": false,
      "focusable": false,
      "enabled": true,
      "content_description": null,
      "children": [
        3
      ],
      "focused": false,
      "bounds": [
        [
          0,
          72
        ],
        [
          1080,
          1776
        ]
      ],
      "resource_id": null,
      "checked": false,
      "text": null,
      "class": "android.widget.FrameLayout",
      "scrollable": false,
      "selected": false,
      "long_clickable": false,
      "parent": 1,
      "temp_id": 2,
      "size": "1080*1704",
      "signature": "[class]android.widget.FrameLayout[resource_id]None[text]None[enabled,,]",
      "view_str": "673acac589cccd2608d8de74c0d8b46c",
      "content_free_signature": "[class]android.widget.FrameLayout[resource_id]None"
    },
    {
      "package": "com.haringeymobile.ukweather",
      "visible": true,
      "checkable": false,
      "child_count": 1,
      "editable": false,
      "clickable": false,
      "is_password": false,
      "focusable": false,
      "enabled": true,
      "content_description": null,
      "children": [
        4
      ],
      "focused": false,
      "bounds": [
        [
          0,
          72
        ],
        [
          1080,
          1776
        ]
      ],
      "resource_id": "com.haringeymobile.ukweather:id/action_bar_root",
      "checked": false,
      "text": null,
      "class": "android.widget.LinearLayout",
      "scrollable": false,
      "selected": false,
      "long_clickable": false,
      "parent": 2,
      "temp_id": 3,
      "size": "1080*1704",
      "signature": "[class]android.widget.LinearLayout[resource_id]com.haringeymobile.ukweather:id/action_bar_root[text]None[enabled,,]",
      "view_str": "0486b8fad0cfdcbaf5eb63996279e952",
      "content_free_signature": "[class]android.widget.LinearLayout[resource_id]com.haringeymobile.ukweather:id/action_bar_root"
    },
    {
      "package": "com.haringeymobile.ukweather",
      "visible": true,
      "checkable": false,
      "child_count": 1,
      "editable": false,
      "clickable": false,
      "is_password": false,
      "focusable": false,
      "enabled": true,
      "content_description": null,
      "children": [
        5
      ],
      "focused": false,
      "bounds": [
        [
          0,
          72
        ],
        [
          1080,
          1776
        ]
      ],
      "resource_id": "android:id/content",
      "checked": false,
      "text": null,
      "class": "android.widget.FrameLayout",
      "scrollable": false,
      "selected": false,
      "long_clickable": false,
      "parent": 3,
      "temp_id": 4,
      "size": "1080*1704",
      "signature": "[class]android.widget.FrameLayout[resource_id]android:id/content[text]None[enabled,,]",
      "view_str": "5ed100ab71787ed76ea3f005dd8ba148",
      "content_free_signature": "[class]android.widget.FrameLayout[resource_id]android:id/content"
    },
    {
      "package": "com.haringeymobile.ukweather",
      "visible": true,
      "checkable": false,
      "child_count": 2,
      "editable": false,
      "clickable": false,
      "is_password": false,
      "focusable": false,
      "enabled": true,
      "content_description": null,
      "children": [
        6,
        19
      ],
      "focused": false,
      "bounds": [
        [
          0,
          72
        ],
        [
          1080,
          1776
        ]
      ],
      "resource_id": null,
      "checked": false,
      "text": null,
      "class": "android.widget.LinearLayout",
      "scrollable": false,
      "selected": false,
      "long_clickable": false,
      "parent": 4,
      "temp_id": 5,
      "size": "1080*1704",
      "signature": "[class]android.widget.LinearLayout[resource_id]None[text]None[enabled,,]",
      "view_str": "086441685c48f06293eab63616189170",
      "content_free_signature": "[class]android.widget.LinearLayout[resource_id]None"
    },
    {
      "package": "com.haringeymobile.ukweather",
      "visible": true,
      "checkable": false,
      "child_count": 2,
      "editable": false,
      "clickable": false,
      "is_password": false,
      "focusable": false,
      "enabled": true,
      "content_description": null,
      "children": [
        7,
        18
      ],
      "focused": false,
      "bounds": [
        [
          0,
          72
        ],
        [
          1080,
          240
        ]
      ],
      "resource_id": "com.haringeymobile.ukweather:id/general_toolbar",
      "checked": false,
      "text": null,
      "class": "android.view.ViewGroup",
      "scrollable": false,
      "selected": false,
      "long_clickable": false,
      "parent": 5,
      "temp_id": 6,
      "size": "1080*168",
      "signature": "[class]android.view.ViewGroup[resource_id]com.haringeymobile.ukweather:id/general_toolbar[text]None[enabled,,]",
      "view_str": "57830f120e61692e949b073c430e1584",
      "content_free_signature": "[class]android.view.ViewGroup[resource_id]com.haringeymobile.ukweather:id/general_toolbar"
    },
    {
      "package": "com.haringeymobile.ukweather",
      "visible": true,
      "checkable": false,
      "child_count": 3,
      "editable": false,
      "clickable": false,
      "is_password": false,
      "focusable": false,
      "enabled": true,
      "content_description": null,
      "children": [
        8,
        16,
        17
      ],
      "focused": false,
      "bounds": [
        [
          48,
          72
        ],
        [
          1080,
          240
        ]
      ],
      "resource_id": null,
      "checked": false,
      "text": null,
      "class": "android.support.v7.widget.am",
      "scrollable": false,
      "selected": false,
      "long_clickable": false,
      "parent": 6,
      "temp_id": 7,
      "size": "1032*168",
      "signature": "[class]android.support.v7.widget.am[resource_id]None[text]None[enabled,,]",
      "view_str": "931e3d2c8db0f07a3c573fb1e6db9962",
      "content_free_signature": "[class]android.support.v7.widget.am[resource_id]None"
    },
    {
      "package": "com.haringeymobile.ukweather",
      "visible": true,
      "checkable": false,
      "child_count": 1,
      "editable": false,
      "clickable": false,
      "is_password": false,
      "focusable": true,
      "enabled": true,
      "content_description": null,
      "children": [
        9
      ],
      "focused": false,
      "bounds": [
        [
          48,
          84
        ],
        [
          1008,
          228
        ]
      ],
      "resource_id": "com.haringeymobile.ukweather:id/mi_search_cities",
      "checked": false,
      "text": null,
      "class": "android.support.v7.widget.am",
      "scrollable": false,
      "selected": false,
      "long_clickable": false,
      "parent": 7,
      "temp_id": 8,
      "size": "960*144",
      "signature": "[class]android.support.v7.widget.am[resource_id]com.haringeymobile.ukweather:id/mi_search_cities[text]None[enabled,,]",
      "view_str": "a54e35651b40ff2cf933c7767f91ea69",
      "content_free_signature": "[class]android.support.v7.widget.am[resource_id]com.haringeymobile.ukweather:id/mi_search_cities"
    },
    {
      "package": "com.haringeymobile.ukweather",
      "visible": true,
      "checkable": false,
      "child_count": 1,
      "editable": false,
      "clickable": false,
      "is_password": false,
      "focusable": false,
      "enabled": true,
      "content_description": null,
      "children": [
        10
      ],
      "focused": false,
      "bounds": [
        [
          48,
          84
        ],
        [
          1008,
          228
        ]
      ],
      "resource_id": "com.haringeymobile.ukweather:id/search_bar",
      "checked": false,
      "text": null,
      "class": "android.widget.LinearLayout",
      "scrollable": false,
      "selected": false,
      "long_clickable": false,
      "parent": 8,
      "temp_id": 9,
      "size": "960*144",
      "signature": "[class]android.widget.LinearLayout[resource_id]com.haringeymobile.ukweather:id/search_bar[text]None[enabled,,]",
      "view_str": "d69aeaebe9cf67c469b58615bd21ed8c",
      "content_free_signature": "[class]android.widget.LinearLayout[resource_id]com.haringeymobile.ukweather:id/search_bar"
    },
    {
      "package": "com.haringeymobile.ukweather",
      "visible": true,
      "checkable": false,
      "child_count": 2,
      "editable": false,
      "clickable": false,
      "is_password": false,
      "focusable": false,
      "enabled": true,
      "content_description": null,
      "children": [
        11,
        14
      ],
      "focused": false,
      "bounds": [
        [
          72,
          84
        ],
        [
          984,
          228
        ]
      ],
      "resource_id": "com.haringeymobile.ukweather:id/search_edit_frame",
      "checked": false,
      "text": null,
      "class": "android.widget.LinearLayout",
      "scrollable": false,
      "selected": false,
      "long_clickable": false,
      "parent": 9,
      "temp_id": 10,
      "size": "912*144",
      "signature": "[class]android.widget.LinearLayout[resource_id]com.haringeymobile.ukweather:id/search_edit_frame[text]None[enabled,,]",
      "view_str": "c064a7af06552a677e0a60bb55300929",
      "content_free_signature": "[class]android.widget.LinearLayout[resource_id]com.haringeymobile.ukweather:id/search_edit_frame"
    },
    {
      "package": "com.haringeymobile.ukweather",
      "visible": true,
      "checkable": false,
      "child_count": 2,
      "editable": false,
      "clickable": false,
      "is_password": false,
      "focusable": false,
      "enabled": true,
      "content_description": null,
      "children": [
        12,
        13
      ],
      "focused": false,
      "bounds": [
        [
          72,
          84
        ],
        [
          816,
          228
        ]
      ],
      "resource_id": "com.haringeymobile.ukweather:id/search_plate",
      "checked": false,
      "text": null,
      "class": "android.widget.LinearLayout",
      "scrollable": false,
      "selected": false,
      "long_clickable": false,
      "parent": 10,
      "temp_id": 11,
      "size": "744*144",
      "signature": "[class]android.widget.LinearLayout[resource_id]com.haringeymobile.ukweather:id/search_plate[text]None[enabled,,]",
      "view_str": "ce737daadd2d1cab20a8df81d3a33964",
      "content_free_signature": "[class]android.widget.LinearLayout[resource_id]com.haringeymobile.ukweather:id/search_plate"
    },
    {
      "package": "com.haringeymobile.ukweather",
      "visible": true,
      "checkable": false,
      "child_count": 0,
      "editable": true,
      "clickable": true,
      "is_password": false,
      "focusable": true,
      "enabled": true,
      "content_description": null,
      "children": [],
      "focused": true,
      "bounds": [
        [
          72,
          102
        ],
        [
          696,
          210
        ]
      ],
      "resource_id": "com.haringeymobile.ukweather:id/search_src_text",
      "checked": false,
      "text": "Search your cities",
      "class": "android.widget.EditText",
      "scrollable": false,
      "selected": false,
      "long_clickable": true,
      "parent": 11,
      "temp_id": 12,
      "size": "624*108",
      "signature": "[class]android.widget.EditText[resource_id]com.haringeymobile.ukweather:id/search_src_text[text]Search your cities[enabled,,]",
      "view_str": "4e6a3156d79f12cac1965507dfd44edc",
      "content_free_signature": "[class]android.widget.EditText[resource_id]com.haringeymobile.ukweather:id/search_src_text"
    },
    {
      "package": "com.haringeymobile.ukweather",
      "visible": true,
      "checkable": false,
      "child_count": 0,
      "editable": false,
      "clickable": true,
      "is_password": false,
      "focusable": true,
      "enabled": true,
      "content_description": "Clear query",
      "children": [],
      "focused": false,
      "bounds": [
        [
          696,
          84
        ],
        [
          816,
          228
        ]
      ],
      "resource_id": "com.haringeymobile.ukweather:id/search_close_btn",
      "checked": false,
      "text": null,
      "class": "android.widget.ImageView",
      "scrollable": false,
      "selected": false,
      "long_clickable": false,
      "parent": 11,
      "temp_id": 13,
      "size": "120*144",
      "signature": "[class]android.widget.ImageView[resource_id]com.haringeymobile.ukweather:id/search_close_btn[text]None[enabled,,]",
      "view_str": "cd625b497e4e87cb79142a3fd65d46e2",
      "content_free_signature": "[class]android.widget.ImageView[resource_id]com.haringeymobile.ukweather:id/search_close_btn"
    },
    {
      "package": "com.haringeymobile.ukweather",
      "visible": true,
      "checkable": false,
      "child_count": 1,
      "editable": false,
      "clickable": false,
      "is_password": false,
      "focusable": false,
      "enabled": true,
      "content_description": null,
      "children": [
        15
      ],
      "focused": false,
      "bounds": [
        [
          816,
          84
        ],
        [
          984,
          228
        ]
      ],
      "resource_id": "com.haringeymobile.ukweather:id/submit_area",
      "checked": false,
      "text": null,
      "class": "android.widget.LinearLayout",
      "scrollable": false,
      "selected": false,
      "long_clickable": false,
      "parent": 10,
      "temp_id": 14,
      "size": "168*144",
      "signature": "[class]android.widget.LinearLayout[resource_id]com.haringeymobile.ukweather:id/submit_area[text]None[enabled,,]",
      "view_str": "706bf0ed6a7cbf5e0188006ecf684b86",
      "content_free_signature": "[class]android.widget.LinearLayout[resource_id]com.haringeymobile.ukweather:id/submit_area"
    },
    {
      "package": "com.haringeymobile.ukweather",
      "visible": true,
      "checkable": false,
      "child_count": 0,
      "editable": false,
      "clickable": true,
      "is_password": false,
      "focusable": true,
      "enabled": true,
      "content_description": "Submit query",
      "children": [],
      "focused": false,
      "bounds": [
        [
          816,
          84
        ],
        [
          984,
          228
        ]
      ],
      "resource_id": "com.haringeymobile.ukweather:id/search_go_btn",
      "checked": false,
      "text": null,
      "class": "android.widget.ImageView",
      "scrollable": false,
      "selected": false,
      "long_clickable": false,
      "parent": 14,
      "temp_id": 15,
      "size": "168*144",
      "signature": "[class]android.widget.ImageView[resource_id]com.haringeymobile.ukweather:id/search_go_btn[text]None[enabled,,]",
      "view_str": "ae312180842ffad1a62f87b6a53d0786",
      "content_free_signature": "[class]android.widget.ImageView[resource_id]com.haringeymobile.ukweather:id/search_go_btn"
    },
    {
      "package": "com.haringeymobile.ukweather",
      "visible": true,
      "checkable": false,
      "child_count": 0,
      "editable": false,
      "clickable": true,
      "is_password": false,
      "focusable": true,
      "enabled": true,
      "content_description": "Add city",
      "children": [],
      "focused": false,
      "bounds": [
        [
          1008,
          84
        ],
        [
          1080,
          228
        ]
      ],
      "resource_id": "com.haringeymobile.ukweather:id/mi_add_city",
      "checked": false,
      "text": null,
      "class": "android.widget.TextView",
      "scrollable": false,
      "selected": false,
      "long_clickable": true,
      "parent": 7,
      "temp_id": 16,
      "size": "72*144",
      "signature": "[class]android.widget.TextView[resource_id]com.haringeymobile.ukweather:id/mi_add_city[text]None[enabled,,]",
      "view_str": "7e28ba3051bbcdd2d4bd967744956ebc",
      "content_free_signature": "[class]android.widget.TextView[resource_id]com.haringeymobile.ukweather:id/mi_add_city"
    },
    {
      "package": "com.haringeymobile.ukweather",
      "visible": false,
      "checkable": false,
      "child_count": 0,
      "editable": false,
      "clickable": true,
      "is_password": false,
      "focusable": true,
      "enabled": true,
      "content_description": "Extras",
      "children": [],
      "focused": false,
      "bounds": [
        [
          1080,
          84
        ],
        [
          1080,
          228
        ]
      ],
      "resource_id": "com.haringeymobile.ukweather:id/mi_main_submenu",
      "checked": false,
      "text": null,
      "class": "android.widget.TextView",
      "scrollable": false,
      "selected": false,
      "long_clickable": true,
      "parent": 7,
      "temp_id": 17,
      "size": "0*144",
      "signature": "[class]android.widget.TextView[resource_id]com.haringeymobile.ukweather:id/mi_main_submenu[text]None[enabled,,]",
      "view_str": "6cdad1f2405b2ce51e72c4a9471345b9",
      "content_free_signature": "[class]android.widget.TextView[resource_id]com.haringeymobile.ukweather:id/mi_main_submenu"
    },
    {
      "package": "com.haringeymobile.ukweather",
      "visible": false,
      "checkable": false,
      "child_count": 0,
      "editable": false,
      "clickable": false,
      "is_password": false,
      "focusable": false,
      "enabled": true,
      "content_description": null,
      "children": [],
      "focused": false,
      "bounds": [
        [
          48,
          115
        ],
        [
          48,
          196
        ]
      ],
      "resource_id": null,
      "checked": false,
      "text": "World Weather",
      "class": "android.widget.TextView",
      "scrollable": false,
      "selected": false,
      "long_clickable": false,
      "parent": 6,
      "temp_id": 18,
      "size": "0*81",
      "signature": "[class]android.widget.TextView[resource_id]None[text]World Weather[enabled,,]",
      "view_str": "14b19dcf0907c2612f0d96cd451f1303",
      "content_free_signature": "[class]android.widget.TextView[resource_id]None"
    },
    {
      "package": "com.haringeymobile.ukweather",
      "visible": true,
      "checkable": false,
      "child_count": 1,
      "editable": false,
      "clickable": false,
      "is_password": false,
      "focusable": false,
      "enabled": true,
      "content_description": null,
      "children": [
        20
      ],
      "focused": false,
      "bounds": [
        [
          0,
          249
        ],
        [
          1080,
          1776
        ]
      ],
      "resource_id": "com.haringeymobile.ukweather:id/city_list_container",
      "checked": false,
      "text": null,
      "class": "android.widget.FrameLayout",
      "scrollable": false,
      "selected": false,
      "long_clickable": false,
      "parent": 5,
      "temp_id": 19,
      "size": "1080*1527",
      "signature": "[class]android.widget.FrameLayout[resource_id]com.haringeymobile.ukweather:id/city_list_container[text]None[enabled,,]",
      "view_str": "d58ef7737daf69224e56e0cc3f56e033",
      "content_free_signature": "[class]android.widget.FrameLayout[resource_id]com.haringeymobile.ukweather:id/city_list_container"
    },
    {
      "package": "com.haringeymobile.ukweather",
      "visible": true,
      "checkable": false,
      "child_count": 5,
      "editable": false,
      "clickable": false,
      "is_password": false,
      "focusable": false,
      "enabled": true,
      "content_description": null,
      "children": [
        21,
        33,
        45,
        57,
        69
      ],
      "focused": false,
      "bounds": [
        [
          12,
          249
        ],
        [
          1068,
          1776
        ]
      ],
      "resource_id": "android:id/list",
      "checked": false,
      "text": null,
      "class": "android.widget.ListView",
      "scrollable": true,
      "selected": false,
      "long_clickable": false,
      "parent": 19,
      "temp_id": 20,
      "size": "1056*1527",
      "signature": "[class]android.widget.ListView[resource_id]android:id/list[text]None[enabled,,]",
      "view_str": "44a3010f36b12e2f41e1776b0a725cce",
      "content_free_signature": "[class]android.widget.ListView[resource_id]android:id/list"
    },
    {
      "package": "com.haringeymobile.ukweather",
      "visible": true,
      "checkable": false,
      "child_count": 2,
      "editable": false,
      "clickable": true,
      "is_password": false,
      "focusable": false,
      "enabled": true,
      "content_description": null,
      "children": [
        22,
        23
      ],
      "focused": false,
      "bounds": [
        [
          12,
          261
        ],
        [
          1068,
          607
        ]
      ],
      "resource_id": null,
      "checked": false,
      "text": null,
      "class": "android.widget.LinearLayout",
      "scrollable": false,
      "selected": false,
      "long_clickable": false,
      "parent": 20,
      "temp_id": 21,
      "size": "1056*346",
      "signature": "[class]android.widget.LinearLayout[resource_id]None[text]None[enabled,,]",
      "view_str": "fa3a84a77263aa167e98232663a9f9f3",
      "content_free_signature": "[class]android.widget.LinearLayout[resource_id]None"
    },
    {
      "package": "com.haringeymobile.ukweather",
      "visible": true,
      "checkable": false,
      "child_count": 0,
      "editable": false,
      "clickable": false,
      "is_password": false,
      "focusable": false,
      "enabled": true,
      "content_description": null,
      "children": [],
      "focused": false,
      "bounds": [
        [
          21,
          270
        ],
        [
          1059,
          423
        ]
      ],
      "resource_id": "com.haringeymobile.ukweather:id/city_name_in_list_row_text_view",
      "checked": false,
      "text": "Hell",
      "class": "android.widget.TextView",
      "scrollable": false,
      "selected": false,
      "long_clickable": false,
      "parent": 21,
      "temp_id": 22,
      "size": "1038*153",
      "signature": "[class]android.widget.TextView[resource_id]com.haringeymobile.ukweather:id/city_name_in_list_row_text_view[text]Hell[enabled,,]",
      "view_str": "edff9efb5010958ce188401c7cecbd6f",
      "content_free_signature": "[class]android.widget.TextView[resource_id]com.haringeymobile.ukweather:id/city_name_in_list_row_text_view"
    },
    {
      "package": "com.haringeymobile.ukweather",
      "visible": true,
      "checkable": false,
      "child_count": 3,
      "editable": false,
      "clickable": false,
      "is_password": false,
      "focusable": false,
      "enabled": true,
      "content_description": null,
      "children": [
        24,
        27,
        30
      ],
      "focused": false,
      "bounds": [
        [
          21,
          423
        ],
        [
          1059,
          598
        ]
      ],
      "resource_id": null,
      "checked": false,
      "text": null,
      "class": "android.widget.LinearLayout",
      "scrollable": false,
      "selected": false,
      "long_clickable": false,
      "parent": 21,
      "temp_id": 23,
      "size": "1038*175",
      "signature": "[class]android.widget.LinearLayout[resource_id]None[text]None[enabled,,]",
      "view_str": "40c3a7f639c40d76b46d63af76126044",
      "content_free_signature": "[class]android.widget.LinearLayout[resource_id]None"
    },
    {
      "package": "com.haringeymobile.ukweather",
      "visible": true,
      "checkable": false,
      "child_count": 2,
      "editable": false,
      "clickable": true,
      "is_password": false,
      "focusable": true,
      "enabled": true,
      "content_description": null,
      "children": [
        25,
        26
      ],
      "focused": false,
      "bounds": [
        [
          30,
          432
        ],
        [
          358,
          589
        ]
      ],
      "resource_id": "com.haringeymobile.ukweather:id/city_current_weather_button",
      "checked": false,
      "text": null,
      "class": "android.widget.LinearLayout",
      "scrollable": false,
      "selected": false,
      "long_clickable": false,
      "parent": 23,
      "temp_id": 24,
      "size": "328*157",
      "signature": "[class]android.widget.LinearLayout[resource_id]com.haringeymobile.ukweather:id/city_current_weather_button[text]None[enabled,,]",
      "view_str": "806c40b373855a171f1b07ddb2182bed",
      "content_free_signature": "[class]android.widget.LinearLayout[resource_id]com.haringeymobile.ukweather:id/city_current_weather_button"
    },
    {
      "package": "com.haringeymobile.ukweather",
      "visible": true,
      "checkable": false,
      "child_count": 0,
      "editable": false,
      "clickable": false,
      "is_password": false,
      "focusable": false,
      "enabled": true,
      "content_description": null,
      "children": [],
      "focused": false,
      "bounds": [
        [
          57,
          465
        ],
        [
          121,
          556
        ]
      ],
      "resource_id": null,
      "checked": false,
      "text": null,
      "class": "android.widget.ImageView",
      "scrollable": false,
      "selected": false,
      "long_clickable": false,
      "parent": 24,
      "temp_id": 25,
      "size": "64*91",
      "signature": "[class]android.widget.ImageView[resource_id]None[text]None[enabled,,]",
      "view_str": "781981be57c0f84e8a231a48d2bbc1b8",
      "content_free_signature": "[class]android.widget.ImageView[resource_id]None"
    },
    {
      "package": "com.haringeymobile.ukweather",
      "visible": true,
      "checkable": false,
      "child_count": 0,
      "editable": false,
      "clickable": false,
      "is_password": false,
      "focusable": false,
      "enabled": true,
      "content_description": null,
      "children": [],
      "focused": false,
      "bounds": [
        [
          139,
          465
        ],
        [
          331,
          556
        ]
      ],
      "resource_id": null,
      "checked": false,
      "text": "Current\nweather",
      "class": "android.widget.TextView",
      "scrollable": false,
      "selected": false,
      "long_clickable": false,
      "parent": 24,
      "temp_id": 26,
      "size": "192*91",
      "signature": "[class]android.widget.TextView[resource_id]None[text]Current\nweather[enabled,,]",
      "view_str": "2038756c451c703c14be010d90ef09e6",
      "content_free_signature": "[class]android.widget.TextView[resource_id]None"
    },
    {
      "package": "com.haringeymobile.ukweather",
      "visible": true,
      "checkable": false,
      "child_count": 2,
      "editable": false,
      "clickable": true,
      "is_password": false,
      "focusable": true,
      "enabled": true,
      "content_description": null,
      "children": [
        28,
        29
      ],
      "focused": false,
      "bounds": [
        [
          376,
          432
        ],
        [
          704,
          589
        ]
      ],
      "resource_id": "com.haringeymobile.ukweather:id/city_daily_weather_forecast_button",
      "checked": false,
      "text": null,
      "class": "android.widget.LinearLayout",
      "scrollable": false,
      "selected": false,
      "long_clickable": false,
      "parent": 23,
      "temp_id": 27,
      "size": "328*157",
      "signature": "[class]android.widget.LinearLayout[resource_id]com.haringeymobile.ukweather:id/city_daily_weather_forecast_button[text]None[enabled,,]",
      "view_str": "afe73b530dc35eb58e9ec69c1a98b7bc",
      "content_free_signature": "[class]android.widget.LinearLayout[resource_id]com.haringeymobile.ukweather:id/city_daily_weather_forecast_button"
    },
    {
      "package": "com.haringeymobile.ukweather",
      "visible": true,
      "checkable": false,
      "child_count": 0,
      "editable": false,
      "clickable": false,
      "is_password": false,
      "focusable": false,
      "enabled": true,
      "content_description": null,
      "children": [],
      "focused": false,
      "bounds": [
        [
          403,
          465
        ],
        [
          467,
          556
        ]
      ],
      "resource_id": null,
      "checked": false,
      "text": null,
      "class": "android.widget.ImageView",
      "scrollable": false,
      "selected": false,
      "long_clickable": false,
      "parent": 27,
      "temp_id": 28,
      "size": "64*91",
      "signature": "[class]android.widget.ImageView[resource_id]None[text]None[enabled,,]",
      "view_str": "40ba9a5962b4c34d7da49b3f0444ada0",
      "content_free_signature": "[class]android.widget.ImageView[resource_id]None"
    },
    {
      "package": "com.haringeymobile.ukweather",
      "visible": true,
      "checkable": false,
      "child_count": 0,
      "editable": false,
      "clickable": false,
      "is_password": false,
      "focusable": false,
      "enabled": true,
      "content_description": null,
      "children": [],
      "focused": false,
      "bounds": [
        [
          485,
          465
        ],
        [
          677,
          556
        ]
      ],
      "resource_id": null,
      "checked": false,
      "text": "16 day \nforecast",
      "class": "android.widget.TextView",
      "scrollable": false,
      "selected": false,
      "long_clickable": false,
      "parent": 27,
      "temp_id": 29,
      "size": "192*91",
      "signature": "[class]android.widget.TextView[resource_id]None[text]16 day \nforecast[enabled,,]",
      "view_str": "1819dddf218dde22b4e156a014982e55",
      "content_free_signature": "[class]android.widget.TextView[resource_id]None"
    },
    {
      "package": "com.haringeymobile.ukweather",
      "visible": true,
      "checkable": false,
      "child_count": 2,
      "editable": false,
      "clickable": true,
      "is_password": false,
      "focusable": true,
      "enabled": true,
      "content_description": null,
      "children": [
        31,
        32
      ],
      "focused": false,
      "bounds": [
        [
          722,
          432
        ],
        [
          1050,
          589
        ]
      ],
      "resource_id": "com.haringeymobile.ukweather:id/city_three_hourly_weather_forecast_button",
      "checked": false,
      "text": null,
      "class": "android.widget.LinearLayout",
      "scrollable": false,
      "selected": false,
      "long_clickable": false,
      "parent": 23,
      "temp_id": 30,
      "size": "328*157",
      "signature": "[class]android.widget.LinearLayout[resource_id]com.haringeymobile.ukweather:id/city_three_hourly_weather_forecast_button[text]None[enabled,,]",
      "view_str": "60cc807356987e7d0d0e66cd64b83852",
      "content_free_signature": "[class]android.widget.LinearLayout[resource_id]com.haringeymobile.ukweather:id/city_three_hourly_weather_forecast_button"
    },
    {
      "package": "com.haringeymobile.ukweather",
      "visible": true,
      "checkable": false,
      "child_count": 0,
      "editable": false,
      "clickable": false,
      "is_password": false,
      "focusable": false,
      "enabled": true,
      "content_description": null,
      "children": [],
      "focused": false,
      "bounds": [
        [
          749,
          465
        ],
        [
          813,
          556
        ]
      ],
      "resource_id": null,
      "checked": false,
      "text": null,
      "class": "android.widget.ImageView",
      "scrollable": false,
      "selected": false,
      "long_clickable": false,
      "parent": 30,
      "temp_id": 31,
      "size": "64*91",
      "signature": "[class]android.widget.ImageView[resource_id]None[text]None[enabled,,]",
      "view_str": "ff2415d00f0288f2a4a64deb7c5f9d5c",
      "content_free_signature": "[class]android.widget.ImageView[resource_id]None"
    },
    {
      "package": "com.haringeymobile.ukweather",
      "visible": true,
      "checkable": false,
      "child_count": 0,
      "editable": false,
      "clickable": false,
      "is_password": false,
      "focusable": false,
      "enabled": true,
      "content_description": null,
      "children": [],
      "focused": false,
      "bounds": [
        [
          831,
          465
        ],
        [
          1023,
          556
        ]
      ],
      "resource_id": null,
      "checked": false,
      "text": "3-hourly\nforecast",
      "class": "android.widget.TextView",
      "scrollable": false,
      "selected": false,
      "long_clickable": false,
      "parent": 30,
      "temp_id": 32,
      "size": "192*91",
      "signature": "[class]android.widget.TextView[resource_id]None[text]3-hourly\nforecast[enabled,,]",
      "view_str": "299eb7f4cc254b7428008805d252a94d",
      "content_free_signature": "[class]android.widget.TextView[resource_id]None"
    },
    {
      "package": "com.haringeymobile.ukweather",
      "visible": true,
      "checkable": false,
      "child_count": 2,
      "editable": false,
      "clickable": true,
      "is_password": false,
      "focusable": false,
      "enabled": true,
      "content_description": null,
      "children": [
        34,
        35
      ],
      "focused": false,
      "bounds": [
        [
          12,
          637
        ],
        [
          1068,
          983
        ]
      ],
      "resource_id": null,
      "checked": false,
      "text": null,
      "class": "android.widget.LinearLayout",
      "scrollable": false,
      "selected": false,
      "long_clickable": false,
      "parent": 20,
      "temp_id": 33,
      "size": "1056*346",
      "signature": "[class]android.widget.LinearLayout[resource_id]None[text]None[enabled,,]",
      "view_str": "f0ef2fd311ebb462b710357d713af9d1",
      "content_free_signature": "[class]android.widget.LinearLayout[resource_id]None"
    },
    {
      "package": "com.haringeymobile.ukweather",
      "visible": true,
      "checkable": false,
      "child_count": 0,
      "editable": false,
      "clickable": false,
      "is_password": false,
      "focusable": false,
      "enabled": true,
      "content_description": null,
      "children": [],
      "focused": false,
      "bounds": [
        [
          21,
          646
        ],
        [
          1059,
          799
        ]
      ],
      "resource_id": "com.haringeymobile.ukweather:id/city_name_in_list_row_text_view",
      "checked": false,
      "text": "London",
      "class": "android.widget.TextView",
      "scrollable": false,
      "selected": false,
      "long_clickable": false,
      "parent": 33,
      "temp_id": 34,
      "size": "1038*153",
      "signature": "[class]android.widget.TextView[resource_id]com.haringeymobile.ukweather:id/city_name_in_list_row_text_view[text]London[enabled,,]",
      "view_str": "3f0dd25771d51960c6ed745c2f9b88f1",
      "content_free_signature": "[class]android.widget.TextView[resource_id]com.haringeymobile.ukweather:id/city_name_in_list_row_text_view"
    },
    {
      "package": "com.haringeymobile.ukweather",
      "visible": true,
      "checkable": false,
      "child_count": 3,
      "editable": false,
      "clickable": false,
      "is_password": false,
      "focusable": false,
      "enabled": true,
      "content_description": null,
      "children": [
        36,
        39,
        42
      ],
      "focused": false,
      "bounds": [
        [
          21,
          799
        ],
        [
          1059,
          974
        ]
      ],
      "resource_id": null,
      "checked": false,
      "text": null,
      "class": "android.widget.LinearLayout",
      "scrollable": false,
      "selected": false,
      "long_clickable": false,
      "parent": 33,
      "temp_id": 35,
      "size": "1038*175",
      "signature": "[class]android.widget.LinearLayout[resource_id]None[text]None[enabled,,]",
      "view_str": "40c3a7f639c40d76b46d63af76126044",
      "content_free_signature": "[class]android.widget.LinearLayout[resource_id]None"
    },
    {
      "package": "com.haringeymobile.ukweather",
      "visible": true,
      "checkable": false,
      "child_count": 2,
      "editable": false,
      "clickable": true,
      "is_password": false,
      "focusable": true,
      "enabled": true,
      "content_description": null,
      "children": [
        37,
        38
      ],
      "focused": false,
      "bounds": [
        [
          30,
          808
        ],
        [
          358,
          965
        ]
      ],
      "resource_id": "com.haringeymobile.ukweather:id/city_current_weather_button",
      "checked": false,
      "text": null,
      "class": "android.widget.LinearLayout",
      "scrollable": false,
      "selected": false,
      "long_clickable": false,
      "parent": 35,
      "temp_id": 36,
      "size": "328*157",
      "signature": "[class]android.widget.LinearLayout[resource_id]com.haringeymobile.ukweather:id/city_current_weather_button[text]None[enabled,,]",
      "view_str": "806c40b373855a171f1b07ddb2182bed",
      "content_free_signature": "[class]android.widget.LinearLayout[resource_id]com.haringeymobile.ukweather:id/city_current_weather_button"
    },
    {
      "package": "com.haringeymobile.ukweather",
      "visible": true,
      "checkable": false,
      "child_count": 0,
      "editable": false,
      "clickable": false,
      "is_password": false,
      "focusable": false,
      "enabled": true,
      "content_description": null,
      "children": [],
      "focused": false,
      "bounds": [
        [
          57,
          841
        ],
        [
          121,
          932
        ]
      ],
      "resource_id": null,
      "checked": false,
      "text": null,
      "class": "android.widget.ImageView",
      "scrollable": false,
      "selected": false,
      "long_clickable": false,
      "parent": 36,
      "temp_id": 37,
      "size": "64*91",
      "signature": "[class]android.widget.ImageView[resource_id]None[text]None[enabled,,]",
      "view_str": "781981be57c0f84e8a231a48d2bbc1b8",
      "content_free_signature": "[class]android.widget.ImageView[resource_id]None"
    },
    {
      "package": "com.haringeymobile.ukweather",
      "visible": true,
      "checkable": false,
      "child_count": 0,
      "editable": false,
      "clickable": false,
      "is_password": false,
      "focusable": false,
      "enabled": true,
      "content_description": null,
      "children": [],
      "focused": false,
      "bounds": [
        [
          139,
          841
        ],
        [
          331,
          932
        ]
      ],
      "resource_id": null,
      "checked": false,
      "text": "Current\nweather",
      "class": "android.widget.TextView",
      "scrollable": false,
      "selected": false,
      "long_clickable": false,
      "parent": 36,
      "temp_id": 38,
      "size": "192*91",
      "signature": "[class]android.widget.TextView[resource_id]None[text]Current\nweather[enabled,,]",
      "view_str": "2038756c451c703c14be010d90ef09e6",
      "content_free_signature": "[class]android.widget.TextView[resource_id]None"
    },
    {
      "package": "com.haringeymobile.ukweather",
      "visible": true,
      "checkable": false,
      "child_count": 2,
      "editable": false,
      "clickable": true,
      "is_password": false,
      "focusable": true,
      "enabled": true,
      "content_description": null,
      "children": [
        40,
        41
      ],
      "focused": false,
      "bounds": [
        [
          376,
          808
        ],
        [
          704,
          965
        ]
      ],
      "resource_id": "com.haringeymobile.ukweather:id/city_daily_weather_forecast_button",
      "checked": false,
      "text": null,
      "class": "android.widget.LinearLayout",
      "scrollable": false,
      "selected": false,
      "long_clickable": false,
      "parent": 35,
      "temp_id": 39,
      "size": "328*157",
      "signature": "[class]android.widget.LinearLayout[resource_id]com.haringeymobile.ukweather:id/city_daily_weather_forecast_button[text]None[enabled,,]",
      "view_str": "afe73b530dc35eb58e9ec69c1a98b7bc",
      "content_free_signature": "[class]android.widget.LinearLayout[resource_id]com.haringeymobile.ukweather:id/city_daily_weather_forecast_button"
    },
    {
      "package": "com.haringeymobile.ukweather",
      "visible": true,
      "checkable": false,
      "child_count": 0,
      "editable": false,
      "clickable": false,
      "is_password": false,
      "focusable": false,
      "enabled": true,
      "content_description": null,
      "children": [],
      "focused": false,
      "bounds": [
        [
          403,
          841
        ],
        [
          467,
          932
        ]
      ],
      "resource_id": null,
      "checked": false,
      "text": null,
      "class": "android.widget.ImageView",
      "scrollable": false,
      "selected": false,
      "long_clickable": false,
      "parent": 39,
      "temp_id": 40,
      "size": "64*91",
      "signature": "[class]android.widget.ImageView[resource_id]None[text]None[enabled,,]",
      "view_str": "40ba9a5962b4c34d7da49b3f0444ada0",
      "content_free_signature": "[class]android.widget.ImageView[resource_id]None"
    },
    {
      "package": "com.haringeymobile.ukweather",
      "visible": true,
      "checkable": false,
      "child_count": 0,
      "editable": false,
      "clickable": false,
      "is_password": false,
      "focusable": false,
      "enabled": true,
      "content_description": null,
      "children": [],
      "focused": false,
      "bounds": [
        [
          485,
          841
        ],
        [
          677,
          932
        ]
      ],
      "resource_id": null,
      "checked": false,
      "text": "16 day \nforecast",
      "class": "android.widget.TextView",
      "scrollable": false,
      "selected": false,
      "long_clickable": false,
      "parent": 39,
      "temp_id": 41,
      "size": "192*91",
      "signature": "[class]android.widget.TextView[resource_id]None[text]16 day \nforecast[enabled,,]",
      "view_str": "1819dddf218dde22b4e156a014982e55",
      "content_free_signature": "[class]android.widget.TextView[resource_id]None"
    },
    {
      "package": "com.haringeymobile.ukweather",
      "visible": true,
      "checkable": false,
      "child_count": 2,
      "editable": false,
      "clickable": true,
      "is_password": false,
      "focusable": true,
      "enabled": true,
      "content_description": null,
      "children": [
        43,
        44
      ],
      "focused": false,
      "bounds": [
        [
          722,
          808
        ],
        [
          1050,
          965
        ]
      ],
      "resource_id": "com.haringeymobile.ukweather:id/city_three_hourly_weather_forecast_button",
      "checked": false,
      "text": null,
      "class": "android.widget.LinearLayout",
      "scrollable": false,
      "selected": false,
      "long_clickable": false,
      "parent": 35,
      "temp_id": 42,
      "size": "328*157",
      "signature": "[class]android.widget.LinearLayout[resource_id]com.haringeymobile.ukweather:id/city_three_hourly_weather_forecast_button[text]None[enabled,,]",
      "view_str": "60cc807356987e7d0d0e66cd64b83852",
      "content_free_signature": "[class]android.widget.LinearLayout[resource_id]com.haringeymobile.ukweather:id/city_three_hourly_weather_forecast_button"
    },
    {
      "package": "com.haringeymobile.ukweather",
      "visible": true,
      "checkable": false,
      "child_count": 0,
      "editable": false,
      "clickable": false,
      "is_password": false,
      "focusable": false,
      "enabled": true,
      "content_description": null,
      "children": [],
      "focused": false,
      "bounds": [
        [
          749,
          841
        ],
        [
          813,
          932
        ]
      ],
      "resource_id": null,
      "checked": false,
      "text": null,
      "class": "android.widget.ImageView",
      "scrollable": false,
      "selected": false,
      "long_clickable": false,
      "parent": 42,
      "temp_id": 43,
      "size": "64*91",
      "signature": "[class]android.widget.ImageView[resource_id]None[text]None[enabled,,]",
      "view_str": "ff2415d00f0288f2a4a64deb7c5f9d5c",
      "content_free_signature": "[class]android.widget.ImageView[resource_id]None"
    },
    {
      "package": "com.haringeymobile.ukweather",
      "visible": true,
      "checkable": false,
      "child_count": 0,
      "editable": false,
      "clickable": false,
      "is_password": false,
      "focusable": false,
      "enabled": true,
      "content_description": null,
      "children": [],
      "focused": false,
      "bounds": [
        [
          831,
          841
        ],
        [
          1023,
          932
        ]
      ],
      "resource_id": null,
      "checked": false,
      "text": "3-hourly\nforecast",
      "class": "android.widget.TextView",
      "scrollable": false,
      "selected": false,
      "long_clickable": false,
      "parent": 42,
      "temp_id": 44,
      "size": "192*91",
      "signature": "[class]android.widget.TextView[resource_id]None[text]3-hourly\nforecast[enabled,,]",
      "view_str": "299eb7f4cc254b7428008805d252a94d",
      "content_free_signature": "[class]android.widget.TextView[resource_id]None"
    },
    {
      "package": "com.haringeymobile.ukweather",
      "visible": true,
      "checkable": false,
      "child_count": 2,
      "editable": false,
      "clickable": true,
      "is_password": false,
      "focusable": false,
      "enabled": true,
      "content_description": null,
      "children": [
        46,
        47
      ],
      "focused": false,
      "bounds": [
        [
          12,
          1013
        ],
        [
          1068,
          1359
        ]
      ],
      "resource_id": null,
      "checked": false,
      "text": null,
      "class": "android.widget.LinearLayout",
      "scrollable": false,
      "selected": false,
      "long_clickable": false,
      "parent": 20,
      "temp_id": 45,
      "size": "1056*346",
      "signature": "[class]android.widget.LinearLayout[resource_id]None[text]None[enabled,,]",
      "view_str": "5068323bb94a3299b7483ce678a2c99c",
      "content_free_signature": "[class]android.widget.LinearLayout[resource_id]None"
    },
    {
      "package": "com.haringeymobile.ukweather",
      "visible": true,
      "checkable": false,
      "child_count": 0,
      "editable": false,
      "clickable": false,
      "is_password": false,
      "focusable": false,
      "enabled": true,
      "content_description": null,
      "children": [],
      "focused": false,
      "bounds": [
        [
          21,
          1022
        ],
        [
          1059,
          1175
        ]
      ],
      "resource_id": "com.haringeymobile.ukweather:id/city_name_in_list_row_text_view",
      "checked": false,
      "text": "Mexico City",
      "class": "android.widget.TextView",
      "scrollable": false,
      "selected": false,
      "long_clickable": false,
      "parent": 45,
      "temp_id": 46,
      "size": "1038*153",
      "signature": "[class]android.widget.TextView[resource_id]com.haringeymobile.ukweather:id/city_name_in_list_row_text_view[text]Mexico City[enabled,,]",
      "view_str": "31b445cca59345183d50fde900a8e687",
      "content_free_signature": "[class]android.widget.TextView[resource_id]com.haringeymobile.ukweather:id/city_name_in_list_row_text_view"
    },
    {
      "package": "com.haringeymobile.ukweather",
      "visible": true,
      "checkable": false,
      "child_count": 3,
      "editable": false,
      "clickable": false,
      "is_password": false,
      "focusable": false,
      "enabled": true,
      "content_description": null,
      "children": [
        48,
        51,
        54
      ],
      "focused": false,
      "bounds": [
        [
          21,
          1175
        ],
        [
          1059,
          1350
        ]
      ],
      "resource_id": null,
      "checked": false,
      "text": null,
      "class": "android.widget.LinearLayout",
      "scrollable": false,
      "selected": false,
      "long_clickable": false,
      "parent": 45,
      "temp_id": 47,
      "size": "1038*175",
      "signature": "[class]android.widget.LinearLayout[resource_id]None[text]None[enabled,,]",
      "view_str": "40c3a7f639c40d76b46d63af76126044",
      "content_free_signature": "[class]android.widget.LinearLayout[resource_id]None"
    },
    {
      "package": "com.haringeymobile.ukweather",
      "visible": true,
      "checkable": false,
      "child_count": 2,
      "editable": false,
      "clickable": true,
      "is_password": false,
      "focusable": true,
      "enabled": true,
      "content_description": null,
      "children": [
        49,
        50
      ],
      "focused": false,
      "bounds": [
        [
          30,
          1184
        ],
        [
          358,
          1341
        ]
      ],
      "resource_id": "com.haringeymobile.ukweather:id/city_current_weather_button",
      "checked": false,
      "text": null,
      "class": "android.widget.LinearLayout",
      "scrollable": false,
      "selected": false,
      "long_clickable": false,
      "parent": 47,
      "temp_id": 48,
      "size": "328*157",
      "signature": "[class]android.widget.LinearLayout[resource_id]com.haringeymobile.ukweather:id/city_current_weather_button[text]None[enabled,,]",
      "view_str": "806c40b373855a171f1b07ddb2182bed",
      "content_free_signature": "[class]android.widget.LinearLayout[resource_id]com.haringeymobile.ukweather:id/city_current_weather_button"
    },
    {
      "package": "com.haringeymobile.ukweather",
      "visible": true,
      "checkable": false,
      "child_count": 0,
      "editable": false,
      "clickable": false,
      "is_password": false,
      "focusable": false,
      "enabled": true,
      "content_description": null,
      "children": [],
      "focused": false,
      "bounds": [
        [
          57,
          1217
        ],
        [
          121,
          1308
        ]
      ],
      "resource_id": null,
      "checked": false,
      "text": null,
      "class": "android.widget.ImageView",
      "scrollable": false,
      "selected": false,
      "long_clickable": false,
      "parent": 48,
      "temp_id": 49,
      "size": "64*91",
      "signature": "[class]android.widget.ImageView[resource_id]None[text]None[enabled,,]",
      "view_str": "781981be57c0f84e8a231a48d2bbc1b8",
      "content_free_signature": "[class]android.widget.ImageView[resource_id]None"
    },
    {
      "package": "com.haringeymobile.ukweather",
      "visible": true,
      "checkable": false,
      "child_count": 0,
      "editable": false,
      "clickable": false,
      "is_password": false,
      "focusable": false,
      "enabled": true,
      "content_description": null,
      "children": [],
      "focused": false,
      "bounds": [
        [
          139,
          1217
        ],
        [
          331,
          1308
        ]
      ],
      "resource_id": null,
      "checked": false,
      "text": "Current\nweather",
      "class": "android.widget.TextView",
      "scrollable": false,
      "selected": false,
      "long_clickable": false,
      "parent": 48,
      "temp_id": 50,
      "size": "192*91",
      "signature": "[class]android.widget.TextView[resource_id]None[text]Current\nweather[enabled,,]",
      "view_str": "2038756c451c703c14be010d90ef09e6",
      "content_free_signature": "[class]android.widget.TextView[resource_id]None"
    },
    {
      "package": "com.haringeymobile.ukweather",
      "visible": true,
      "checkable": false,
      "child_count": 2,
      "editable": false,
      "clickable": true,
      "is_password": false,
      "focusable": true,
      "enabled": true,
      "content_description": null,
      "children": [
        52,
        53
      ],
      "focused": false,
      "bounds": [
        [
          376,
          1184
        ],
        [
          704,
          1341
        ]
      ],
      "resource_id": "com.haringeymobile.ukweather:id/city_daily_weather_forecast_button",
      "checked": false,
      "text": null,
      "class": "android.widget.LinearLayout",
      "scrollable": false,
      "selected": false,
      "long_clickable": false,
      "parent": 47,
      "temp_id": 51,
      "size": "328*157",
      "signature": "[class]android.widget.LinearLayout[resource_id]com.haringeymobile.ukweather:id/city_daily_weather_forecast_button[text]None[enabled,,]",
      "view_str": "afe73b530dc35eb58e9ec69c1a98b7bc",
      "content_free_signature": "[class]android.widget.LinearLayout[resource_id]com.haringeymobile.ukweather:id/city_daily_weather_forecast_button"
    },
    {
      "package": "com.haringeymobile.ukweather",
      "visible": true,
      "checkable": false,
      "child_count": 0,
      "editable": false,
      "clickable": false,
      "is_password": false,
      "focusable": false,
      "enabled": true,
      "content_description": null,
      "children": [],
      "focused": false,
      "bounds": [
        [
          403,
          1217
        ],
        [
          467,
          1308
        ]
      ],
      "resource_id": null,
      "checked": false,
      "text": null,
      "class": "android.widget.ImageView",
      "scrollable": false,
      "selected": false,
      "long_clickable": false,
      "parent": 51,
      "temp_id": 52,
      "size": "64*91",
      "signature": "[class]android.widget.ImageView[resource_id]None[text]None[enabled,,]",
      "view_str": "40ba9a5962b4c34d7da49b3f0444ada0",
      "content_free_signature": "[class]android.widget.ImageView[resource_id]None"
    },
    {
      "package": "com.haringeymobile.ukweather",
      "visible": true,
      "checkable": false,
      "child_count": 0,
      "editable": false,
      "clickable": false,
      "is_password": false,
      "focusable": false,
      "enabled": true,
      "content_description": null,
      "children": [],
      "focused": false,
      "bounds": [
        [
          485,
          1217
        ],
        [
          677,
          1308
        ]
      ],
      "resource_id": null,
      "checked": false,
      "text": "16 day \nforecast",
      "class": "android.widget.TextView",
      "scrollable": false,
      "selected": false,
      "long_clickable": false,
      "parent": 51,
      "temp_id": 53,
      "size": "192*91",
      "signature": "[class]android.widget.TextView[resource_id]None[text]16 day \nforecast[enabled,,]",
      "view_str": "1819dddf218dde22b4e156a014982e55",
      "content_free_signature": "[class]android.widget.TextView[resource_id]None"
    },
    {
      "package": "com.haringeymobile.ukweather",
      "visible": true,
      "checkable": false,
      "child_count": 2,
      "editable": false,
      "clickable": true,
      "is_password": false,
      "focusable": true,
      "enabled": true,
      "content_description": null,
      "children": [
        55,
        56
      ],
      "focused": false,
      "bounds": [
        [
          722,
          1184
        ],
        [
          1050,
          1341
        ]
      ],
      "resource_id": "com.haringeymobile.ukweather:id/city_three_hourly_weather_forecast_button",
      "checked": false,
      "text": null,
      "class": "android.widget.LinearLayout",
      "scrollable": false,
      "selected": false,
      "long_clickable": false,
      "parent": 47,
      "temp_id": 54,
      "size": "328*157",
      "signature": "[class]android.widget.LinearLayout[resource_id]com.haringeymobile.ukweather:id/city_three_hourly_weather_forecast_button[text]None[enabled,,]",
      "view_str": "60cc807356987e7d0d0e66cd64b83852",
      "content_free_signature": "[class]android.widget.LinearLayout[resource_id]com.haringeymobile.ukweather:id/city_three_hourly_weather_forecast_button"
    },
    {
      "package": "com.haringeymobile.ukweather",
      "visible": true,
      "checkable": false,
      "child_count": 0,
      "editable": false,
      "clickable": false,
      "is_password": false,
      "focusable": false,
      "enabled": true,
      "content_description": null,
      "children": [],
      "focused": false,
      "bounds": [
        [
          749,
          1217
        ],
        [
          813,
          1308
        ]
      ],
      "resource_id": null,
      "checked": false,
      "text": null,
      "class": "android.widget.ImageView",
      "scrollable": false,
      "selected": false,
      "long_clickable": false,
      "parent": 54,
      "temp_id": 55,
      "size": "64*91",
      "signature": "[class]android.widget.ImageView[resource_id]None[text]None[enabled,,]",
      "view_str": "ff2415d00f0288f2a4a64deb7c5f9d5c",
      "content_free_signature": "[class]android.widget.ImageView[resource_id]None"
    },
    {
      "package": "com.haringeymobile.ukweather",
      "visible": true,
      "checkable": false,
      "child_count": 0,
      "editable": false,
      "clickable": false,
      "is_password": false,
      "focusable": false,
      "enabled": true,
      "content_description": null,
      "children": [],
      "focused": false,
      "bounds": [
        [
          831,
          1217
        ],
        [
          1023,
          1308
        ]
      ],
      "resource_id": null,
      "checked": false,
      "text": "3-hourly\nforecast",
      "class": "android.widget.TextView",
      "scrollable": false,
      "selected": false,
      "long_clickable": false,
      "parent": 54,
      "temp_id": 56,
      "size": "192*91",
      "signature": "[class]android.widget.TextView[resource_id]None[text]3-hourly\nforecast[enabled,,]",
      "view_str": "299eb7f4cc254b7428008805d252a94d",
      "content_free_signature": "[class]android.widget.TextView[resource_id]None"
    },
    {
      "package": "com.haringeymobile.ukweather",
      "visible": true,
      "checkable": false,
      "child_count": 2,
      "editable": false,
      "clickable": true,
      "is_password": false,
      "focusable": false,
      "enabled": true,
      "content_description": null,
      "children": [
        58,
        59
      ],
      "focused": false,
      "bounds": [
        [
          12,
          1389
        ],
        [
          1068,
          1735
        ]
      ],
      "resource_id": null,
      "checked": false,
      "text": null,
      "class": "android.widget.LinearLayout",
      "scrollable": false,
      "selected": false,
      "long_clickable": false,
      "parent": 20,
      "temp_id": 57,
      "size": "1056*346",
      "signature": "[class]android.widget.LinearLayout[resource_id]None[text]None[enabled,,]",
      "view_str": "394ec7726e67137ee3b8493b5f1cf817",
      "content_free_signature": "[class]android.widget.LinearLayout[resource_id]None"
    },
    {
      "package": "com.haringeymobile.ukweather",
      "visible": true,
      "checkable": false,
      "child_count": 0,
      "editable": false,
      "clickable": false,
      "is_password": false,
      "focusable": false,
      "enabled": true,
      "content_description": null,
      "children": [],
      "focused": false,
      "bounds": [
        [
          21,
          1398
        ],
        [
          1059,
          1551
        ]
      ],
      "resource_id": "com.haringeymobile.ukweather:id/city_name_in_list_row_text_view",
      "checked": false,
      "text": "Rio de Janeiro",
      "class": "android.widget.TextView",
      "scrollable": false,
      "selected": false,
      "long_clickable": false,
      "parent": 57,
      "temp_id": 58,
      "size": "1038*153",
      "signature": "[class]android.widget.TextView[resource_id]com.haringeymobile.ukweather:id/city_name_in_list_row_text_view[text]Rio de Janeiro[enabled,,]",
      "view_str": "178da4f9ed690fb52b5fd5213efa6b70",
      "content_free_signature": "[class]android.widget.TextView[resource_id]com.haringeymobile.ukweather:id/city_name_in_list_row_text_view"
    },
    {
      "package": "com.haringeymobile.ukweather",
      "visible": true,
      "checkable": false,
      "child_count": 3,
      "editable": false,
      "clickable": false,
      "is_password": false,
      "focusable": false,
      "enabled": true,
      "content_description": null,
      "children": [
        60,
        63,
        66
      ],
      "focused": false,
      "bounds": [
        [
          21,
          1551
        ],
        [
          1059,
          1726
        ]
      ],
      "resource_id": null,
      "checked": false,
      "text": null,
      "class": "android.widget.LinearLayout",
      "scrollable": false,
      "selected": false,
      "long_clickable": false,
      "parent": 57,
      "temp_id": 59,
      "size": "1038*175",
      "signature": "[class]android.widget.LinearLayout[resource_id]None[text]None[enabled,,]",
      "view_str": "40c3a7f639c40d76b46d63af76126044",
      "content_free_signature": "[class]android.widget.LinearLayout[resource_id]None"
    },
    {
      "package": "com.haringeymobile.ukweather",
      "visible": true,
      "checkable": false,
      "child_count": 2,
      "editable": false,
      "clickable": true,
      "is_password": false,
      "focusable": true,
      "enabled": true,
      "content_description": null,
      "children": [
        61,
        62
      ],
      "focused": false,
      "bounds": [
        [
          30,
          1560
        ],
        [
          358,
          1717
        ]
      ],
      "resource_id": "com.haringeymobile.ukweather:id/city_current_weather_button",
      "checked": false,
      "text": null,
      "class": "android.widget.LinearLayout",
      "scrollable": false,
      "selected": false,
      "long_clickable": false,
      "parent": 59,
      "temp_id": 60,
      "size": "328*157",
      "signature": "[class]android.widget.LinearLayout[resource_id]com.haringeymobile.ukweather:id/city_current_weather_button[text]None[enabled,,]",
      "view_str": "806c40b373855a171f1b07ddb2182bed",
      "content_free_signature": "[class]android.widget.LinearLayout[resource_id]com.haringeymobile.ukweather:id/city_current_weather_button"
    },
    {
      "package": "com.haringeymobile.ukweather",
      "visible": true,
      "checkable": false,
      "child_count": 0,
      "editable": false,
      "clickable": false,
      "is_password": false,
      "focusable": false,
      "enabled": true,
      "content_description": null,
      "children": [],
      "focused": false,
      "bounds": [
        [
          57,
          1593
        ],
        [
          121,
          1684
        ]
      ],
      "resource_id": null,
      "checked": false,
      "text": null,
      "class": "android.widget.ImageView",
      "scrollable": false,
      "selected": false,
      "long_clickable": false,
      "parent": 60,
      "temp_id": 61,
      "size": "64*91",
      "signature": "[class]android.widget.ImageView[resource_id]None[text]None[enabled,,]",
      "view_str": "781981be57c0f84e8a231a48d2bbc1b8",
      "content_free_signature": "[class]android.widget.ImageView[resource_id]None"
    },
    {
      "package": "com.haringeymobile.ukweather",
      "visible": true,
      "checkable": false,
      "child_count": 0,
      "editable": false,
      "clickable": false,
      "is_password": false,
      "focusable": false,
      "enabled": true,
      "content_description": null,
      "children": [],
      "focused": false,
      "bounds": [
        [
          139,
          1593
        ],
        [
          331,
          1684
        ]
      ],
      "resource_id": null,
      "checked": false,
      "text": "Current\nweather",
      "class": "android.widget.TextView",
      "scrollable": false,
      "selected": false,
      "long_clickable": false,
      "parent": 60,
      "temp_id": 62,
      "size": "192*91",
      "signature": "[class]android.widget.TextView[resource_id]None[text]Current\nweather[enabled,,]",
      "view_str": "2038756c451c703c14be010d90ef09e6",
      "content_free_signature": "[class]android.widget.TextView[resource_id]None"
    },
    {
      "package": "com.haringeymobile.ukweather",
      "visible": true,
      "checkable": false,
      "child_count": 2,
      "editable": false,
      "clickable": true,
      "is_password": false,
      "focusable": true,
      "enabled": true,
      "content_description": null,
      "children": [
        64,
        65
      ],
      "focused": false,
      "bounds": [
        [
          376,
          1560
        ],
        [
          704,
          1717
        ]
      ],
      "resource_id": "com.haringeymobile.ukweather:id/city_daily_weather_forecast_button",
      "checked": false,
      "text": null,
      "class": "android.widget.LinearLayout",
      "scrollable": false,
      "selected": false,
      "long_clickable": false,
      "parent": 59,
      "temp_id": 63,
      "size": "328*157",
      "signature": "[class]android.widget.LinearLayout[resource_id]com.haringeymobile.ukweather:id/city_daily_weather_forecast_button[text]None[enabled,,]",
      "view_str": "afe73b530dc35eb58e9ec69c1a98b7bc",
      "content_free_signature": "[class]android.widget.LinearLayout[resource_id]com.haringeymobile.ukweather:id/city_daily_weather_forecast_button"
    },
    {
      "package": "com.haringeymobile.ukweather",
      "visible": true,
      "checkable": false,
      "child_count": 0,
      "editable": false,
      "clickable": false,
      "is_password": false,
      "focusable": false,
      "enabled": true,
      "content_description": null,
      "children": [],
      "focused": false,
      "bounds": [
        [
          403,
          1593
        ],
        [
          467,
          1684
        ]
      ],
      "resource_id": null,
      "checked": false,
      "text": null,
      "class": "android.widget.ImageView",
      "scrollable": false,
      "selected": false,
      "long_clickable": false,
      "parent": 63,
      "temp_id": 64,
      "size": "64*91",
      "signature": "[class]android.widget.ImageView[resource_id]None[text]None[enabled,,]",
      "view_str": "40ba9a5962b4c34d7da49b3f0444ada0",
      "content_free_signature": "[class]android.widget.ImageView[resource_id]None"
    },
    {
      "package": "com.haringeymobile.ukweather",
      "visible": true,
      "checkable": false,
      "child_count": 0,
      "editable": false,
      "clickable": false,
      "is_password": false,
      "focusable": false,
      "enabled": true,
      "content_description": null,
      "children": [],
      "focused": false,
      "bounds": [
        [
          485,
          1593
        ],
        [
          677,
          1684
        ]
      ],
      "resource_id": null,
      "checked": false,
      "text": "16 day \nforecast",
      "class": "android.widget.TextView",
      "scrollable": false,
      "selected": false,
      "long_clickable": false,
      "parent": 63,
      "temp_id": 65,
      "size": "192*91",
      "signature": "[class]android.widget.TextView[resource_id]None[text]16 day \nforecast[enabled,,]",
      "view_str": "1819dddf218dde22b4e156a014982e55",
      "content_free_signature": "[class]android.widget.TextView[resource_id]None"
    },
    {
      "package": "com.haringeymobile.ukweather",
      "visible": true,
      "checkable": false,
      "child_count": 2,
      "editable": false,
      "clickable": true,
      "is_password": false,
      "focusable": true,
      "enabled": true,
      "content_description": null,
      "children": [
        67,
        68
      ],
      "focused": false,
      "bounds": [
        [
          722,
          1560
        ],
        [
          1050,
          1717
        ]
      ],
      "resource_id": "com.haringeymobile.ukweather:id/city_three_hourly_weather_forecast_button",
      "checked": false,
      "text": null,
      "class": "android.widget.LinearLayout",
      "scrollable": false,
      "selected": false,
      "long_clickable": false,
      "parent": 59,
      "temp_id": 66,
      "size": "328*157",
      "signature": "[class]android.widget.LinearLayout[resource_id]com.haringeymobile.ukweather:id/city_three_hourly_weather_forecast_button[text]None[enabled,,]",
      "view_str": "60cc807356987e7d0d0e66cd64b83852",
      "content_free_signature": "[class]android.widget.LinearLayout[resource_id]com.haringeymobile.ukweather:id/city_three_hourly_weather_forecast_button"
    },
    {
      "package": "com.haringeymobile.ukweather",
      "visible": true,
      "checkable": false,
      "child_count": 0,
      "editable": false,
      "clickable": false,
      "is_password": false,
      "focusable": false,
      "enabled": true,
      "content_description": null,
      "children": [],
      "focused": false,
      "bounds": [
        [
          749,
          1593
        ],
        [
          813,
          1684
        ]
      ],
      "resource_id": null,
      "checked": false,
      "text": null,
      "class": "android.widget.ImageView",
      "scrollable": false,
      "selected": false,
      "long_clickable": false,
      "parent": 66,
      "temp_id": 67,
      "size": "64*91",
      "signature": "[class]android.widget.ImageView[resource_id]None[text]None[enabled,,]",
      "view_str": "ff2415d00f0288f2a4a64deb7c5f9d5c",
      "content_free_signature": "[class]android.widget.ImageView[resource_id]None"
    },
    {
      "package": "com.haringeymobile.ukweather",
      "visible": true,
      "checkable": false,
      "child_count": 0,
      "editable": false,
      "clickable": false,
      "is_password": false,
      "focusable": false,
      "enabled": true,
      "content_description": null,
      "children": [],
      "focused": false,
      "bounds": [
        [
          831,
          1593
        ],
        [
          1023,
          1684
        ]
      ],
      "resource_id": null,
      "checked": false,
      "text": "3-hourly\nforecast",
      "class": "android.widget.TextView",
      "scrollable": false,
      "selected": false,
      "long_clickable": false,
      "parent": 66,
      "temp_id": 68,
      "size": "192*91",
      "signature": "[class]android.widget.TextView[resource_id]None[text]3-hourly\nforecast[enabled,,]",
      "view_str": "299eb7f4cc254b7428008805d252a94d",
      "content_free_signature": "[class]android.widget.TextView[resource_id]None"
    },
    {
      "package": "com.haringeymobile.ukweather",
      "visible": true,
      "checkable": false,
      "child_count": 2,
      "editable": false,
      "clickable": true,
      "is_password": false,
      "focusable": false,
      "enabled": true,
      "content_description": null,
      "children": [
        70,
        71
      ],
      "focused": false,
      "bounds": [
        [
          12,
          1765
        ],
        [
          1068,
          1776
        ]
      ],
      "resource_id": null,
      "checked": false,
      "text": null,
      "class": "android.widget.LinearLayout",
      "scrollable": false,
      "selected": false,
      "long_clickable": false,
      "parent": 20,
      "temp_id": 69,
      "size": "1056*11",
      "signature": "[class]android.widget.LinearLayout[resource_id]None[text]None[enabled,,]",
      "view_str": "6ecf3844645bca7a6aa98044f0554f50",
      "content_free_signature": "[class]android.widget.LinearLayout[resource_id]None"
    },
    {
      "package": "com.haringeymobile.ukweather",
      "visible": true,
      "checkable": false,
      "child_count": 0,
      "editable": false,
      "clickable": false,
      "is_password": false,
      "focusable": false,
      "enabled": true,
      "content_description": null,
      "children": [],
      "focused": false,
      "bounds": [
        [
          21,
          1774
        ],
        [
          1059,
          1776
        ]
      ],
      "resource_id": "com.haringeymobile.ukweather:id/city_name_in_list_row_text_view",
      "checked": false,
      "text": "Cairo",
      "class": "android.widget.TextView",
      "scrollable": false,
      "selected": false,
      "long_clickable": false,
      "parent": 69,
      "temp_id": 70,
      "size": "1038*2",
      "signature": "[class]android.widget.TextView[resource_id]com.haringeymobile.ukweather:id/city_name_in_list_row_text_view[text]Cairo[enabled,,]",
      "view_str": "025f460365b20b6c5f4e7583aa1d03fa",
      "content_free_signature": "[class]android.widget.TextView[resource_id]com.haringeymobile.ukweather:id/city_name_in_list_row_text_view"
    },
    {
      "package": "com.haringeymobile.ukweather",
      "visible": false,
      "checkable": false,
      "child_count": 3,
      "editable": false,
      "clickable": false,
      "is_password": false,
      "focusable": false,
      "enabled": true,
      "content_description": null,
      "children": [
        72,
        75,
        78
      ],
      "focused": false,
      "bounds": [
        [
          21,
          1927
        ],
        [
          1059,
          1776
        ]
      ],
      "resource_id": null,
      "checked": false,
      "text": null,
      "class": "android.widget.LinearLayout",
      "scrollable": false,
      "selected": false,
      "long_clickable": false,
      "parent": 69,
      "temp_id": 71,
      "size": "1038*-151",
      "signature": "[class]android.widget.LinearLayout[resource_id]None[text]None[enabled,,]",
      "view_str": "40c3a7f639c40d76b46d63af76126044",
      "content_free_signature": "[class]android.widget.LinearLayout[resource_id]None"
    },
    {
      "package": "com.haringeymobile.ukweather",
      "visible": false,
      "checkable": false,
      "child_count": 2,
      "editable": false,
      "clickable": true,
      "is_password": false,
      "focusable": true,
      "enabled": true,
      "content_description": null,
      "children": [
        73,
        74
      ],
      "focused": false,
      "bounds": [
        [
          30,
          1936
        ],
        [
          358,
          1776
        ]
      ],
      "resource_id": "com.haringeymobile.ukweather:id/city_current_weather_button",
      "checked": false,
      "text": null,
      "class": "android.widget.LinearLayout",
      "scrollable": false,
      "selected": false,
      "long_clickable": false,
      "parent": 71,
      "temp_id": 72,
      "size": "328*-160",
      "signature": "[class]android.widget.LinearLayout[resource_id]com.haringeymobile.ukweather:id/city_current_weather_button[text]None[enabled,,]",
      "view_str": "806c40b373855a171f1b07ddb2182bed",
      "content_free_signature": "[class]android.widget.LinearLayout[resource_id]com.haringeymobile.ukweather:id/city_current_weather_button"
    },
    {
      "package": "com.haringeymobile.ukweather",
      "visible": false,
      "checkable": false,
      "child_count": 0,
      "editable": false,
      "clickable": false,
      "is_password": false,
      "focusable": false,
      "enabled": true,
      "content_description": null,
      "children": [],
      "focused": false,
      "bounds": [
        [
          57,
          1969
        ],
        [
          121,
          1776
        ]
      ],
      "resource_id": null,
      "checked": false,
      "text": null,
      "class": "android.widget.ImageView",
      "scrollable": false,
      "selected": false,
      "long_clickable": false,
      "parent": 72,
      "temp_id": 73,
      "size": "64*-193",
      "signature": "[class]android.widget.ImageView[resource_id]None[text]None[enabled,,]",
      "view_str": "781981be57c0f84e8a231a48d2bbc1b8",
      "content_free_signature": "[class]android.widget.ImageView[resource_id]None"
    },
    {
      "package": "com.haringeymobile.ukweather",
      "visible": false,
      "checkable": false,
      "child_count": 0,
      "editable": false,
      "clickable": false,
      "is_password": false,
      "focusable": false,
      "enabled": true,
      "content_description": null,
      "children": [],
      "focused": false,
      "bounds": [
        [
          139,
          1969
        ],
        [
          331,
          1776
        ]
      ],
      "resource_id": null,
      "checked": false,
      "text": "Current\nweather",
      "class": "android.widget.TextView",
      "scrollable": false,
      "selected": false,
      "long_clickable": false,
      "parent": 72,
      "temp_id": 74,
      "size": "192*-193",
      "signature": "[class]android.widget.TextView[resource_id]None[text]Current\nweather[enabled,,]",
      "view_str": "2038756c451c703c14be010d90ef09e6",
      "content_free_signature": "[class]android.widget.TextView[resource_id]None"
    },
    {
      "package": "com.haringeymobile.ukweather",
      "visible": false,
      "checkable": false,
      "child_count": 2,
      "editable": false,
      "clickable": true,
      "is_password": false,
      "focusable": true,
      "enabled": true,
      "content_description": null,
      "children": [
        76,
        77
      ],
      "focused": false,
      "bounds": [
        [
          376,
          1936
        ],
        [
          704,
          1776
        ]
      ],
      "resource_id": "com.haringeymobile.ukweather:id/city_daily_weather_forecast_button",
      "checked": false,
      "text": null,
      "class": "android.widget.LinearLayout",
      "scrollable": false,
      "selected": false,
      "long_clickable": false,
      "parent": 71,
      "temp_id": 75,
      "size": "328*-160",
      "signature": "[class]android.widget.LinearLayout[resource_id]com.haringeymobile.ukweather:id/city_daily_weather_forecast_button[text]None[enabled,,]",
      "view_str": "afe73b530dc35eb58e9ec69c1a98b7bc",
      "content_free_signature": "[class]android.widget.LinearLayout[resource_id]com.haringeymobile.ukweather:id/city_daily_weather_forecast_button"
    },
    {
      "package": "com.haringeymobile.ukweather",
      "visible": false,
      "checkable": false,
      "child_count": 0,
      "editable": false,
      "clickable": false,
      "is_password": false,
      "focusable": false,
      "enabled": true,
      "content_description": null,
      "children": [],
      "focused": false,
      "bounds": [
        [
          403,
          1969
        ],
        [
          467,
          1776
        ]
      ],
      "resource_id": null,
      "checked": false,
      "text": null,
      "class": "android.widget.ImageView",
      "scrollable": false,
      "selected": false,
      "long_clickable": false,
      "parent": 75,
      "temp_id": 76,
      "size": "64*-193",
      "signature": "[class]android.widget.ImageView[resource_id]None[text]None[enabled,,]",
      "view_str": "40ba9a5962b4c34d7da49b3f0444ada0",
      "content_free_signature": "[class]android.widget.ImageView[resource_id]None"
    },
    {
      "package": "com.haringeymobile.ukweather",
      "visible": false,
      "checkable": false,
      "child_count": 0,
      "editable": false,
      "clickable": false,
      "is_password": false,
      "focusable": false,
      "enabled": true,
      "content_description": null,
      "children": [],
      "focused": false,
      "bounds": [
        [
          485,
          1969
        ],
        [
          677,
          1776
        ]
      ],
      "resource_id": null,
      "checked": false,
      "text": "16 day \nforecast",
      "class": "android.widget.TextView",
      "scrollable": false,
      "selected": false,
      "long_clickable": false,
      "parent": 75,
      "temp_id": 77,
      "size": "192*-193",
      "signature": "[class]android.widget.TextView[resource_id]None[text]16 day \nforecast[enabled,,]",
      "view_str": "1819dddf218dde22b4e156a014982e55",
      "content_free_signature": "[class]android.widget.TextView[resource_id]None"
    },
    {
      "package": "com.haringeymobile.ukweather",
      "visible": false,
      "checkable": false,
      "child_count": 2,
      "editable": false,
      "clickable": true,
      "is_password": false,
      "focusable": true,
      "enabled": true,
      "content_description": null,
      "children": [
        79,
        80
      ],
      "focused": false,
      "bounds": [
        [
          722,
          1936
        ],
        [
          1050,
          1776
        ]
      ],
      "resource_id": "com.haringeymobile.ukweather:id/city_three_hourly_weather_forecast_button",
      "checked": false,
      "text": null,
      "class": "android.widget.LinearLayout",
      "scrollable": false,
      "selected": false,
      "long_clickable": false,
      "parent": 71,
      "temp_id": 78,
      "size": "328*-160",
      "signature": "[class]android.widget.LinearLayout[resource_id]com.haringeymobile.ukweather:id/city_three_hourly_weather_forecast_button[text]None[enabled,,]",
      "view_str": "60cc807356987e7d0d0e66cd64b83852",
      "content_free_signature": "[class]android.widget.LinearLayout[resource_id]com.haringeymobile.ukweather:id/city_three_hourly_weather_forecast_button"
    },
    {
      "package": "com.haringeymobile.ukweather",
      "visible": false,
      "checkable": false,
      "child_count": 0,
      "editable": false,
      "clickable": false,
      "is_password": false,
      "focusable": false,
      "enabled": true,
      "content_description": null,
      "children": [],
      "focused": false,
      "bounds": [
        [
          749,
          1969
        ],
        [
          813,
          1776
        ]
      ],
      "resource_id": null,
      "checked": false,
      "text": null,
      "class": "android.widget.ImageView",
      "scrollable": false,
      "selected": false,
      "long_clickable": false,
      "parent": 78,
      "temp_id": 79,
      "size": "64*-193",
      "signature": "[class]android.widget.ImageView[resource_id]None[text]None[enabled,,]",
      "view_str": "ff2415d00f0288f2a4a64deb7c5f9d5c",
      "content_free_signature": "[class]android.widget.ImageView[resource_id]None"
    },
    {
      "package": "com.haringeymobile.ukweather",
      "visible": false,
      "checkable": false,
      "child_count": 0,
      "editable": false,
      "clickable": false,
      "is_password": false,
      "focusable": false,
      "enabled": true,
      "content_description": null,
      "children": [],
      "focused": false,
      "bounds": [
        [
          831,
          1969
        ],
        [
          1023,
          1776
        ]
      ],
      "resource_id": null,
      "checked": false,
      "text": "3-hourly\nforecast",
      "class": "android.widget.TextView",
      "scrollable": false,
      "selected": false,
      "long_clickable": false,
      "parent": 78,
      "temp_id": 80,
      "size": "192*-193",
      "signature": "[class]android.widget.TextView[resource_id]None[text]3-hourly\nforecast[enabled,,]",
      "view_str": "299eb7f4cc254b7428008805d252a94d",
      "content_free_signature": "[class]android.widget.TextView[resource_id]None"
    },
    {
      "package": "com.haringeymobile.ukweather",
      "visible": false,
      "checkable": false,
      "child_count": 0,
      "editable": false,
      "clickable": false,
      "is_password": false,
      "focusable": false,
      "enabled": true,
      "content_description": null,
      "children": [],
      "focused": false,
      "bounds": [
        [
          0,
          0
        ],
        [
          1080,
          72
        ]
      ],
      "resource_id": "android:id/statusBarBackground",
      "checked": false,
      "text": null,
      "class": "android.view.View",
      "scrollable": false,
      "selected": false,
      "long_clickable": false,
      "parent": 0,
      "temp_id": 81,
      "size": "1080*72",
      "signature": "[class]android.view.View[resource_id]android:id/statusBarBackground[text]None[enabled,,]",
      "view_str": "b98836f53b1fb60f15f23b59d7c48471",
      "content_free_signature": "[class]android.view.View[resource_id]android:id/statusBarBackground"
    },
    {
      "package": "com.haringeymobile.ukweather",
      "visible": false,
      "checkable": false,
      "child_count": 0,
      "editable": false,
      "clickable": false,
      "is_password": false,
      "focusable": false,
      "enabled": true,
      "content_description": null,
      "children": [],
      "focused": false,
      "bounds": [
        [
          0,
          1776
        ],
        [
          1080,
          1920
        ]
      ],
      "resource_id": "android:id/navigationBarBackground",
      "checked": false,
      "text": null,
      "class": "android.view.View",
      "scrollable": false,
      "selected": false,
      "long_clickable": false,
      "parent": 0,
      "temp_id": 82,
      "size": "1080*144",
      "signature": "[class]android.view.View[resource_id]android:id/navigationBarBackground[text]None[enabled,,]",
      "view_str": "c1209722c111a586104ee60758b91e9b",
      "content_free_signature": "[class]android.view.View[resource_id]android:id/navigationBarBackground"
    }
  ]
}