{
  "tag": "2019-11-22_000725",
  "state_str": "8bfc6274d4784c26e26a2d0b7763eb14",
  "state_str_content_free": "9f2100046eed2023dfa1b54395f5dd46",
  "foreground_activity": "com.haringeymobile.ukweather/.MainActivity",
  "activity_stack": [
    "com.haringeymobile.ukweather/.MainActivity"
  ],
  "background_services": [
    "com.google.android.apps.messaging/com.google.android.ims.service.JibeService",
    "com.google.android.gms/.deviceconnection.service.DeviceConnectionWatcherService",
    "com.google.android.gms/com.google.android.location.places.service.PlaceDetectionAsyncService",
    "com.android.systemui/.keyguard.KeyguardService",
    "com.android.systemui/.ImageWallpaper",
    "com.google.android.inputmethod.latin/com.android.inputmethod.latin.spellcheck.AndroidSpellCheckerService",
    "com.google.android.gms/com.google.android.location.geocode.GeocodeService",
    "com.google.android.gms/.auth.setup.devicesignals.LockScreenService",
    "com.google.android.gms/.gcm.GcmService",
    "com.google.android.gms/.auth.proximity.firstparty.SystemMemoryCacheService",
    "com.google.android.gms/.chimera.PersistentApiService",
    "com.android.phone/com.android.internal.telephony.CellularNetworkService",
    "com.google.android.gms/.chimera.PersistentBoundBrokerService",
    "com.google.android.gm/org.chromium.content.app.SandboxedProcessService0",
    "com.google.android.ims/.services.WakeLockService",
    "com.google.android.gms/.chimera.GmsBoundBrokerService",
    "com.google.android.gms/.chimera.GmsApiService",
    "com.google.android.gms/.fido.fido2.pollux.CableAuthenticatorService",
    "com.google.android.googlequicksearchbox/com.google.android.apps.gsa.nowoverlayservice.DrawerOverlayService",
    "io.github.ylimit.droidbotapp/.DroidBotIME",
    "com.google.android.gms/com.google.android.location.fused.FusedLocationService",
    "com.google.android.gms/.gcm.nts.SchedulerService",
    "com.android.vending/com.google.android.finsky.deviceconfig.PhoneskyFirebaseMessagingService",
    "io.github.ylimit.droidbotapp/io.github.privacystreams.accessibility.PSAccessibilityService",
    "com.google.android.gms/com.google.android.location.geofencer.service.GeofenceProviderService",
    "com.google.android.gms/.thunderbird.EmergencyPersistentService",
    "com.google.android.apps.messaging/.fcm.BugleFirebaseInstanceIDService",
    "com.android.systemui/.SystemUIService",
    "android/.hardware.location.GeofenceHardwareService",
    "com.android.se/.SecureElementService",
    "com.google.android.ims/.services.RcsService",
    "com.google.android.gms/.chimera.PersistentDirectBootAwareApiService",
    "com.google.android.ext.services/android.ext.services.notification.Assistant",
    "com.google.android.gms/.location.persistent.LocationPersistentService",
    "com.google.android.gms/com.google.android.location.internal.PendingIntentCallbackService",
    "com.google.android.gms/com.google.android.location.internal.server.GoogleLocationService",
    "com.google.android.gms/com.google.android.contextmanager.service.ContextManagerService",
    "com.google.android.gms/com.google.android.location.network.NetworkLocationService",
    "com.google.android.gms/com.google.android.location.internal.GoogleLocationManagerService",
    "com.google.android.apps.messaging/com.google.firebase.iid.FirebaseInstanceIdService",
    "com.android.phone/com.android.internal.telephony.dataconnection.CellularDataService",
    "com.android.server.telecom/.components.TelecomService",
    "com.google.android.googlequicksearchbox/com.google.android.voiceinteraction.GsaVoiceInteractionService",
    "com.android.smspush/.WapPushManager",
    "com.android.phone/.vvm.RemoteVvmTaskManager",
    "android/com.android.server.content.SyncJobService",
    "com.google.android.gms/.common.stats.GmsCoreStatsService",
    "com.google.android.gms/com.google.android.location.internal.server.HardwareArProviderService",
    "com.android.phone/.TelephonyDebugService",
    "com.google.android.videos/.service.pinning.TransferService",
    "com.google.android.apps.nexuslauncher/com.android.quickstep.TouchInteractionService",
    "com.google.android.ims/.services.NetworkConnectionsService"
  ],
  "views": [
    {
      "package": "com.haringeymobile.ukweather",
      "visible": true,
      "checkable": false,
      "child_count": 1,
      "editable": false,
      "clickable": false,
      "is_password": false,
      "focusable": false,
      "enabled": true,
      "content_description": null,
      "children": [
        1
      ],
      "focused": false,
      "bounds": [
        [
          27,
          557
        ],
        [
          1053,
          1290
        ]
      ],
      "resource_id": null,
      "checked": false,
      "text": null,
      "class": "android.widget.FrameLayout",
      "scrollable": false,
      "selected": false,
      "long_clickable": false,
      "parent": -1,
      "temp_id": 0,
      "size": "1026*733",
      "signature": "[class]android.widget.FrameLayout[resource_id]None[text]None[enabled,,]",
      "view_str": "18467209a2fc99f23a240a560fb40c0a",
      "content_free_signature": "[class]android.widget.FrameLayout[resource_id]None"
    },
    {
      "package": "com.haringeymobile.ukweather",
      "visible": true,
      "checkable": false,
      "child_count": 1,
      "editable": false,
      "clickable": false,
      "is_password": false,
      "focusable": false,
      "enabled": true,
      "content_description": null,
      "children": [
        2
      ],
      "focused": false,
      "bounds": [
        [
          75,
          605
        ],
        [
          1005,
          1242
        ]
      ],
      "resource_id": null,
      "checked": false,
      "text": null,
      "class": "android.widget.FrameLayout",
      "scrollable": false,
      "selected": false,
      "long_clickable": false,
      "parent": 0,
      "temp_id": 1,
      "size": "930*637",
      "signature": "[class]android.widget.FrameLayout[resource_id]None[text]None[enabled,,]",
      "view_str": "400cd0f05b1defbe9cf7b35212fbc63c",
      "content_free_signature": "[class]android.widget.FrameLayout[resource_id]None"
    },
    {
      "package": "com.haringeymobile.ukweather",
      "visible": true,
      "checkable": false,
      "child_count": 1,
      "editable": false,
      "clickable": false,
      "is_password": false,
      "focusable": false,
      "enabled": true,
      "content_description": null,
      "children": [
        3
      ],
      "focused": false,
      "bounds": [
        [
          75,
          605
        ],
        [
          1005,
          1242
        ]
      ],
      "resource_id": "android:id/content",
      "checked": false,
      "text": null,
      "class": "android.widget.FrameLayout",
      "scrollable": false,
      "selected": false,
      "long_clickable": false,
      "parent": 1,
      "temp_id": 2,
      "size": "930*637",
      "signature": "[class]android.widget.FrameLayout[resource_id]android:id/content[text]None[enabled,,]",
      "view_str": "d44796959db10959a077ef3886f50260",
      "content_free_signature": "[class]android.widget.FrameLayout[resource_id]android:id/content"
    },
    {
      "package": "com.haringeymobile.ukweather",
      "visible": true,
      "checkable": false,
      "child_count": 2,
      "editable": false,
      "clickable": false,
      "is_password": false,
      "focusable": false,
      "enabled": true,
      "content_description": null,
      "children": [
        4,
        8
      ],
      "focused": false,
      "bounds": [
        [
          75,
          605
        ],
        [
          1005,
          1242
        ]
      ],
      "resource_id": "android:id/parentPanel",
      "checked": false,
      "text": null,
      "class": "android.widget.LinearLayout",
      "scrollable": false,
      "selected": false,
      "long_clickable": false,
      "parent": 2,
      "temp_id": 3,
      "size": "930*637",
      "signature": "[class]android.widget.LinearLayout[resource_id]android:id/parentPanel[text]None[enabled,,]",
      "view_str": "c68006ac306502c13d4829bfcc8db0e7",
      "content_free_signature": "[class]android.widget.LinearLayout[resource_id]android:id/parentPanel"
    },
    {
      "package": "com.haringeymobile.ukweather",
      "visible": true,
      "checkable": false,
      "child_count": 1,
      "editable": false,
      "clickable": false,
      "is_password": false,
      "focusable": false,
      "enabled": true,
      "content_description": null,
      "children": [
        5
      ],
      "focused": false,
      "bounds": [
        [
          75,
          605
        ],
        [
          1005,
          755
        ]
      ],
      "resource_id": "android:id/topPanel",
      "checked": false,
      "text": null,
      "class": "android.widget.LinearLayout",
      "scrollable": false,
      "selected": false,
      "long_clickable": false,
      "parent": 3,
      "temp_id": 4,
      "size": "930*150",
      "signature": "[class]android.widget.LinearLayout[resource_id]android:id/topPanel[text]None[enabled,,]",
      "view_str": "320caf75c526f5a434793d74ceae2732",
      "content_free_signature": "[class]android.widget.LinearLayout[resource_id]android:id/topPanel"
    },
    {
      "package": "com.haringeymobile.ukweather",
      "visible": true,
      "checkable": false,
      "child_count": 2,
      "editable": false,
      "clickable": false,
      "is_password": false,
      "focusable": false,
      "enabled": true,
      "content_description": null,
      "children": [
        6,
        7
      ],
      "focused": false,
      "bounds": [
        [
          75,
          605
        ],
        [
          1005,
          755
        ]
      ],
      "resource_id": "android:id/title_template",
      "checked": false,
      "text": null,
      "class": "android.widget.LinearLayout",
      "scrollable": false,
      "selected": false,
      "long_clickable": false,
      "parent": 4,
      "temp_id": 5,
      "size": "930*150",
      "signature": "[class]android.widget.LinearLayout[resource_id]android:id/title_template[text]None[enabled,,]",
      "view_str": "01eb5313bb452e4b9dd7a665e5acf551",
      "content_free_signature": "[class]android.widget.LinearLayout[resource_id]android:id/title_template"
    },
    {
      "package": "com.haringeymobile.ukweather",
      "visible": true,
      "checkable": false,
      "child_count": 0,
      "editable": false,
      "clickable": false,
      "is_password": false,
      "focusable": false,
      "enabled": true,
      "content_description": null,
      "children": [],
      "focused": false,
      "bounds": [
        [
          147,
          659
        ],
        [
          243,
          755
        ]
      ],
      "resource_id": "android:id/icon",
      "checked": false,
      "text": null,
      "class": "android.widget.ImageView",
      "scrollable": false,
      "selected": false,
      "long_clickable": false,
      "parent": 5,
      "temp_id": 6,
      "size": "96*96",
      "signature": "[class]android.widget.ImageView[resource_id]android:id/icon[text]None[enabled,,]",
      "view_str": "2ab860acb84c0a7103a4f842b653a5af",
      "content_free_signature": "[class]android.widget.ImageView[resource_id]android:id/icon"
    },
    {
      "package": "com.haringeymobile.ukweather",
      "visible": true,
      "checkable": false,
      "child_count": 0,
      "editable": false,
      "clickable": false,
      "is_password": false,
      "focusable": false,
      "enabled": true,
      "content_description": null,
      "children": [],
      "focused": false,
      "bounds": [
        [
          267,
          666
        ],
        [
          933,
          747
        ]
      ],
      "resource_id": "android:id/alertTitle",
      "checked": false,
      "text": "Add new city",
      "class": "android.widget.TextView",
      "scrollable": false,
      "selected": false,
      "long_clickable": false,
      "parent": 5,
      "temp_id": 7,
      "size": "666*81",
      "signature": "[class]android.widget.TextView[resource_id]android:id/alertTitle[text]Add new city[enabled,,]",
      "view_str": "01a87cbb53fececc66cce2bc47f2f970",
      "content_free_signature": "[class]android.widget.TextView[resource_id]android:id/alertTitle"
    },
    {
      "package": "com.haringeymobile.ukweather",
      "visible": true,
      "checkable": false,
      "child_count": 1,
      "editable": false,
      "clickable": false,
      "is_password": false,
      "focusable": false,
      "enabled": true,
      "content_description": null,
      "children": [
        9
      ],
      "focused": false,
      "bounds": [
        [
          75,
          755
        ],
        [
          1005,
          1242
        ]
      ],
      "resource_id": "android:id/customPanel",
      "checked": false,
      "text": null,
      "class": "android.widget.FrameLayout",
      "scrollable": false,
      "selected": false,
      "long_clickable": false,
      "parent": 3,
      "temp_id": 8,
      "size": "930*487",
      "signature": "[class]android.widget.FrameLayout[resource_id]android:id/customPanel[text]None[enabled,,]",
      "view_str": "386f31a449591abd44b195775b31efd2",
      "content_free_signature": "[class]android.widget.FrameLayout[resource_id]android:id/customPanel"
    },
    {
      "package": "com.haringeymobile.ukweather",
      "visible": true,
      "checkable": false,
      "child_count": 1,
      "editable": false,
      "clickable": false,
      "is_password": false,
      "focusable": false,
      "enabled": true,
      "content_description": null,
      "children": [
        10
      ],
      "focused": false,
      "bounds": [
        [
          75,
          755
        ],
        [
          1005,
          1242
        ]
      ],
      "resource_id": "android:id/custom",
      "checked": false,
      "text": null,
      "class": "android.widget.FrameLayout",
      "scrollable": false,
      "selected": false,
      "long_clickable": false,
      "parent": 8,
      "temp_id": 9,
      "size": "930*487",
      "signature": "[class]android.widget.FrameLayout[resource_id]android:id/custom[text]None[enabled,,]",
      "view_str": "8a2ed22d17d5e0e85e0e1784d28998ce",
      "content_free_signature": "[class]android.widget.FrameLayout[resource_id]android:id/custom"
    },
    {
      "package": "com.haringeymobile.ukweather",
      "visible": true,
      "checkable": false,
      "child_count": 2,
      "editable": false,
      "clickable": false,
      "is_password": false,
      "focusable": false,
      "enabled": true,
      "content_description": null,
      "children": [
        11,
        14
      ],
      "focused": false,
      "bounds": [
        [
          75,
          755
        ],
        [
          1005,
          1242
        ]
      ],
      "resource_id": null,
      "checked": false,
      "text": null,
      "class": "android.widget.LinearLayout",
      "scrollable": false,
      "selected": false,
      "long_clickable": false,
      "parent": 9,
      "temp_id": 10,
      "size": "930*487",
      "signature": "[class]android.widget.LinearLayout[resource_id]None[text]None[enabled,,]",
      "view_str": "988b119c991e7ce5cd058595728b4c11",
      "content_free_signature": "[class]android.widget.LinearLayout[resource_id]None"
    },
    {
      "package": "com.haringeymobile.ukweather",
      "visible": true,
      "checkable": false,
      "child_count": 2,
      "editable": false,
      "clickable": false,
      "is_password": false,
      "focusable": false,
      "enabled": true,
      "content_description": null,
      "children": [
        12,
        13
      ],
      "focused": false,
      "bounds": [
        [
          99,
          779
        ],
        [
          981,
          935
        ]
      ],
      "resource_id": null,
      "checked": false,
      "text": null,
      "class": "android.widget.LinearLayout",
      "scrollable": false,
      "selected": false,
      "long_clickable": false,
      "parent": 10,
      "temp_id": 11,
      "size": "882*156",
      "signature": "[class]android.widget.LinearLayout[resource_id]None[text]None[enabled,,]",
      "view_str": "d3e439efe9fbb8dc30d6efd13c24c8b9",
      "content_free_signature": "[class]android.widget.LinearLayout[resource_id]None"
    },
    {
      "package": "com.haringeymobile.ukweather",
      "visible": true,
      "checkable": false,
      "child_count": 0,
      "editable": true,
      "clickable": true,
      "is_password": false,
      "focusable": true,
      "enabled": true,
      "content_description": null,
      "children": [],
      "focused": true,
      "bounds": [
        [
          99,
          779
        ],
        [
          852,
          935
        ]
      ],
      "resource_id": "com.haringeymobile.ukweather:id/ac_search_edit_text",
      "checked": false,
      "text": "HelloWorld",
      "class": "android.widget.EditText",
      "scrollable": false,
      "selected": false,
      "long_clickable": true,
      "parent": 11,
      "temp_id": 12,
      "size": "753*156",
      "signature": "[class]android.widget.EditText[resource_id]com.haringeymobile.ukweather:id/ac_search_edit_text[text]HelloWorld[enabled,,]",
      "view_str": "8d8673049ccb51a03c7a46a0623c67c4",
      "content_free_signature": "[class]android.widget.EditText[resource_id]com.haringeymobile.ukweather:id/ac_search_edit_text"
    },
    {
      "package": "com.haringeymobile.ukweather",
      "visible": true,
      "checkable": false,
      "child_count": 0,
      "editable": false,
      "clickable": true,
      "is_password": false,
      "focusable": true,
      "enabled": true,
      "content_description": null,
      "children": [],
      "focused": false,
      "bounds": [
        [
          861,
          779
        ],
        [
          981,
          935
        ]
      ],
      "resource_id": "com.haringeymobile.ukweather:id/ac_search_button",
      "checked": false,
      "text": null,
      "class": "android.widget.ImageButton",
      "scrollable": false,
      "selected": false,
      "long_clickable": false,
      "parent": 11,
      "temp_id": 13,
      "size": "120*156",
      "signature": "[class]android.widget.ImageButton[resource_id]com.haringeymobile.ukweather:id/ac_search_button[text]None[enabled,,]",
      "view_str": "1ef8dcb10c43a72e33cd3409fd496084",
      "content_free_signature": "[class]android.widget.ImageButton[resource_id]com.haringeymobile.ukweather:id/ac_search_button"
    },
    {
      "package": "com.haringeymobile.ukweather",
      "visible": true,
      "checkable": false,
      "child_count": 0,
      "editable": false,
      "clickable": false,
      "is_password": false,
      "focusable": false,
      "enabled": true,
      "content_description": null,
      "children": [],
      "focused": false,
      "bounds": [
        [
          99,
          959
        ],
        [
          981,
          1218
        ]
      ],
      "resource_id": "com.haringeymobile.ukweather:id/ac_info_text_view",
      "checked": false,
      "text": "   # Enter the city name or its part: Lon; Lond; London\n   # To improve the search, you can follow it with the name of the country: Lon,UK; Lon,GB; London,GB; Lond,England\n   # You can also search by geographical coordinates (latitude and longitude): 13.8,109.343; 48,77.24.",
      "class": "android.widget.TextView",
      "scrollable": false,
      "selected": false,
      "long_clickable": false,
      "parent": 10,
      "temp_id": 14,
      "size": "882*259",
      "signature": "[class]android.widget.TextView[resource_id]com.haringeymobile.ukweather:id/ac_info_text_view[text]None[enabled,,]",
      "view_str": "38e86c7def1fb8deacc2da0f76852a23",
      "content_free_signature": "[class]android.widget.TextView[resource_id]com.haringeymobile.ukweather:id/ac_info_text_view"
    }
  ]
}