{
  "tag": "2019-11-22_000121",
  "state_str": "119de00c9800585161273d70bb186398",
  "state_str_content_free": "ebda9439eb6b374850fa8b5aa011d270",
  "foreground_activity": "com.haringeymobile.ukweather/.weather.WeatherInfoActivity",
  "activity_stack": [
    "com.haringeymobile.ukweather/.weather.WeatherInfoActivity",
    "com.haringeymobile.ukweather/.MainActivity"
  ],
  "background_services": [
    "com.google.android.apps.messaging/com.google.android.ims.service.JibeService",
    "com.google.android.gms/.deviceconnection.service.DeviceConnectionWatcherService",
    "com.google.android.gms/com.google.android.location.places.service.PlaceDetectionAsyncService",
    "com.android.systemui/.keyguard.KeyguardService",
    "com.android.systemui/.ImageWallpaper",
    "com.google.android.gms/com.google.android.location.geocode.GeocodeService",
    "com.google.android.gms/.auth.setup.devicesignals.LockScreenService",
    "com.google.android.gms/.gcm.GcmService",
    "com.google.android.gms/.auth.proximity.firstparty.SystemMemoryCacheService",
    "com.google.android.gms/.chimera.PersistentApiService",
    "com.android.phone/com.android.internal.telephony.CellularNetworkService",
    "com.google.android.gms/.chimera.PersistentBoundBrokerService",
    "com.google.android.gm/org.chromium.content.app.SandboxedProcessService0",
    "com.google.android.ims/.services.WakeLockService",
    "com.google.android.gms/.chimera.GmsApiService",
    "com.google.android.gms/.fido.fido2.pollux.CableAuthenticatorService",
    "com.google.android.googlequicksearchbox/com.google.android.apps.gsa.nowoverlayservice.DrawerOverlayService",
    "io.github.ylimit.droidbotapp/.DroidBotIME",
    "com.google.android.gms/com.google.android.location.fused.FusedLocationService",
    "com.google.android.gms/.gcm.nts.SchedulerService",
    "com.android.vending/com.google.android.finsky.deviceconfig.PhoneskyFirebaseMessagingService",
    "io.github.ylimit.droidbotapp/io.github.privacystreams.accessibility.PSAccessibilityService",
    "com.google.android.gms/com.google.android.location.geofencer.service.GeofenceProviderService",
    "com.google.android.gms/.thunderbird.EmergencyPersistentService",
    "com.google.android.apps.messaging/.fcm.BugleFirebaseInstanceIDService",
    "com.android.systemui/.SystemUIService",
    "android/.hardware.location.GeofenceHardwareService",
    "com.android.se/.SecureElementService",
    "com.google.android.ims/.services.RcsService",
    "com.google.android.gms/.chimera.PersistentDirectBootAwareApiService",
    "com.google.android.ext.services/android.ext.services.notification.Assistant",
    "com.google.android.gms/.location.persistent.LocationPersistentService",
    "com.google.android.gms/com.google.android.location.internal.PendingIntentCallbackService",
    "com.google.android.gms/com.google.android.location.internal.server.GoogleLocationService",
    "com.google.android.gms/com.google.android.contextmanager.service.ContextManagerService",
    "com.google.android.gms/com.google.android.location.network.NetworkLocationService",
    "com.google.android.gms/com.google.android.location.internal.GoogleLocationManagerService",
    "com.google.android.apps.messaging/com.google.firebase.iid.FirebaseInstanceIdService",
    "com.android.phone/com.android.internal.telephony.dataconnection.CellularDataService",
    "com.android.server.telecom/.components.TelecomService",
    "com.google.android.googlequicksearchbox/com.google.android.voiceinteraction.GsaVoiceInteractionService",
    "com.android.smspush/.WapPushManager",
    "com.android.phone/.vvm.RemoteVvmTaskManager",
    "android/com.android.server.content.SyncJobService",
    "com.google.android.gms/.common.stats.GmsCoreStatsService",
    "com.google.android.gms/com.google.android.location.internal.server.HardwareArProviderService",
    "com.android.phone/.TelephonyDebugService",
    "com.google.android.videos/.service.pinning.TransferService",
    "com.google.android.apps.nexuslauncher/com.android.quickstep.TouchInteractionService",
    "com.google.android.ims/.services.NetworkConnectionsService"
  ],
  "views": [
    {
      "package": "com.haringeymobile.ukweather",
      "visible": true,
      "checkable": false,
      "child_count": 3,
      "editable": false,
      "clickable": false,
      "is_password": false,
      "focusable": false,
      "enabled": true,
      "content_description": null,
      "children": [
        1,
        69,
        70
      ],
      "focused": false,
      "bounds": [
        [
          0,
          0
        ],
        [
          1080,
          1920
        ]
      ],
      "resource_id": null,
      "checked": false,
      "text": null,
      "class": "android.widget.FrameLayout",
      "scrollable": false,
      "selected": false,
      "long_clickable": false,
      "parent": -1,
      "temp_id": 0,
      "size": "1080*1920",
      "signature": "[class]android.widget.FrameLayout[resource_id]None[text]None[enabled,,]",
      "view_str": "63412775bdf6aa35cd0cb9d3bdaf8214",
      "content_free_signature": "[class]android.widget.FrameLayout[resource_id]None"
    },
    {
      "package": "com.haringeymobile.ukweather",
      "visible": true,
      "checkable": false,
      "child_count": 1,
      "editable": false,
      "clickable": false,
      "is_password": false,
      "focusable": false,
      "enabled": true,
      "content_description": null,
      "children": [
        2
      ],
      "focused": false,
      "bounds": [
        [
          0,
          0
        ],
        [
          1080,
          1776
        ]
      ],
      "resource_id": null,
      "checked": false,
      "text": null,
      "class": "android.widget.LinearLayout",
      "scrollable": false,
      "selected": false,
      "long_clickable": false,
      "parent": 0,
      "temp_id": 1,
      "size": "1080*1776",
      "signature": "[class]android.widget.LinearLayout[resource_id]None[text]None[enabled,,]",
      "view_str": "24ceccbc04db2dbc3a6d51098d3cde76",
      "content_free_signature": "[class]android.widget.LinearLayout[resource_id]None"
    },
    {
      "package": "com.haringeymobile.ukweather",
      "visible": true,
      "checkable": false,
      "child_count": 1,
      "editable": false,
      "clickable": false,
      "is_password": false,
      "focusable": false,
      "enabled": true,
      "content_description": null,
      "children": [
        3
      ],
      "focused": false,
      "bounds": [
        [
          0,
          72
        ],
        [
          1080,
          1776
        ]
      ],
      "resource_id": null,
      "checked": false,
      "text": null,
      "class": "android.widget.FrameLayout",
      "scrollable": false,
      "selected": false,
      "long_clickable": false,
      "parent": 1,
      "temp_id": 2,
      "size": "1080*1704",
      "signature": "[class]android.widget.FrameLayout[resource_id]None[text]None[enabled,,]",
      "view_str": "4000f3f1de5142d5357313e95fff386e",
      "content_free_signature": "[class]android.widget.FrameLayout[resource_id]None"
    },
    {
      "package": "com.haringeymobile.ukweather",
      "visible": true,
      "checkable": false,
      "child_count": 1,
      "editable": false,
      "clickable": false,
      "is_password": false,
      "focusable": false,
      "enabled": true,
      "content_description": null,
      "children": [
        4
      ],
      "focused": false,
      "bounds": [
        [
          0,
          72
        ],
        [
          1080,
          1776
        ]
      ],
      "resource_id": "com.haringeymobile.ukweather:id/action_bar_root",
      "checked": false,
      "text": null,
      "class": "android.widget.LinearLayout",
      "scrollable": false,
      "selected": false,
      "long_clickable": false,
      "parent": 2,
      "temp_id": 3,
      "size": "1080*1704",
      "signature": "[class]android.widget.LinearLayout[resource_id]com.haringeymobile.ukweather:id/action_bar_root[text]None[enabled,,]",
      "view_str": "388c68314fb819565881e95ba808538e",
      "content_free_signature": "[class]android.widget.LinearLayout[resource_id]com.haringeymobile.ukweather:id/action_bar_root"
    },
    {
      "package": "com.haringeymobile.ukweather",
      "visible": true,
      "checkable": false,
      "child_count": 1,
      "editable": false,
      "clickable": false,
      "is_password": false,
      "focusable": false,
      "enabled": true,
      "content_description": null,
      "children": [
        5
      ],
      "focused": false,
      "bounds": [
        [
          0,
          72
        ],
        [
          1080,
          1776
        ]
      ],
      "resource_id": "android:id/content",
      "checked": false,
      "text": null,
      "class": "android.widget.FrameLayout",
      "scrollable": false,
      "selected": false,
      "long_clickable": false,
      "parent": 3,
      "temp_id": 4,
      "size": "1080*1704",
      "signature": "[class]android.widget.FrameLayout[resource_id]android:id/content[text]None[enabled,,]",
      "view_str": "88c06f88f39a762e4fd83f4b2d5eb901",
      "content_free_signature": "[class]android.widget.FrameLayout[resource_id]android:id/content"
    },
    {
      "package": "com.haringeymobile.ukweather",
      "visible": true,
      "checkable": false,
      "child_count": 2,
      "editable": false,
      "clickable": false,
      "is_password": false,
      "focusable": false,
      "enabled": true,
      "content_description": null,
      "children": [
        6,
        10
      ],
      "focused": false,
      "bounds": [
        [
          0,
          72
        ],
        [
          1080,
          1776
        ]
      ],
      "resource_id": null,
      "checked": false,
      "text": null,
      "class": "android.widget.LinearLayout",
      "scrollable": false,
      "selected": false,
      "long_clickable": false,
      "parent": 4,
      "temp_id": 5,
      "size": "1080*1704",
      "signature": "[class]android.widget.LinearLayout[resource_id]None[text]None[enabled,,]",
      "view_str": "098877fe1535c24e9c38a48a38660994",
      "content_free_signature": "[class]android.widget.LinearLayout[resource_id]None"
    },
    {
      "package": "com.haringeymobile.ukweather",
      "visible": true,
      "checkable": false,
      "child_count": 3,
      "editable": false,
      "clickable": false,
      "is_password": false,
      "focusable": false,
      "enabled": true,
      "content_description": null,
      "children": [
        7,
        8,
        9
      ],
      "focused": false,
      "bounds": [
        [
          0,
          72
        ],
        [
          1080,
          240
        ]
      ],
      "resource_id": "com.haringeymobile.ukweather:id/general_toolbar",
      "checked": false,
      "text": null,
      "class": "android.view.ViewGroup",
      "scrollable": false,
      "selected": false,
      "long_clickable": false,
      "parent": 5,
      "temp_id": 6,
      "size": "1080*168",
      "signature": "[class]android.view.ViewGroup[resource_id]com.haringeymobile.ukweather:id/general_toolbar[text]None[enabled,,]",
      "view_str": "e6000479199902d60ef82170e9e6695e",
      "content_free_signature": "[class]android.view.ViewGroup[resource_id]com.haringeymobile.ukweather:id/general_toolbar"
    },
    {
      "package": "com.haringeymobile.ukweather",
      "visible": true,
      "checkable": false,
      "child_count": 0,
      "editable": false,
      "clickable": true,
      "is_password": false,
      "focusable": true,
      "enabled": true,
      "content_description": "Navigate up",
      "children": [],
      "focused": false,
      "bounds": [
        [
          0,
          72
        ],
        [
          168,
          240
        ]
      ],
      "resource_id": null,
      "checked": false,
      "text": null,
      "class": "android.widget.ImageButton",
      "scrollable": false,
      "selected": false,
      "long_clickable": false,
      "parent": 6,
      "temp_id": 7,
      "size": "168*168",
      "signature": "[class]android.widget.ImageButton[resource_id]None[text]None[enabled,,]",
      "view_str": "2387d08b008d1c6827ba38f0579664f4",
      "content_free_signature": "[class]android.widget.ImageButton[resource_id]None"
    },
    {
      "package": "com.haringeymobile.ukweather",
      "visible": true,
      "checkable": false,
      "child_count": 0,
      "editable": false,
      "clickable": false,
      "is_password": false,
      "focusable": false,
      "enabled": true,
      "content_description": null,
      "children": [],
      "focused": false,
      "bounds": [
        [
          216,
          115
        ],
        [
          770,
          196
        ]
      ],
      "resource_id": null,
      "checked": false,
      "text": "16 day daily forecast",
      "class": "android.widget.TextView",
      "scrollable": false,
      "selected": false,
      "long_clickable": false,
      "parent": 6,
      "temp_id": 8,
      "size": "554*81",
      "signature": "[class]android.widget.TextView[resource_id]None[text]16 day daily forecast[enabled,,]",
      "view_str": "52774404d195893652e7d79d20a2724b",
      "content_free_signature": "[class]android.widget.TextView[resource_id]None"
    },
    {
      "package": "com.haringeymobile.ukweather",
      "visible": false,
      "checkable": false,
      "child_count": 0,
      "editable": false,
      "clickable": false,
      "is_password": false,
      "focusable": false,
      "enabled": true,
      "content_description": null,
      "children": [],
      "focused": false,
      "bounds": [
        [
          1080,
          72
        ],
        [
          1080,
          240
        ]
      ],
      "resource_id": null,
      "checked": false,
      "text": null,
      "class": "android.support.v7.widget.am",
      "scrollable": false,
      "selected": false,
      "long_clickable": false,
      "parent": 6,
      "temp_id": 9,
      "size": "0*168",
      "signature": "[class]android.support.v7.widget.am[resource_id]None[text]None[enabled,,]",
      "view_str": "9e45c8b5180b0390887dd6105a1ee9b1",
      "content_free_signature": "[class]android.support.v7.widget.am[resource_id]None"
    },
    {
      "package": "com.haringeymobile.ukweather",
      "visible": true,
      "checkable": false,
      "child_count": 1,
      "editable": false,
      "clickable": false,
      "is_password": false,
      "focusable": false,
      "enabled": true,
      "content_description": null,
      "children": [
        11
      ],
      "focused": false,
      "bounds": [
        [
          0,
          249
        ],
        [
          1080,
          1776
        ]
      ],
      "resource_id": "com.haringeymobile.ukweather:id/weather_info_container",
      "checked": false,
      "text": null,
      "class": "android.widget.FrameLayout",
      "scrollable": false,
      "selected": false,
      "long_clickable": false,
      "parent": 5,
      "temp_id": 10,
      "size": "1080*1527",
      "signature": "[class]android.widget.FrameLayout[resource_id]com.haringeymobile.ukweather:id/weather_info_container[text]None[enabled,,]",
      "view_str": "1ff22819790fb7a9d44949a9b72dc6fb",
      "content_free_signature": "[class]android.widget.FrameLayout[resource_id]com.haringeymobile.ukweather:id/weather_info_container"
    },
    {
      "package": "com.haringeymobile.ukweather",
      "visible": true,
      "checkable": false,
      "child_count": 2,
      "editable": false,
      "clickable": false,
      "is_password": false,
      "focusable": false,
      "enabled": true,
      "content_description": null,
      "children": [
        12,
        30
      ],
      "focused": false,
      "bounds": [
        [
          0,
          249
        ],
        [
          1080,
          1776
        ]
      ],
      "resource_id": null,
      "checked": false,
      "text": null,
      "class": "android.widget.RelativeLayout",
      "scrollable": false,
      "selected": false,
      "long_clickable": false,
      "parent": 10,
      "temp_id": 11,
      "size": "1080*1527",
      "signature": "[class]android.widget.RelativeLayout[resource_id]None[text]None[enabled,,]",
      "view_str": "c4d83d0cc6b2cf3f866e00f1aee2aee4",
      "content_free_signature": "[class]android.widget.RelativeLayout[resource_id]None"
    },
    {
      "package": "com.haringeymobile.ukweather",
      "visible": true,
      "checkable": false,
      "child_count": 1,
      "editable": false,
      "clickable": false,
      "is_password": false,
      "focusable": true,
      "enabled": true,
      "content_description": null,
      "children": [
        13
      ],
      "focused": false,
      "bounds": [
        [
          15,
          258
        ],
        [
          1065,
          402
        ]
      ],
      "resource_id": "com.haringeymobile.ukweather:id/tabs",
      "checked": false,
      "text": null,
      "class": "android.widget.HorizontalScrollView",
      "scrollable": true,
      "selected": false,
      "long_clickable": false,
      "parent": 11,
      "temp_id": 12,
      "size": "1050*144",
      "signature": "[class]android.widget.HorizontalScrollView[resource_id]com.haringeymobile.ukweather:id/tabs[text]None[enabled,,]",
      "view_str": "315467763511e63eb990bcacb5ec03f1",
      "content_free_signature": "[class]android.widget.HorizontalScrollView[resource_id]com.haringeymobile.ukweather:id/tabs"
    },
    {
      "package": "com.haringeymobile.ukweather",
      "visible": true,
      "checkable": false,
      "child_count": 16,
      "editable": false,
      "clickable": false,
      "is_password": false,
      "focusable": false,
      "enabled": true,
      "content_description": null,
      "children": [
        14,
        15,
        16,
        17,
        18,
        19,
        20,
        21,
        22,
        23,
        24,
        25,
        26,
        27,
        28,
        29
      ],
      "focused": false,
      "bounds": [
        [
          15,
          258
        ],
        [
          1065,
          402
        ]
      ],
      "resource_id": null,
      "checked": false,
      "text": null,
      "class": "android.widget.LinearLayout",
      "scrollable": false,
      "selected": false,
      "long_clickable": false,
      "parent": 12,
      "temp_id": 13,
      "size": "1050*144",
      "signature": "[class]android.widget.LinearLayout[resource_id]None[text]None[enabled,,]",
      "view_str": "8a0974eabc448c117635d362162d60c7",
      "content_free_signature": "[class]android.widget.LinearLayout[resource_id]None"
    },
    {
      "package": "com.haringeymobile.ukweather",
      "visible": false,
      "checkable": false,
      "child_count": 0,
      "editable": false,
      "clickable": true,
      "is_password": false,
      "focusable": true,
      "enabled": true,
      "content_description": null,
      "children": [],
      "focused": false,
      "bounds": [
        [
          15,
          258
        ],
        [
          -3958,
          402
        ]
      ],
      "resource_id": null,
      "checked": false,
      "text": "Fri  Nov 22",
      "class": "android.widget.TextView",
      "scrollable": false,
      "selected": false,
      "long_clickable": false,
      "parent": 13,
      "temp_id": 14,
      "size": "-3973*144",
      "signature": "[class]android.widget.TextView[resource_id]None[text]Fri  Nov 22[enabled,,]",
      "view_str": "8216bd9ac79b58e1c260375771068506",
      "content_free_signature": "[class]android.widget.TextView[resource_id]None"
    },
    {
      "package": "com.haringeymobile.ukweather",
      "visible": false,
      "checkable": false,
      "child_count": 0,
      "editable": false,
      "clickable": true,
      "is_password": false,
      "focusable": true,
      "enabled": true,
      "content_description": null,
      "children": [],
      "focused": false,
      "bounds": [
        [
          15,
          258
        ],
        [
          -3629,
          402
        ]
      ],
      "resource_id": null,
      "checked": false,
      "text": "Sat  Nov 23",
      "class": "android.widget.TextView",
      "scrollable": false,
      "selected": false,
      "long_clickable": false,
      "parent": 13,
      "temp_id": 15,
      "size": "-3644*144",
      "signature": "[class]android.widget.TextView[resource_id]None[text]Sat  Nov 23[enabled,,]",
      "view_str": "c60a4d1ecedee0c50e3667db5f0515fb",
      "content_free_signature": "[class]android.widget.TextView[resource_id]None"
    },
    {
      "package": "com.haringeymobile.ukweather",
      "visible": false,
      "checkable": false,
      "child_count": 0,
      "editable": false,
      "clickable": true,
      "is_password": false,
      "focusable": true,
      "enabled": true,
      "content_description": null,
      "children": [],
      "focused": false,
      "bounds": [
        [
          15,
          258
        ],
        [
          -3291,
          402
        ]
      ],
      "resource_id": null,
      "checked": false,
      "text": "Sun  Nov 24",
      "class": "android.widget.TextView",
      "scrollable": false,
      "selected": false,
      "long_clickable": false,
      "parent": 13,
      "temp_id": 16,
      "size": "-3306*144",
      "signature": "[class]android.widget.TextView[resource_id]None[text]Sun  Nov 24[enabled,,]",
      "view_str": "7a1141c28656ebc5d5c27e6a1d5eb7de",
      "content_free_signature": "[class]android.widget.TextView[resource_id]None"
    },
    {
      "package": "com.haringeymobile.ukweather",
      "visible": false,
      "checkable": false,
      "child_count": 0,
      "editable": false,
      "clickable": true,
      "is_password": false,
      "focusable": true,
      "enabled": true,
      "content_description": null,
      "children": [],
      "focused": false,
      "bounds": [
        [
          15,
          258
        ],
        [
          -2943,
          402
        ]
      ],
      "resource_id": null,
      "checked": false,
      "text": "Mon  Nov 25",
      "class": "android.widget.TextView",
      "scrollable": false,
      "selected": false,
      "long_clickable": false,
      "parent": 13,
      "temp_id": 17,
      "size": "-2958*144",
      "signature": "[class]android.widget.TextView[resource_id]None[text]Mon  Nov 25[enabled,,]",
      "view_str": "c19c21f696067815f075ff0220323cbe",
      "content_free_signature": "[class]android.widget.TextView[resource_id]None"
    },
    {
      "package": "com.haringeymobile.ukweather",
      "visible": false,
      "checkable": false,
      "child_count": 0,
      "editable": false,
      "clickable": true,
      "is_password": false,
      "focusable": true,
      "enabled": true,
      "content_description": null,
      "children": [],
      "focused": false,
      "bounds": [
        [
          15,
          258
        ],
        [
          -2607,
          402
        ]
      ],
      "resource_id": null,
      "checked": false,
      "text": "Tue  Nov 26",
      "class": "android.widget.TextView",
      "scrollable": false,
      "selected": false,
      "long_clickable": false,
      "parent": 13,
      "temp_id": 18,
      "size": "-2622*144",
      "signature": "[class]android.widget.TextView[resource_id]None[text]Tue  Nov 26[enabled,,]",
      "view_str": "f84813f8d1e4069175d9c5935576762e",
      "content_free_signature": "[class]android.widget.TextView[resource_id]None"
    },
    {
      "package": "com.haringeymobile.ukweather",
      "visible": false,
      "checkable": false,
      "child_count": 0,
      "editable": false,
      "clickable": true,
      "is_password": false,
      "focusable": true,
      "enabled": true,
      "content_description": null,
      "children": [],
      "focused": false,
      "bounds": [
        [
          15,
          258
        ],
        [
          -2261,
          402
        ]
      ],
      "resource_id": null,
      "checked": false,
      "text": "Wed  Nov 27",
      "class": "android.widget.TextView",
      "scrollable": false,
      "selected": false,
      "long_clickable": false,
      "parent": 13,
      "temp_id": 19,
      "size": "-2276*144",
      "signature": "[class]android.widget.TextView[resource_id]None[text]Wed  Nov 27[enabled,,]",
      "view_str": "66e8c5477acd7f763b3f46e85b18473a",
      "content_free_signature": "[class]android.widget.TextView[resource_id]None"
    },
    {
      "package": "com.haringeymobile.ukweather",
      "visible": false,
      "checkable": false,
      "child_count": 0,
      "editable": false,
      "clickable": true,
      "is_password": false,
      "focusable": true,
      "enabled": true,
      "content_description": null,
      "children": [],
      "focused": false,
      "bounds": [
        [
          15,
          258
        ],
        [
          -1923,
          402
        ]
      ],
      "resource_id": null,
      "checked": false,
      "text": "Thu  Nov 28",
      "class": "android.widget.TextView",
      "scrollable": false,
      "selected": false,
      "long_clickable": false,
      "parent": 13,
      "temp_id": 20,
      "size": "-1938*144",
      "signature": "[class]android.widget.TextView[resource_id]None[text]Thu  Nov 28[enabled,,]",
      "view_str": "441ee44daacc36cf4e8ed2f861c957c0",
      "content_free_signature": "[class]android.widget.TextView[resource_id]None"
    },
    {
      "package": "com.haringeymobile.ukweather",
      "visible": false,
      "checkable": false,
      "child_count": 0,
      "editable": false,
      "clickable": true,
      "is_password": false,
      "focusable": true,
      "enabled": true,
      "content_description": null,
      "children": [],
      "focused": false,
      "bounds": [
        [
          15,
          258
        ],
        [
          -1604,
          402
        ]
      ],
      "resource_id": null,
      "checked": false,
      "text": "Fri  Nov 29",
      "class": "android.widget.TextView",
      "scrollable": false,
      "selected": false,
      "long_clickable": false,
      "parent": 13,
      "temp_id": 21,
      "size": "-1619*144",
      "signature": "[class]android.widget.TextView[resource_id]None[text]Fri  Nov 29[enabled,,]",
      "view_str": "d945e9a03490921f0ffd3e76f2949f68",
      "content_free_signature": "[class]android.widget.TextView[resource_id]None"
    },
    {
      "package": "com.haringeymobile.ukweather",
      "visible": false,
      "checkable": false,
      "child_count": 0,
      "editable": false,
      "clickable": true,
      "is_password": false,
      "focusable": true,
      "enabled": true,
      "content_description": null,
      "children": [],
      "focused": false,
      "bounds": [
        [
          15,
          258
        ],
        [
          -1275,
          402
        ]
      ],
      "resource_id": null,
      "checked": false,
      "text": "Sat  Nov 30",
      "class": "android.widget.TextView",
      "scrollable": false,
      "selected": false,
      "long_clickable": false,
      "parent": 13,
      "temp_id": 22,
      "size": "-1290*144",
      "signature": "[class]android.widget.TextView[resource_id]None[text]Sat  Nov 30[enabled,,]",
      "view_str": "f331414d94a3b0442502681238bb536c",
      "content_free_signature": "[class]android.widget.TextView[resource_id]None"
    },
    {
      "package": "com.haringeymobile.ukweather",
      "visible": false,
      "checkable": false,
      "child_count": 0,
      "editable": false,
      "clickable": true,
      "is_password": false,
      "focusable": true,
      "enabled": true,
      "content_description": null,
      "children": [],
      "focused": false,
      "bounds": [
        [
          15,
          258
        ],
        [
          -939,
          402
        ]
      ],
      "resource_id": null,
      "checked": false,
      "text": "Sun  Dec 01",
      "class": "android.widget.TextView",
      "scrollable": false,
      "selected": false,
      "long_clickable": false,
      "parent": 13,
      "temp_id": 23,
      "size": "-954*144",
      "signature": "[class]android.widget.TextView[resource_id]None[text]Sun  Dec 01[enabled,,]",
      "view_str": "27a7e8d16eb5d93a91a19dc0e51b0953",
      "content_free_signature": "[class]android.widget.TextView[resource_id]None"
    },
    {
      "package": "com.haringeymobile.ukweather",
      "visible": false,
      "checkable": false,
      "child_count": 0,
      "editable": false,
      "clickable": true,
      "is_password": false,
      "focusable": true,
      "enabled": true,
      "content_description": null,
      "children": [],
      "focused": false,
      "bounds": [
        [
          15,
          258
        ],
        [
          -593,
          402
        ]
      ],
      "resource_id": null,
      "checked": false,
      "text": "Mon  Dec 02",
      "class": "android.widget.TextView",
      "scrollable": false,
      "selected": false,
      "long_clickable": false,
      "parent": 13,
      "temp_id": 24,
      "size": "-608*144",
      "signature": "[class]android.widget.TextView[resource_id]None[text]Mon  Dec 02[enabled,,]",
      "view_str": "10da243e27130f4cd9e832e37675233f",
      "content_free_signature": "[class]android.widget.TextView[resource_id]None"
    },
    {
      "package": "com.haringeymobile.ukweather",
      "visible": false,
      "checkable": false,
      "child_count": 0,
      "editable": false,
      "clickable": true,
      "is_password": false,
      "focusable": true,
      "enabled": true,
      "content_description": null,
      "children": [],
      "focused": false,
      "bounds": [
        [
          15,
          258
        ],
        [
          -259,
          402
        ]
      ],
      "resource_id": null,
      "checked": false,
      "text": "Tue  Dec 03",
      "class": "android.widget.TextView",
      "scrollable": false,
      "selected": false,
      "long_clickable": false,
      "parent": 13,
      "temp_id": 25,
      "size": "-274*144",
      "signature": "[class]android.widget.TextView[resource_id]None[text]Tue  Dec 03[enabled,,]",
      "view_str": "68ac9e09ed5f14f3750eaa6f7f197b57",
      "content_free_signature": "[class]android.widget.TextView[resource_id]None"
    },
    {
      "package": "com.haringeymobile.ukweather",
      "visible": true,
      "checkable": false,
      "child_count": 0,
      "editable": false,
      "clickable": true,
      "is_password": false,
      "focusable": true,
      "enabled": true,
      "content_description": null,
      "children": [],
      "focused": false,
      "bounds": [
        [
          15,
          258
        ],
        [
          85,
          402
        ]
      ],
      "resource_id": null,
      "checked": false,
      "text": "Wed  Dec 04",
      "class": "android.widget.TextView",
      "scrollable": false,
      "selected": false,
      "long_clickable": false,
      "parent": 13,
      "temp_id": 26,
      "size": "70*144",
      "signature": "[class]android.widget.TextView[resource_id]None[text]Wed  Dec 04[enabled,,]",
      "view_str": "d11192508337be531e8e4ebf5f1de6b1",
      "content_free_signature": "[class]android.widget.TextView[resource_id]None"
    },
    {
      "package": "com.haringeymobile.ukweather",
      "visible": true,
      "checkable": false,
      "child_count": 0,
      "editable": false,
      "clickable": true,
      "is_password": false,
      "focusable": true,
      "enabled": true,
      "content_description": null,
      "children": [],
      "focused": false,
      "bounds": [
        [
          85,
          258
        ],
        [
          421,
          402
        ]
      ],
      "resource_id": null,
      "checked": false,
      "text": "Thu  Dec 05",
      "class": "android.widget.TextView",
      "scrollable": false,
      "selected": false,
      "long_clickable": false,
      "parent": 13,
      "temp_id": 27,
      "size": "336*144",
      "signature": "[class]android.widget.TextView[resource_id]None[text]Thu  Dec 05[enabled,,]",
      "view_str": "2032e42f01618c43621bde5ee20ed33e",
      "content_free_signature": "[class]android.widget.TextView[resource_id]None"
    },
    {
      "package": "com.haringeymobile.ukweather",
      "visible": true,
      "checkable": false,
      "child_count": 0,
      "editable": false,
      "clickable": true,
      "is_password": false,
      "focusable": true,
      "enabled": true,
      "content_description": null,
      "children": [],
      "focused": false,
      "bounds": [
        [
          421,
          258
        ],
        [
          738,
          402
        ]
      ],
      "resource_id": null,
      "checked": false,
      "text": "Fri  Dec 06",
      "class": "android.widget.TextView",
      "scrollable": false,
      "selected": false,
      "long_clickable": false,
      "parent": 13,
      "temp_id": 28,
      "size": "317*144",
      "signature": "[class]android.widget.TextView[resource_id]None[text]Fri  Dec 06[enabled,,]",
      "view_str": "7f774b5b872df6157d25c7e6901cafc8",
      "content_free_signature": "[class]android.widget.TextView[resource_id]None"
    },
    {
      "package": "com.haringeymobile.ukweather",
      "visible": true,
      "checkable": false,
      "child_count": 0,
      "editable": false,
      "clickable": true,
      "is_password": false,
      "focusable": true,
      "enabled": true,
      "content_description": null,
      "children": [],
      "focused": false,
      "bounds": [
        [
          738,
          258
        ],
        [
          1065,
          402
        ]
      ],
      "resource_id": null,
      "checked": false,
      "text": "Sat  Dec 07",
      "class": "android.widget.TextView",
      "scrollable": false,
      "selected": false,
      "long_clickable": false,
      "parent": 13,
      "temp_id": 29,
      "size": "327*144",
      "signature": "[class]android.widget.TextView[resource_id]None[text]Sat  Dec 07[enabled,,]",
      "view_str": "a54c2e41c55d82f8edee5b35bdb0bba1",
      "content_free_signature": "[class]android.widget.TextView[resource_id]None"
    },
    {
      "package": "com.haringeymobile.ukweather",
      "visible": true,
      "checkable": false,
      "child_count": 2,
      "editable": false,
      "clickable": false,
      "is_password": false,
      "focusable": true,
      "enabled": true,
      "content_description": null,
      "children": [
        31,
        50
      ],
      "focused": false,
      "bounds": [
        [
          15,
          402
        ],
        [
          1065,
          1767
        ]
      ],
      "resource_id": "com.haringeymobile.ukweather:id/pager",
      "checked": false,
      "text": null,
      "class": "android.support.v4.view.ViewPager",
      "scrollable": true,
      "selected": false,
      "long_clickable": false,
      "parent": 11,
      "temp_id": 30,
      "size": "1050*1365",
      "signature": "[class]android.support.v4.view.ViewPager[resource_id]com.haringeymobile.ukweather:id/pager[text]None[enabled,,]",
      "view_str": "509ceac3c65637950b7d9005e23e479f",
      "content_free_signature": "[class]android.support.v4.view.ViewPager[resource_id]com.haringeymobile.ukweather:id/pager"
    },
    {
      "package": "com.haringeymobile.ukweather",
      "visible": false,
      "checkable": false,
      "child_count": 1,
      "editable": false,
      "clickable": false,
      "is_password": false,
      "focusable": true,
      "enabled": true,
      "content_description": null,
      "children": [
        32
      ],
      "focused": false,
      "bounds": [
        [
          15,
          402
        ],
        [
          15,
          1767
        ]
      ],
      "resource_id": null,
      "checked": false,
      "text": null,
      "class": "android.widget.ScrollView",
      "scrollable": false,
      "selected": false,
      "long_clickable": false,
      "parent": 30,
      "temp_id": 31,
      "size": "0*1365",
      "signature": "[class]android.widget.ScrollView[resource_id]None[text]None[enabled,,]",
      "view_str": "966a252bf5a27f34463e447e57e7c866",
      "content_free_signature": "[class]android.widget.ScrollView[resource_id]None"
    },
    {
      "package": "com.haringeymobile.ukweather",
      "visible": false,
      "checkable": false,
      "child_count": 3,
      "editable": false,
      "clickable": false,
      "is_password": false,
      "focusable": false,
      "enabled": true,
      "content_description": null,
      "children": [
        33,
        40,
        44
      ],
      "focused": false,
      "bounds": [
        [
          15,
          411
        ],
        [
          0,
          1758
        ]
      ],
      "resource_id": null,
      "checked": false,
      "text": null,
      "class": "android.widget.LinearLayout",
      "scrollable": false,
      "selected": false,
      "long_clickable": false,
      "parent": 31,
      "temp_id": 32,
      "size": "-15*1347",
      "signature": "[class]android.widget.LinearLayout[resource_id]None[text]None[enabled,,]",
      "view_str": "6c682e5c046f05251eebafdcc26fa6cb",
      "content_free_signature": "[class]android.widget.LinearLayout[resource_id]None"
    },
    {
      "package": "com.haringeymobile.ukweather",
      "visible": false,
      "checkable": false,
      "child_count": 2,
      "editable": false,
      "clickable": false,
      "is_password": false,
      "focusable": false,
      "enabled": true,
      "content_description": null,
      "children": [
        34,
        37
      ],
      "focused": false,
      "bounds": [
        [
          15,
          562
        ],
        [
          0,
          958
        ]
      ],
      "resource_id": null,
      "checked": false,
      "text": null,
      "class": "android.widget.LinearLayout",
      "scrollable": false,
      "selected": false,
      "long_clickable": false,
      "parent": 32,
      "temp_id": 33,
      "size": "-15*396",
      "signature": "[class]android.widget.LinearLayout[resource_id]None[text]None[enabled,,]",
      "view_str": "e8eaf8986b0544d0bf61ab45441c742f",
      "content_free_signature": "[class]android.widget.LinearLayout[resource_id]None"
    },
    {
      "package": "com.haringeymobile.ukweather",
      "visible": false,
      "checkable": false,
      "child_count": 2,
      "editable": false,
      "clickable": false,
      "is_password": false,
      "focusable": false,
      "enabled": true,
      "content_description": null,
      "children": [
        35,
        36
      ],
      "focused": false,
      "bounds": [
        [
          15,
          577
        ],
        [
          -15,
          798
        ]
      ],
      "resource_id": null,
      "checked": false,
      "text": null,
      "class": "android.widget.LinearLayout",
      "scrollable": false,
      "selected": false,
      "long_clickable": false,
      "parent": 33,
      "temp_id": 34,
      "size": "-30*221",
      "signature": "[class]android.widget.LinearLayout[resource_id]None[text]None[enabled,,]",
      "view_str": "d051442a7a6b917019b00e3cd824df34",
      "content_free_signature": "[class]android.widget.LinearLayout[resource_id]None"
    },
    {
      "package": "com.haringeymobile.ukweather",
      "visible": false,
      "checkable": false,
      "child_count": 0,
      "editable": false,
      "clickable": false,
      "is_password": false,
      "focusable": false,
      "enabled": true,
      "content_description": null,
      "children": [],
      "focused": false,
      "bounds": [
        [
          15,
          617
        ],
        [
          -637,
          758
        ]
      ],
      "resource_id": "com.haringeymobile.ukweather:id/temperature_text_view",
      "checked": false,
      "text": "23.4\u2103",
      "class": "android.widget.TextView",
      "scrollable": false,
      "selected": false,
      "long_clickable": false,
      "parent": 34,
      "temp_id": 35,
      "size": "-652*141",
      "signature": "[class]android.widget.TextView[resource_id]com.haringeymobile.ukweather:id/temperature_text_view[text]23.4\u2103[enabled,,]",
      "view_str": "3a4782bec58b823f4a834e931529b350",
      "content_free_signature": "[class]android.widget.TextView[resource_id]com.haringeymobile.ukweather:id/temperature_text_view"
    },
    {
      "package": "com.haringeymobile.ukweather",
      "visible": false,
      "checkable": false,
      "child_count": 0,
      "editable": false,
      "clickable": false,
      "is_password": false,
      "focusable": false,
      "enabled": true,
      "content_description": null,
      "children": [],
      "focused": false,
      "bounds": [
        [
          15,
          592
        ],
        [
          -30,
          783
        ]
      ],
      "resource_id": "com.haringeymobile.ukweather:id/city_extra_info_text_view",
      "checked": false,
      "text": "Fri, Dec 6, 2019\n9:00 AM\nRio de Janeiro",
      "class": "android.widget.TextView",
      "scrollable": false,
      "selected": false,
      "long_clickable": false,
      "parent": 34,
      "temp_id": 36,
      "size": "-45*191",
      "signature": "[class]android.widget.TextView[resource_id]com.haringeymobile.ukweather:id/city_extra_info_text_view[text]Fri, Dec 6, 2019\n9:00 AM\nRio de Janeiro[enabled,,]",
      "view_str": "38009fa9bbc7dba78ddc830f8c830817",
      "content_free_signature": "[class]android.widget.TextView[resource_id]com.haringeymobile.ukweather:id/city_extra_info_text_view"
    },
    {
      "package": "com.haringeymobile.ukweather",
      "visible": false,
      "checkable": false,
      "child_count": 2,
      "editable": false,
      "clickable": false,
      "is_password": false,
      "focusable": false,
      "enabled": true,
      "content_description": null,
      "children": [
        38,
        39
      ],
      "focused": false,
      "bounds": [
        [
          15,
          798
        ],
        [
          -15,
          943
        ]
      ],
      "resource_id": null,
      "checked": false,
      "text": null,
      "class": "android.widget.LinearLayout",
      "scrollable": false,
      "selected": false,
      "long_clickable": false,
      "parent": 33,
      "temp_id": 37,
      "size": "-30*145",
      "signature": "[class]android.widget.LinearLayout[resource_id]None[text]None[enabled,,]",
      "view_str": "4598617fd803b1e042005795ae77e3e0",
      "content_free_signature": "[class]android.widget.LinearLayout[resource_id]None"
    },
    {
      "package": "com.haringeymobile.ukweather",
      "visible": false,
      "checkable": false,
      "child_count": 0,
      "editable": false,
      "clickable": false,
      "is_password": false,
      "focusable": false,
      "enabled": true,
      "content_description": null,
      "children": [],
      "focused": false,
      "bounds": [
        [
          15,
          798
        ],
        [
          -510,
          943
        ]
      ],
      "resource_id": "com.haringeymobile.ukweather:id/night_morning_evening_title",
      "checked": false,
      "text": "Night:\nMorning:\nEvening:",
      "class": "android.widget.TextView",
      "scrollable": false,
      "selected": false,
      "long_clickable": false,
      "parent": 37,
      "temp_id": 38,
      "size": "-525*145",
      "signature": "[class]android.widget.TextView[resource_id]com.haringeymobile.ukweather:id/night_morning_evening_title[text]Night:\nMorning:\nEvening:[enabled,,]",
      "view_str": "ac9a60f4e138613470d20b2c2b8d59bb",
      "content_free_signature": "[class]android.widget.TextView[resource_id]com.haringeymobile.ukweather:id/night_morning_evening_title"
    },
    {
      "package": "com.haringeymobile.ukweather",
      "visible": false,
      "checkable": false,
      "child_count": 0,
      "editable": false,
      "clickable": false,
      "is_password": false,
      "focusable": false,
      "enabled": true,
      "content_description": null,
      "children": [],
      "focused": false,
      "bounds": [
        [
          15,
          798
        ],
        [
          -15,
          943
        ]
      ],
      "resource_id": "com.haringeymobile.ukweather:id/night_morning_evening_temperatures_text_view",
      "checked": false,
      "text": "22.8\u2103\n22.5\u2103\n24.2\u2103",
      "class": "android.widget.TextView",
      "scrollable": false,
      "selected": false,
      "long_clickable": false,
      "parent": 37,
      "temp_id": 39,
      "size": "-30*145",
      "signature": "[class]android.widget.TextView[resource_id]com.haringeymobile.ukweather:id/night_morning_evening_temperatures_text_view[text]22.8\u2103\n22.5\u2103\n24.2\u2103[enabled,,]",
      "view_str": "5d14c94874e370e06499093d9eb1dcb0",
      "content_free_signature": "[class]android.widget.TextView[resource_id]com.haringeymobile.ukweather:id/night_morning_evening_temperatures_text_view"
    },
    {
      "package": "com.haringeymobile.ukweather",
      "visible": false,
      "checkable": false,
      "child_count": 1,
      "editable": false,
      "clickable": false,
      "is_password": false,
      "focusable": false,
      "enabled": true,
      "content_description": null,
      "children": [
        41
      ],
      "focused": false,
      "bounds": [
        [
          15,
          976
        ],
        [
          0,
          1144
        ]
      ],
      "resource_id": null,
      "checked": false,
      "text": null,
      "class": "android.widget.FrameLayout",
      "scrollable": false,
      "selected": false,
      "long_clickable": false,
      "parent": 32,
      "temp_id": 40,
      "size": "-15*168",
      "signature": "[class]android.widget.FrameLayout[resource_id]None[text]None[enabled,,]",
      "view_str": "3af2675fa54df145cbdd22b67d1eb686",
      "content_free_signature": "[class]android.widget.FrameLayout[resource_id]None"
    },
    {
      "package": "com.haringeymobile.ukweather",
      "visible": false,
      "checkable": false,
      "child_count": 2,
      "editable": false,
      "clickable": false,
      "is_password": false,
      "focusable": false,
      "enabled": true,
      "content_description": null,
      "children": [
        42,
        43
      ],
      "focused": false,
      "bounds": [
        [
          15,
          991
        ],
        [
          -194,
          1129
        ]
      ],
      "resource_id": null,
      "checked": false,
      "text": null,
      "class": "android.widget.LinearLayout",
      "scrollable": false,
      "selected": false,
      "long_clickable": false,
      "parent": 40,
      "temp_id": 41,
      "size": "-209*138",
      "signature": "[class]android.widget.LinearLayout[resource_id]None[text]None[enabled,,]",
      "view_str": "825ada67f6a668370fbef83208a9e831",
      "content_free_signature": "[class]android.widget.LinearLayout[resource_id]None"
    },
    {
      "package": "com.haringeymobile.ukweather",
      "visible": false,
      "checkable": false,
      "child_count": 0,
      "editable": false,
      "clickable": false,
      "is_password": false,
      "focusable": false,
      "enabled": true,
      "content_description": "Weather",
      "children": [],
      "focused": false,
      "bounds": [
        [
          15,
          1015
        ],
        [
          -683,
          1105
        ]
      ],
      "resource_id": "com.haringeymobile.ukweather:id/weather_conditions_image_view",
      "checked": false,
      "text": null,
      "class": "android.widget.ImageView",
      "scrollable": false,
      "selected": false,
      "long_clickable": false,
      "parent": 41,
      "temp_id": 42,
      "size": "-698*90",
      "signature": "[class]android.widget.ImageView[resource_id]com.haringeymobile.ukweather:id/weather_conditions_image_view[text]None[enabled,,]",
      "view_str": "9cd523163754c2ad3ddb632cc01ddebf",
      "content_free_signature": "[class]android.widget.ImageView[resource_id]com.haringeymobile.ukweather:id/weather_conditions_image_view"
    },
    {
      "package": "com.haringeymobile.ukweather",
      "visible": false,
      "checkable": false,
      "child_count": 0,
      "editable": false,
      "clickable": false,
      "is_password": false,
      "focusable": false,
      "enabled": true,
      "content_description": null,
      "children": [],
      "focused": false,
      "bounds": [
        [
          15,
          1001
        ],
        [
          -194,
          1118
        ]
      ],
      "resource_id": "com.haringeymobile.ukweather:id/weather_conditions_text_view",
      "checked": false,
      "text": "Overcast clouds",
      "class": "android.widget.TextView",
      "scrollable": false,
      "selected": false,
      "long_clickable": false,
      "parent": 41,
      "temp_id": 43,
      "size": "-209*117",
      "signature": "[class]android.widget.TextView[resource_id]com.haringeymobile.ukweather:id/weather_conditions_text_view[text]Overcast clouds[enabled,,]",
      "view_str": "59791255fa7ccdf08fa5990e6546d356",
      "content_free_signature": "[class]android.widget.TextView[resource_id]com.haringeymobile.ukweather:id/weather_conditions_text_view"
    },
    {
      "package": "com.haringeymobile.ukweather",
      "visible": false,
      "checkable": false,
      "child_count": 3,
      "editable": false,
      "clickable": false,
      "is_password": false,
      "focusable": false,
      "enabled": true,
      "content_description": null,
      "children": [
        45,
        46,
        47
      ],
      "focused": false,
      "bounds": [
        [
          15,
          1162
        ],
        [
          0,
          1607
        ]
      ],
      "resource_id": null,
      "checked": false,
      "text": null,
      "class": "android.widget.LinearLayout",
      "scrollable": false,
      "selected": false,
      "long_clickable": false,
      "parent": 32,
      "temp_id": 44,
      "size": "-15*445",
      "signature": "[class]android.widget.LinearLayout[resource_id]None[text]None[enabled,,]",
      "view_str": "8d3ac06334c93077a3403f56312d85e7",
      "content_free_signature": "[class]android.widget.LinearLayout[resource_id]None"
    },
    {
      "package": "com.haringeymobile.ukweather",
      "visible": false,
      "checkable": false,
      "child_count": 0,
      "editable": false,
      "clickable": false,
      "is_password": false,
      "focusable": false,
      "enabled": true,
      "content_description": null,
      "children": [],
      "focused": false,
      "bounds": [
        [
          15,
          1186
        ],
        [
          -24,
          1271
        ]
      ],
      "resource_id": "com.haringeymobile.ukweather:id/atmospheric_pressure_text_view",
      "checked": false,
      "text": "Pressure: 1013 hPa",
      "class": "android.widget.TextView",
      "scrollable": false,
      "selected": false,
      "long_clickable": false,
      "parent": 44,
      "temp_id": 45,
      "size": "-39*85",
      "signature": "[class]android.widget.TextView[resource_id]com.haringeymobile.ukweather:id/atmospheric_pressure_text_view[text]Pressure: 1013 hPa[enabled,,]",
      "view_str": "54489b60b7fb1178c4b727b964a88b0c",
      "content_free_signature": "[class]android.widget.TextView[resource_id]com.haringeymobile.ukweather:id/atmospheric_pressure_text_view"
    },
    {
      "package": "com.haringeymobile.ukweather",
      "visible": false,
      "checkable": false,
      "child_count": 0,
      "editable": false,
      "clickable": false,
      "is_password": false,
      "focusable": false,
      "enabled": true,
      "content_description": null,
      "children": [],
      "focused": false,
      "bounds": [
        [
          15,
          1289
        ],
        [
          -24,
          1374
        ]
      ],
      "resource_id": "com.haringeymobile.ukweather:id/humidity_text_view",
      "checked": false,
      "text": "Humidity: 77%",
      "class": "android.widget.TextView",
      "scrollable": false,
      "selected": false,
      "long_clickable": false,
      "parent": 44,
      "temp_id": 46,
      "size": "-39*85",
      "signature": "[class]android.widget.TextView[resource_id]com.haringeymobile.ukweather:id/humidity_text_view[text]Humidity: 77%[enabled,,]",
      "view_str": "92d60e3128a6df16bd26727e8cc7eeb3",
      "content_free_signature": "[class]android.widget.TextView[resource_id]com.haringeymobile.ukweather:id/humidity_text_view"
    },
    {
      "package": "com.haringeymobile.ukweather",
      "visible": false,
      "checkable": false,
      "child_count": 2,
      "editable": false,
      "clickable": false,
      "is_password": false,
      "focusable": false,
      "enabled": true,
      "content_description": null,
      "children": [
        48,
        49
      ],
      "focused": false,
      "bounds": [
        [
          15,
          1383
        ],
        [
          -414,
          1592
        ]
      ],
      "resource_id": null,
      "checked": false,
      "text": null,
      "class": "android.widget.LinearLayout",
      "scrollable": false,
      "selected": false,
      "long_clickable": false,
      "parent": 44,
      "temp_id": 47,
      "size": "-429*209",
      "signature": "[class]android.widget.LinearLayout[resource_id]None[text]None[enabled,,]",
      "view_str": "02b3b3379a9ed7937dc703a337470def",
      "content_free_signature": "[class]android.widget.LinearLayout[resource_id]None"
    },
    {
      "package": "com.haringeymobile.ukweather",
      "visible": false,
      "checkable": false,
      "child_count": 0,
      "editable": false,
      "clickable": false,
      "is_password": false,
      "focusable": false,
      "enabled": true,
      "content_description": "Wind",
      "children": [],
      "focused": false,
      "bounds": [
        [
          15,
          1383
        ],
        [
          -885,
          1592
        ]
      ],
      "resource_id": null,
      "checked": false,
      "text": null,
      "class": "android.widget.ImageView",
      "scrollable": false,
      "selected": false,
      "long_clickable": false,
      "parent": 47,
      "temp_id": 48,
      "size": "-900*209",
      "signature": "[class]android.widget.ImageView[resource_id]None[text]None[enabled,,]",
      "view_str": "a37aa99e73561e43de9ec32daef8451f",
      "content_free_signature": "[class]android.widget.ImageView[resource_id]None"
    },
    {
      "package": "com.haringeymobile.ukweather",
      "visible": false,
      "checkable": false,
      "child_count": 0,
      "editable": false,
      "clickable": false,
      "is_password": false,
      "focusable": false,
      "enabled": true,
      "content_description": null,
      "children": [],
      "focused": false,
      "bounds": [
        [
          15,
          1392
        ],
        [
          -423,
          1583
        ]
      ],
      "resource_id": "com.haringeymobile.ukweather:id/wind_text_view",
      "checked": false,
      "text": "Wind speed: 2.1 mps\nWind direction: 36\u00b0\n(NorthEast)",
      "class": "android.widget.TextView",
      "scrollable": false,
      "selected": false,
      "long_clickable": false,
      "parent": 47,
      "temp_id": 49,
      "size": "-438*191",
      "signature": "[class]android.widget.TextView[resource_id]com.haringeymobile.ukweather:id/wind_text_view[text]None[enabled,,]",
      "view_str": "996a42465269a73d7b6e44de81c6aa9a",
      "content_free_signature": "[class]android.widget.TextView[resource_id]com.haringeymobile.ukweather:id/wind_text_view"
    },
    {
      "package": "com.haringeymobile.ukweather",
      "visible": true,
      "checkable": false,
      "child_count": 1,
      "editable": false,
      "clickable": false,
      "is_password": false,
      "focusable": true,
      "enabled": true,
      "content_description": null,
      "children": [
        51
      ],
      "focused": false,
      "bounds": [
        [
          15,
          402
        ],
        [
          1065,
          1767
        ]
      ],
      "resource_id": null,
      "checked": false,
      "text": null,
      "class": "android.widget.ScrollView",
      "scrollable": false,
      "selected": false,
      "long_clickable": false,
      "parent": 30,
      "temp_id": 50,
      "size": "1050*1365",
      "signature": "[class]android.widget.ScrollView[resource_id]None[text]None[enabled,,]",
      "view_str": "966a252bf5a27f34463e447e57e7c866",
      "content_free_signature": "[class]android.widget.ScrollView[resource_id]None"
    },
    {
      "package": "com.haringeymobile.ukweather",
      "visible": true,
      "checkable": false,
      "child_count": 3,
      "editable": false,
      "clickable": false,
      "is_password": false,
      "focusable": false,
      "enabled": true,
      "content_description": null,
      "children": [
        52,
        59,
        63
      ],
      "focused": false,
      "bounds": [
        [
          30,
          411
        ],
        [
          1050,
          1758
        ]
      ],
      "resource_id": null,
      "checked": false,
      "text": null,
      "class": "android.widget.LinearLayout",
      "scrollable": false,
      "selected": false,
      "long_clickable": false,
      "parent": 50,
      "temp_id": 51,
      "size": "1020*1347",
      "signature": "[class]android.widget.LinearLayout[resource_id]None[text]None[enabled,,]",
      "view_str": "6c682e5c046f05251eebafdcc26fa6cb",
      "content_free_signature": "[class]android.widget.LinearLayout[resource_id]None"
    },
    {
      "package": "com.haringeymobile.ukweather",
      "visible": true,
      "checkable": false,
      "child_count": 2,
      "editable": false,
      "clickable": false,
      "is_password": false,
      "focusable": false,
      "enabled": true,
      "content_description": null,
      "children": [
        53,
        56
      ],
      "focused": false,
      "bounds": [
        [
          30,
          562
        ],
        [
          1050,
          958
        ]
      ],
      "resource_id": null,
      "checked": false,
      "text": null,
      "class": "android.widget.LinearLayout",
      "scrollable": false,
      "selected": false,
      "long_clickable": false,
      "parent": 51,
      "temp_id": 52,
      "size": "1020*396",
      "signature": "[class]android.widget.LinearLayout[resource_id]None[text]None[enabled,,]",
      "view_str": "e8eaf8986b0544d0bf61ab45441c742f",
      "content_free_signature": "[class]android.widget.LinearLayout[resource_id]None"
    },
    {
      "package": "com.haringeymobile.ukweather",
      "visible": true,
      "checkable": false,
      "child_count": 2,
      "editable": false,
      "clickable": false,
      "is_password": false,
      "focusable": false,
      "enabled": true,
      "content_description": null,
      "children": [
        54,
        55
      ],
      "focused": false,
      "bounds": [
        [
          45,
          577
        ],
        [
          1035,
          798
        ]
      ],
      "resource_id": null,
      "checked": false,
      "text": null,
      "class": "android.widget.LinearLayout",
      "scrollable": false,
      "selected": false,
      "long_clickable": false,
      "parent": 52,
      "temp_id": 53,
      "size": "990*221",
      "signature": "[class]android.widget.LinearLayout[resource_id]None[text]None[enabled,,]",
      "view_str": "d63a6b97d56e2a423eb54d0173d0664e",
      "content_free_signature": "[class]android.widget.LinearLayout[resource_id]None"
    },
    {
      "package": "com.haringeymobile.ukweather",
      "visible": true,
      "checkable": false,
      "child_count": 0,
      "editable": false,
      "clickable": false,
      "is_password": false,
      "focusable": false,
      "enabled": true,
      "content_description": null,
      "children": [],
      "focused": false,
      "bounds": [
        [
          60,
          617
        ],
        [
          413,
          758
        ]
      ],
      "resource_id": "com.haringeymobile.ukweather:id/temperature_text_view",
      "checked": false,
      "text": "22.2\u2103",
      "class": "android.widget.TextView",
      "scrollable": false,
      "selected": false,
      "long_clickable": false,
      "parent": 53,
      "temp_id": 54,
      "size": "353*141",
      "signature": "[class]android.widget.TextView[resource_id]com.haringeymobile.ukweather:id/temperature_text_view[text]22.2\u2103[enabled,,]",
      "view_str": "1ca9edb865ce8408e8cd6b456e252a7c",
      "content_free_signature": "[class]android.widget.TextView[resource_id]com.haringeymobile.ukweather:id/temperature_text_view"
    },
    {
      "package": "com.haringeymobile.ukweather",
      "visible": true,
      "checkable": false,
      "child_count": 0,
      "editable": false,
      "clickable": false,
      "is_password": false,
      "focusable": false,
      "enabled": true,
      "content_description": null,
      "children": [],
      "focused": false,
      "bounds": [
        [
          413,
          592
        ],
        [
          1020,
          783
        ]
      ],
      "resource_id": "com.haringeymobile.ukweather:id/city_extra_info_text_view",
      "checked": false,
      "text": "Sat, Dec 7, 2019\n9:00 AM\nRio de Janeiro",
      "class": "android.widget.TextView",
      "scrollable": false,
      "selected": false,
      "long_clickable": false,
      "parent": 53,
      "temp_id": 55,
      "size": "607*191",
      "signature": "[class]android.widget.TextView[resource_id]com.haringeymobile.ukweather:id/city_extra_info_text_view[text]Sat, Dec 7, 2019\n9:00 AM\nRio de Janeiro[enabled,,]",
      "view_str": "92e7277f793c5ba0fa0790deea2963aa",
      "content_free_signature": "[class]android.widget.TextView[resource_id]com.haringeymobile.ukweather:id/city_extra_info_text_view"
    },
    {
      "package": "com.haringeymobile.ukweather",
      "visible": true,
      "checkable": false,
      "child_count": 2,
      "editable": false,
      "clickable": false,
      "is_password": false,
      "focusable": false,
      "enabled": true,
      "content_description": null,
      "children": [
        57,
        58
      ],
      "focused": false,
      "bounds": [
        [
          45,
          798
        ],
        [
          1035,
          943
        ]
      ],
      "resource_id": null,
      "checked": false,
      "text": null,
      "class": "android.widget.LinearLayout",
      "scrollable": false,
      "selected": false,
      "long_clickable": false,
      "parent": 52,
      "temp_id": 56,
      "size": "990*145",
      "signature": "[class]android.widget.LinearLayout[resource_id]None[text]None[enabled,,]",
      "view_str": "02013ec3d6da6aec3d7327a1bb24dd9f",
      "content_free_signature": "[class]android.widget.LinearLayout[resource_id]None"
    },
    {
      "package": "com.haringeymobile.ukweather",
      "visible": true,
      "checkable": false,
      "child_count": 0,
      "editable": false,
      "clickable": false,
      "is_password": false,
      "focusable": false,
      "enabled": true,
      "content_description": null,
      "children": [],
      "focused": false,
      "bounds": [
        [
          45,
          798
        ],
        [
          540,
          943
        ]
      ],
      "resource_id": "com.haringeymobile.ukweather:id/night_morning_evening_title",
      "checked": false,
      "text": "Night:\nMorning:\nEvening:",
      "class": "android.widget.TextView",
      "scrollable": false,
      "selected": false,
      "long_clickable": false,
      "parent": 56,
      "temp_id": 57,
      "size": "495*145",
      "signature": "[class]android.widget.TextView[resource_id]com.haringeymobile.ukweather:id/night_morning_evening_title[text]Night:\nMorning:\nEvening:[enabled,,]",
      "view_str": "ac9a60f4e138613470d20b2c2b8d59bb",
      "content_free_signature": "[class]android.widget.TextView[resource_id]com.haringeymobile.ukweather:id/night_morning_evening_title"
    },
    {
      "package": "com.haringeymobile.ukweather",
      "visible": true,
      "checkable": false,
      "child_count": 0,
      "editable": false,
      "clickable": false,
      "is_password": false,
      "focusable": false,
      "enabled": true,
      "content_description": null,
      "children": [],
      "focused": false,
      "bounds": [
        [
          540,
          798
        ],
        [
          1035,
          943
        ]
      ],
      "resource_id": "com.haringeymobile.ukweather:id/night_morning_evening_temperatures_text_view",
      "checked": false,
      "text": "22.1\u2103\n22.2\u2103\n22.1\u2103",
      "class": "android.widget.TextView",
      "scrollable": false,
      "selected": false,
      "long_clickable": false,
      "parent": 56,
      "temp_id": 58,
      "size": "495*145",
      "signature": "[class]android.widget.TextView[resource_id]com.haringeymobile.ukweather:id/night_morning_evening_temperatures_text_view[text]22.1\u2103\n22.2\u2103\n22.1\u2103[enabled,,]",
      "view_str": "6bb9216da0c32fe5ffd65717c0218041",
      "content_free_signature": "[class]android.widget.TextView[resource_id]com.haringeymobile.ukweather:id/night_morning_evening_temperatures_text_view"
    },
    {
      "package": "com.haringeymobile.ukweather",
      "visible": true,
      "checkable": false,
      "child_count": 1,
      "editable": false,
      "clickable": false,
      "is_password": false,
      "focusable": false,
      "enabled": true,
      "content_description": null,
      "children": [
        60
      ],
      "focused": false,
      "bounds": [
        [
          30,
          976
        ],
        [
          1050,
          1144
        ]
      ],
      "resource_id": null,
      "checked": false,
      "text": null,
      "class": "android.widget.FrameLayout",
      "scrollable": false,
      "selected": false,
      "long_clickable": false,
      "parent": 51,
      "temp_id": 59,
      "size": "1020*168",
      "signature": "[class]android.widget.FrameLayout[resource_id]None[text]None[enabled,,]",
      "view_str": "3af2675fa54df145cbdd22b67d1eb686",
      "content_free_signature": "[class]android.widget.FrameLayout[resource_id]None"
    },
    {
      "package": "com.haringeymobile.ukweather",
      "visible": true,
      "checkable": false,
      "child_count": 2,
      "editable": false,
      "clickable": false,
      "is_password": false,
      "focusable": false,
      "enabled": true,
      "content_description": null,
      "children": [
        61,
        62
      ],
      "focused": false,
      "bounds": [
        [
          313,
          991
        ],
        [
          766,
          1129
        ]
      ],
      "resource_id": null,
      "checked": false,
      "text": null,
      "class": "android.widget.LinearLayout",
      "scrollable": false,
      "selected": false,
      "long_clickable": false,
      "parent": 59,
      "temp_id": 60,
      "size": "453*138",
      "signature": "[class]android.widget.LinearLayout[resource_id]None[text]None[enabled,,]",
      "view_str": "ea6aab78b71f1ab4dee7f2fe47533f30",
      "content_free_signature": "[class]android.widget.LinearLayout[resource_id]None"
    },
    {
      "package": "com.haringeymobile.ukweather",
      "visible": true,
      "checkable": false,
      "child_count": 0,
      "editable": false,
      "clickable": false,
      "is_password": false,
      "focusable": false,
      "enabled": true,
      "content_description": "Weather",
      "children": [],
      "focused": false,
      "bounds": [
        [
          337,
          1015
        ],
        [
          457,
          1105
        ]
      ],
      "resource_id": "com.haringeymobile.ukweather:id/weather_conditions_image_view",
      "checked": false,
      "text": null,
      "class": "android.widget.ImageView",
      "scrollable": false,
      "selected": false,
      "long_clickable": false,
      "parent": 60,
      "temp_id": 61,
      "size": "120*90",
      "signature": "[class]android.widget.ImageView[resource_id]com.haringeymobile.ukweather:id/weather_conditions_image_view[text]None[enabled,,]",
      "view_str": "9cd523163754c2ad3ddb632cc01ddebf",
      "content_free_signature": "[class]android.widget.ImageView[resource_id]com.haringeymobile.ukweather:id/weather_conditions_image_view"
    },
    {
      "package": "com.haringeymobile.ukweather",
      "visible": true,
      "checkable": false,
      "child_count": 0,
      "editable": false,
      "clickable": false,
      "is_password": false,
      "focusable": false,
      "enabled": true,
      "content_description": null,
      "children": [],
      "focused": false,
      "bounds": [
        [
          481,
          1001
        ],
        [
          766,
          1118
        ]
      ],
      "resource_id": "com.haringeymobile.ukweather:id/weather_conditions_text_view",
      "checked": false,
      "text": "Light rain",
      "class": "android.widget.TextView",
      "scrollable": false,
      "selected": false,
      "long_clickable": false,
      "parent": 60,
      "temp_id": 62,
      "size": "285*117",
      "signature": "[class]android.widget.TextView[resource_id]com.haringeymobile.ukweather:id/weather_conditions_text_view[text]Light rain[enabled,,]",
      "view_str": "a726138a1535122b24c519322861787d",
      "content_free_signature": "[class]android.widget.TextView[resource_id]com.haringeymobile.ukweather:id/weather_conditions_text_view"
    },
    {
      "package": "com.haringeymobile.ukweather",
      "visible": true,
      "checkable": false,
      "child_count": 3,
      "editable": false,
      "clickable": false,
      "is_password": false,
      "focusable": false,
      "enabled": true,
      "content_description": null,
      "children": [
        64,
        65,
        66
      ],
      "focused": false,
      "bounds": [
        [
          30,
          1162
        ],
        [
          1050,
          1607
        ]
      ],
      "resource_id": null,
      "checked": false,
      "text": null,
      "class": "android.widget.LinearLayout",
      "scrollable": false,
      "selected": false,
      "long_clickable": false,
      "parent": 51,
      "temp_id": 63,
      "size": "1020*445",
      "signature": "[class]android.widget.LinearLayout[resource_id]None[text]None[enabled,,]",
      "view_str": "1fcb89b4c40a93ab3d1421953195ae2b",
      "content_free_signature": "[class]android.widget.LinearLayout[resource_id]None"
    },
    {
      "package": "com.haringeymobile.ukweather",
      "visible": true,
      "checkable": false,
      "child_count": 0,
      "editable": false,
      "clickable": false,
      "is_password": false,
      "focusable": false,
      "enabled": true,
      "content_description": null,
      "children": [],
      "focused": false,
      "bounds": [
        [
          54,
          1186
        ],
        [
          1026,
          1271
        ]
      ],
      "resource_id": "com.haringeymobile.ukweather:id/atmospheric_pressure_text_view",
      "checked": false,
      "text": "Pressure: 1012 hPa",
      "class": "android.widget.TextView",
      "scrollable": false,
      "selected": false,
      "long_clickable": false,
      "parent": 63,
      "temp_id": 64,
      "size": "972*85",
      "signature": "[class]android.widget.TextView[resource_id]com.haringeymobile.ukweather:id/atmospheric_pressure_text_view[text]Pressure: 1012 hPa[enabled,,]",
      "view_str": "e1b03a94d8c69f4e71631d90dd7e7480",
      "content_free_signature": "[class]android.widget.TextView[resource_id]com.haringeymobile.ukweather:id/atmospheric_pressure_text_view"
    },
    {
      "package": "com.haringeymobile.ukweather",
      "visible": true,
      "checkable": false,
      "child_count": 0,
      "editable": false,
      "clickable": false,
      "is_password": false,
      "focusable": false,
      "enabled": true,
      "content_description": null,
      "children": [],
      "focused": false,
      "bounds": [
        [
          54,
          1289
        ],
        [
          1026,
          1374
        ]
      ],
      "resource_id": "com.haringeymobile.ukweather:id/humidity_text_view",
      "checked": false,
      "text": "Humidity: 84%",
      "class": "android.widget.TextView",
      "scrollable": false,
      "selected": false,
      "long_clickable": false,
      "parent": 63,
      "temp_id": 65,
      "size": "972*85",
      "signature": "[class]android.widget.TextView[resource_id]com.haringeymobile.ukweather:id/humidity_text_view[text]Humidity: 84%[enabled,,]",
      "view_str": "c5957da971bd3b0612984b3f072a4e47",
      "content_free_signature": "[class]android.widget.TextView[resource_id]com.haringeymobile.ukweather:id/humidity_text_view"
    },
    {
      "package": "com.haringeymobile.ukweather",
      "visible": true,
      "checkable": false,
      "child_count": 2,
      "editable": false,
      "clickable": false,
      "is_password": false,
      "focusable": false,
      "enabled": true,
      "content_description": null,
      "children": [
        67,
        68
      ],
      "focused": false,
      "bounds": [
        [
          45,
          1383
        ],
        [
          636,
          1592
        ]
      ],
      "resource_id": null,
      "checked": false,
      "text": null,
      "class": "android.widget.LinearLayout",
      "scrollable": false,
      "selected": false,
      "long_clickable": false,
      "parent": 63,
      "temp_id": 66,
      "size": "591*209",
      "signature": "[class]android.widget.LinearLayout[resource_id]None[text]None[enabled,,]",
      "view_str": "c1f7a425bea956b3a97ef0ea958a49d2",
      "content_free_signature": "[class]android.widget.LinearLayout[resource_id]None"
    },
    {
      "package": "com.haringeymobile.ukweather",
      "visible": true,
      "checkable": false,
      "child_count": 0,
      "editable": false,
      "clickable": false,
      "is_password": false,
      "focusable": false,
      "enabled": true,
      "content_description": "Wind",
      "children": [],
      "focused": false,
      "bounds": [
        [
          45,
          1383
        ],
        [
          165,
          1592
        ]
      ],
      "resource_id": null,
      "checked": false,
      "text": null,
      "class": "android.widget.ImageView",
      "scrollable": false,
      "selected": false,
      "long_clickable": false,
      "parent": 66,
      "temp_id": 67,
      "size": "120*209",
      "signature": "[class]android.widget.ImageView[resource_id]None[text]None[enabled,,]",
      "view_str": "a37aa99e73561e43de9ec32daef8451f",
      "content_free_signature": "[class]android.widget.ImageView[resource_id]None"
    },
    {
      "package": "com.haringeymobile.ukweather",
      "visible": true,
      "checkable": false,
      "child_count": 0,
      "editable": false,
      "clickable": false,
      "is_password": false,
      "focusable": false,
      "enabled": true,
      "content_description": null,
      "children": [],
      "focused": false,
      "bounds": [
        [
          174,
          1392
        ],
        [
          627,
          1583
        ]
      ],
      "resource_id": "com.haringeymobile.ukweather:id/wind_text_view",
      "checked": false,
      "text": "Wind speed: 4.5 mps\nWind direction: 10\u00b0\n(North)",
      "class": "android.widget.TextView",
      "scrollable": false,
      "selected": false,
      "long_clickable": false,
      "parent": 66,
      "temp_id": 68,
      "size": "453*191",
      "signature": "[class]android.widget.TextView[resource_id]com.haringeymobile.ukweather:id/wind_text_view[text]Wind speed: 4.5 mps\nWind direction: 10\u00b0\n(North)[enabled,,]",
      "view_str": "00fee21291245ae78919302c3ffd7409",
      "content_free_signature": "[class]android.widget.TextView[resource_id]com.haringeymobile.ukweather:id/wind_text_view"
    },
    {
      "package": "com.haringeymobile.ukweather",
      "visible": false,
      "checkable": false,
      "child_count": 0,
      "editable": false,
      "clickable": false,
      "is_password": false,
      "focusable": false,
      "enabled": true,
      "content_description": null,
      "children": [],
      "focused": false,
      "bounds": [
        [
          0,
          0
        ],
        [
          1080,
          72
        ]
      ],
      "resource_id": "android:id/statusBarBackground",
      "checked": false,
      "text": null,
      "class": "android.view.View",
      "scrollable": false,
      "selected": false,
      "long_clickable": false,
      "parent": 0,
      "temp_id": 69,
      "size": "1080*72",
      "signature": "[class]android.view.View[resource_id]android:id/statusBarBackground[text]None[enabled,,]",
      "view_str": "8ca9d2b05dc23a3a766d55732985de29",
      "content_free_signature": "[class]android.view.View[resource_id]android:id/statusBarBackground"
    },
    {
      "package": "com.haringeymobile.ukweather",
      "visible": false,
      "checkable": false,
      "child_count": 0,
      "editable": false,
      "clickable": false,
      "is_password": false,
      "focusable": false,
      "enabled": true,
      "content_description": null,
      "children": [],
      "focused": false,
      "bounds": [
        [
          0,
          1776
        ],
        [
          1080,
          1920
        ]
      ],
      "resource_id": "android:id/navigationBarBackground",
      "checked": false,
      "text": null,
      "class": "android.view.View",
      "scrollable": false,
      "selected": false,
      "long_clickable": false,
      "parent": 0,
      "temp_id": 70,
      "size": "1080*144",
      "signature": "[class]android.view.View[resource_id]android:id/navigationBarBackground[text]None[enabled,,]",
      "view_str": "19bf679965d7461fd9a823b10c601018",
      "content_free_signature": "[class]android.view.View[resource_id]android:id/navigationBarBackground"
    }
  ]
}