{
  "tag": "2019-11-22_001238",
  "state_str": "d2e125150120bba58185cdfd7656304b",
  "state_str_content_free": "ebda9439eb6b374850fa8b5aa011d270",
  "foreground_activity": "com.haringeymobile.ukweather/.weather.WeatherInfoActivity",
  "activity_stack": [
    "com.haringeymobile.ukweather/.weather.WeatherInfoActivity",
    "com.haringeymobile.ukweather/.MainActivity"
  ],
  "background_services": [
    "com.google.android.apps.messaging/com.google.android.ims.service.JibeService",
    "com.google.android.gms/.deviceconnection.service.DeviceConnectionWatcherService",
    "com.google.android.gms/com.google.android.location.places.service.PlaceDetectionAsyncService",
    "com.android.systemui/.keyguard.KeyguardService",
    "com.google.android.gms/.measurement.service.MeasurementBrokerService",
    "com.android.systemui/.ImageWallpaper",
    "com.google.android.gms/com.google.android.location.geocode.GeocodeService",
    "com.google.android.gms/.auth.setup.devicesignals.LockScreenService",
    "com.google.android.gms/.gcm.GcmService",
    "com.google.android.gms/.auth.proximity.firstparty.SystemMemoryCacheService",
    "com.google.android.gms/.chimera.PersistentApiService",
    "com.android.phone/com.android.internal.telephony.CellularNetworkService",
    "com.google.android.gms/.chimera.PersistentBoundBrokerService",
    "com.google.android.gm/org.chromium.content.app.SandboxedProcessService0",
    "com.google.android.ims/.services.WakeLockService",
    "com.google.android.gms/.chimera.GmsApiService",
    "com.google.android.gms/.fido.fido2.pollux.CableAuthenticatorService",
    "com.google.android.googlequicksearchbox/com.google.android.apps.gsa.nowoverlayservice.DrawerOverlayService",
    "io.github.ylimit.droidbotapp/.DroidBotIME",
    "com.google.android.gms/com.google.android.location.fused.FusedLocationService",
    "com.google.android.gms/.gcm.nts.SchedulerService",
    "com.android.vending/com.google.android.finsky.deviceconfig.PhoneskyFirebaseMessagingService",
    "io.github.ylimit.droidbotapp/io.github.privacystreams.accessibility.PSAccessibilityService",
    "com.google.android.gms/com.google.android.location.geofencer.service.GeofenceProviderService",
    "com.google.android.gms/.thunderbird.EmergencyPersistentService",
    "com.google.android.apps.messaging/.fcm.BugleFirebaseInstanceIDService",
    "com.android.systemui/.SystemUIService",
    "android/.hardware.location.GeofenceHardwareService",
    "com.android.se/.SecureElementService",
    "com.google.android.ims/.services.RcsService",
    "com.google.android.gms/.chimera.PersistentDirectBootAwareApiService",
    "com.google.android.ext.services/android.ext.services.notification.Assistant",
    "com.google.android.gms/.location.persistent.LocationPersistentService",
    "com.google.android.gms/com.google.android.location.internal.PendingIntentCallbackService",
    "com.google.android.gms/com.google.android.location.internal.server.GoogleLocationService",
    "com.google.android.gms/com.google.android.contextmanager.service.ContextManagerService",
    "com.google.android.gms/com.google.android.location.network.NetworkLocationService",
    "com.google.android.gms/com.google.android.location.internal.GoogleLocationManagerService",
    "com.google.android.apps.messaging/com.google.firebase.iid.FirebaseInstanceIdService",
    "com.android.phone/com.android.internal.telephony.dataconnection.CellularDataService",
    "com.android.server.telecom/.components.TelecomService",
    "com.google.android.googlequicksearchbox/com.google.android.voiceinteraction.GsaVoiceInteractionService",
    "com.android.smspush/.WapPushManager",
    "com.android.phone/.vvm.RemoteVvmTaskManager",
    "android/com.android.server.content.SyncJobService",
    "com.google.android.gms/.common.stats.GmsCoreStatsService",
    "com.google.android.gms/com.google.android.location.internal.server.HardwareArProviderService",
    "com.android.phone/.TelephonyDebugService",
    "com.google.android.videos/.service.pinning.TransferService",
    "com.google.android.apps.nexuslauncher/com.android.quickstep.TouchInteractionService",
    "com.google.android.ims/.services.NetworkConnectionsService"
  ],
  "views": [
    {
      "package": "com.haringeymobile.ukweather",
      "visible": true,
      "checkable": false,
      "child_count": 3,
      "editable": false,
      "clickable": false,
      "is_password": false,
      "focusable": false,
      "enabled": true,
      "content_description": null,
      "children": [
        1,
        88,
        89
      ],
      "focused": false,
      "bounds": [
        [
          0,
          0
        ],
        [
          1080,
          1920
        ]
      ],
      "resource_id": null,
      "checked": false,
      "text": null,
      "class": "android.widget.FrameLayout",
      "scrollable": false,
      "selected": false,
      "long_clickable": false,
      "parent": -1,
      "temp_id": 0,
      "size": "1080*1920",
      "signature": "[class]android.widget.FrameLayout[resource_id]None[text]None[enabled,,]",
      "view_str": "63412775bdf6aa35cd0cb9d3bdaf8214",
      "content_free_signature": "[class]android.widget.FrameLayout[resource_id]None"
    },
    {
      "package": "com.haringeymobile.ukweather",
      "visible": true,
      "checkable": false,
      "child_count": 1,
      "editable": false,
      "clickable": false,
      "is_password": false,
      "focusable": false,
      "enabled": true,
      "content_description": null,
      "children": [
        2
      ],
      "focused": false,
      "bounds": [
        [
          0,
          0
        ],
        [
          1080,
          1776
        ]
      ],
      "resource_id": null,
      "checked": false,
      "text": null,
      "class": "android.widget.LinearLayout",
      "scrollable": false,
      "selected": false,
      "long_clickable": false,
      "parent": 0,
      "temp_id": 1,
      "size": "1080*1776",
      "signature": "[class]android.widget.LinearLayout[resource_id]None[text]None[enabled,,]",
      "view_str": "24ceccbc04db2dbc3a6d51098d3cde76",
      "content_free_signature": "[class]android.widget.LinearLayout[resource_id]None"
    },
    {
      "package": "com.haringeymobile.ukweather",
      "visible": true,
      "checkable": false,
      "child_count": 1,
      "editable": false,
      "clickable": false,
      "is_password": false,
      "focusable": false,
      "enabled": true,
      "content_description": null,
      "children": [
        3
      ],
      "focused": false,
      "bounds": [
        [
          0,
          72
        ],
        [
          1080,
          1776
        ]
      ],
      "resource_id": null,
      "checked": false,
      "text": null,
      "class": "android.widget.FrameLayout",
      "scrollable": false,
      "selected": false,
      "long_clickable": false,
      "parent": 1,
      "temp_id": 2,
      "size": "1080*1704",
      "signature": "[class]android.widget.FrameLayout[resource_id]None[text]None[enabled,,]",
      "view_str": "4000f3f1de5142d5357313e95fff386e",
      "content_free_signature": "[class]android.widget.FrameLayout[resource_id]None"
    },
    {
      "package": "com.haringeymobile.ukweather",
      "visible": true,
      "checkable": false,
      "child_count": 1,
      "editable": false,
      "clickable": false,
      "is_password": false,
      "focusable": false,
      "enabled": true,
      "content_description": null,
      "children": [
        4
      ],
      "focused": false,
      "bounds": [
        [
          0,
          72
        ],
        [
          1080,
          1776
        ]
      ],
      "resource_id": "com.haringeymobile.ukweather:id/action_bar_root",
      "checked": false,
      "text": null,
      "class": "android.widget.LinearLayout",
      "scrollable": false,
      "selected": false,
      "long_clickable": false,
      "parent": 2,
      "temp_id": 3,
      "size": "1080*1704",
      "signature": "[class]android.widget.LinearLayout[resource_id]com.haringeymobile.ukweather:id/action_bar_root[text]None[enabled,,]",
      "view_str": "388c68314fb819565881e95ba808538e",
      "content_free_signature": "[class]android.widget.LinearLayout[resource_id]com.haringeymobile.ukweather:id/action_bar_root"
    },
    {
      "package": "com.haringeymobile.ukweather",
      "visible": true,
      "checkable": false,
      "child_count": 1,
      "editable": false,
      "clickable": false,
      "is_password": false,
      "focusable": false,
      "enabled": true,
      "content_description": null,
      "children": [
        5
      ],
      "focused": false,
      "bounds": [
        [
          0,
          72
        ],
        [
          1080,
          1776
        ]
      ],
      "resource_id": "android:id/content",
      "checked": false,
      "text": null,
      "class": "android.widget.FrameLayout",
      "scrollable": false,
      "selected": false,
      "long_clickable": false,
      "parent": 3,
      "temp_id": 4,
      "size": "1080*1704",
      "signature": "[class]android.widget.FrameLayout[resource_id]android:id/content[text]None[enabled,,]",
      "view_str": "88c06f88f39a762e4fd83f4b2d5eb901",
      "content_free_signature": "[class]android.widget.FrameLayout[resource_id]android:id/content"
    },
    {
      "package": "com.haringeymobile.ukweather",
      "visible": true,
      "checkable": false,
      "child_count": 2,
      "editable": false,
      "clickable": false,
      "is_password": false,
      "focusable": false,
      "enabled": true,
      "content_description": null,
      "children": [
        6,
        10
      ],
      "focused": false,
      "bounds": [
        [
          0,
          72
        ],
        [
          1080,
          1776
        ]
      ],
      "resource_id": null,
      "checked": false,
      "text": null,
      "class": "android.widget.LinearLayout",
      "scrollable": false,
      "selected": false,
      "long_clickable": false,
      "parent": 4,
      "temp_id": 5,
      "size": "1080*1704",
      "signature": "[class]android.widget.LinearLayout[resource_id]None[text]None[enabled,,]",
      "view_str": "098877fe1535c24e9c38a48a38660994",
      "content_free_signature": "[class]android.widget.LinearLayout[resource_id]None"
    },
    {
      "package": "com.haringeymobile.ukweather",
      "visible": true,
      "checkable": false,
      "child_count": 3,
      "editable": false,
      "clickable": false,
      "is_password": false,
      "focusable": false,
      "enabled": true,
      "content_description": null,
      "children": [
        7,
        8,
        9
      ],
      "focused": false,
      "bounds": [
        [
          0,
          72
        ],
        [
          1080,
          240
        ]
      ],
      "resource_id": "com.haringeymobile.ukweather:id/general_toolbar",
      "checked": false,
      "text": null,
      "class": "android.view.ViewGroup",
      "scrollable": false,
      "selected": false,
      "long_clickable": false,
      "parent": 5,
      "temp_id": 6,
      "size": "1080*168",
      "signature": "[class]android.view.ViewGroup[resource_id]com.haringeymobile.ukweather:id/general_toolbar[text]None[enabled,,]",
      "view_str": "e6000479199902d60ef82170e9e6695e",
      "content_free_signature": "[class]android.view.ViewGroup[resource_id]com.haringeymobile.ukweather:id/general_toolbar"
    },
    {
      "package": "com.haringeymobile.ukweather",
      "visible": true,
      "checkable": false,
      "child_count": 0,
      "editable": false,
      "clickable": true,
      "is_password": false,
      "focusable": true,
      "enabled": true,
      "content_description": "Navigate up",
      "children": [],
      "focused": false,
      "bounds": [
        [
          0,
          72
        ],
        [
          168,
          240
        ]
      ],
      "resource_id": null,
      "checked": false,
      "text": null,
      "class": "android.widget.ImageButton",
      "scrollable": false,
      "selected": false,
      "long_clickable": false,
      "parent": 6,
      "temp_id": 7,
      "size": "168*168",
      "signature": "[class]android.widget.ImageButton[resource_id]None[text]None[enabled,,]",
      "view_str": "2387d08b008d1c6827ba38f0579664f4",
      "content_free_signature": "[class]android.widget.ImageButton[resource_id]None"
    },
    {
      "package": "com.haringeymobile.ukweather",
      "visible": true,
      "checkable": false,
      "child_count": 0,
      "editable": false,
      "clickable": false,
      "is_password": false,
      "focusable": false,
      "enabled": true,
      "content_description": null,
      "children": [],
      "focused": false,
      "bounds": [
        [
          216,
          115
        ],
        [
          770,
          196
        ]
      ],
      "resource_id": null,
      "checked": false,
      "text": "16 day daily forecast",
      "class": "android.widget.TextView",
      "scrollable": false,
      "selected": false,
      "long_clickable": false,
      "parent": 6,
      "temp_id": 8,
      "size": "554*81",
      "signature": "[class]android.widget.TextView[resource_id]None[text]16 day daily forecast[enabled,,]",
      "view_str": "52774404d195893652e7d79d20a2724b",
      "content_free_signature": "[class]android.widget.TextView[resource_id]None"
    },
    {
      "package": "com.haringeymobile.ukweather",
      "visible": false,
      "checkable": false,
      "child_count": 0,
      "editable": false,
      "clickable": false,
      "is_password": false,
      "focusable": false,
      "enabled": true,
      "content_description": null,
      "children": [],
      "focused": false,
      "bounds": [
        [
          1080,
          72
        ],
        [
          1080,
          240
        ]
      ],
      "resource_id": null,
      "checked": false,
      "text": null,
      "class": "android.support.v7.widget.am",
      "scrollable": false,
      "selected": false,
      "long_clickable": false,
      "parent": 6,
      "temp_id": 9,
      "size": "0*168",
      "signature": "[class]android.support.v7.widget.am[resource_id]None[text]None[enabled,,]",
      "view_str": "9e45c8b5180b0390887dd6105a1ee9b1",
      "content_free_signature": "[class]android.support.v7.widget.am[resource_id]None"
    },
    {
      "package": "com.haringeymobile.ukweather",
      "visible": true,
      "checkable": false,
      "child_count": 1,
      "editable": false,
      "clickable": false,
      "is_password": false,
      "focusable": false,
      "enabled": true,
      "content_description": null,
      "children": [
        11
      ],
      "focused": false,
      "bounds": [
        [
          0,
          249
        ],
        [
          1080,
          1776
        ]
      ],
      "resource_id": "com.haringeymobile.ukweather:id/weather_info_container",
      "checked": false,
      "text": null,
      "class": "android.widget.FrameLayout",
      "scrollable": false,
      "selected": false,
      "long_clickable": false,
      "parent": 5,
      "temp_id": 10,
      "size": "1080*1527",
      "signature": "[class]android.widget.FrameLayout[resource_id]com.haringeymobile.ukweather:id/weather_info_container[text]None[enabled,,]",
      "view_str": "1ff22819790fb7a9d44949a9b72dc6fb",
      "content_free_signature": "[class]android.widget.FrameLayout[resource_id]com.haringeymobile.ukweather:id/weather_info_container"
    },
    {
      "package": "com.haringeymobile.ukweather",
      "visible": true,
      "checkable": false,
      "child_count": 2,
      "editable": false,
      "clickable": false,
      "is_password": false,
      "focusable": false,
      "enabled": true,
      "content_description": null,
      "children": [
        12,
        30
      ],
      "focused": false,
      "bounds": [
        [
          0,
          249
        ],
        [
          1080,
          1776
        ]
      ],
      "resource_id": null,
      "checked": false,
      "text": null,
      "class": "android.widget.RelativeLayout",
      "scrollable": false,
      "selected": false,
      "long_clickable": false,
      "parent": 10,
      "temp_id": 11,
      "size": "1080*1527",
      "signature": "[class]android.widget.RelativeLayout[resource_id]None[text]None[enabled,,]",
      "view_str": "c4d83d0cc6b2cf3f866e00f1aee2aee4",
      "content_free_signature": "[class]android.widget.RelativeLayout[resource_id]None"
    },
    {
      "package": "com.haringeymobile.ukweather",
      "visible": true,
      "checkable": false,
      "child_count": 1,
      "editable": false,
      "clickable": false,
      "is_password": false,
      "focusable": true,
      "enabled": true,
      "content_description": null,
      "children": [
        13
      ],
      "focused": false,
      "bounds": [
        [
          15,
          258
        ],
        [
          1065,
          402
        ]
      ],
      "resource_id": "com.haringeymobile.ukweather:id/tabs",
      "checked": false,
      "text": null,
      "class": "android.widget.HorizontalScrollView",
      "scrollable": true,
      "selected": false,
      "long_clickable": false,
      "parent": 11,
      "temp_id": 12,
      "size": "1050*144",
      "signature": "[class]android.widget.HorizontalScrollView[resource_id]com.haringeymobile.ukweather:id/tabs[text]None[enabled,,]",
      "view_str": "315467763511e63eb990bcacb5ec03f1",
      "content_free_signature": "[class]android.widget.HorizontalScrollView[resource_id]com.haringeymobile.ukweather:id/tabs"
    },
    {
      "package": "com.haringeymobile.ukweather",
      "visible": true,
      "checkable": false,
      "child_count": 16,
      "editable": false,
      "clickable": false,
      "is_password": false,
      "focusable": false,
      "enabled": true,
      "content_description": null,
      "children": [
        14,
        15,
        16,
        17,
        18,
        19,
        20,
        21,
        22,
        23,
        24,
        25,
        26,
        27,
        28,
        29
      ],
      "focused": false,
      "bounds": [
        [
          15,
          258
        ],
        [
          1065,
          402
        ]
      ],
      "resource_id": null,
      "checked": false,
      "text": null,
      "class": "android.widget.LinearLayout",
      "scrollable": false,
      "selected": false,
      "long_clickable": false,
      "parent": 12,
      "temp_id": 13,
      "size": "1050*144",
      "signature": "[class]android.widget.LinearLayout[resource_id]None[text]None[enabled,,]",
      "view_str": "256271715a4abc8bd3caec7b43d5521d",
      "content_free_signature": "[class]android.widget.LinearLayout[resource_id]None"
    },
    {
      "package": "com.haringeymobile.ukweather",
      "visible": false,
      "checkable": false,
      "child_count": 0,
      "editable": false,
      "clickable": true,
      "is_password": false,
      "focusable": true,
      "enabled": true,
      "content_description": null,
      "children": [],
      "focused": false,
      "bounds": [
        [
          15,
          258
        ],
        [
          -2831,
          402
        ]
      ],
      "resource_id": null,
      "checked": false,
      "text": "Thu  Nov 21",
      "class": "android.widget.TextView",
      "scrollable": false,
      "selected": false,
      "long_clickable": false,
      "parent": 13,
      "temp_id": 14,
      "size": "-2846*144",
      "signature": "[class]android.widget.TextView[resource_id]None[text]Thu  Nov 21[enabled,,]",
      "view_str": "1fb97477c22e6d30f24852967244a620",
      "content_free_signature": "[class]android.widget.TextView[resource_id]None"
    },
    {
      "package": "com.haringeymobile.ukweather",
      "visible": false,
      "checkable": false,
      "child_count": 0,
      "editable": false,
      "clickable": true,
      "is_password": false,
      "focusable": true,
      "enabled": true,
      "content_description": null,
      "children": [],
      "focused": false,
      "bounds": [
        [
          15,
          258
        ],
        [
          -2512,
          402
        ]
      ],
      "resource_id": null,
      "checked": false,
      "text": "Fri  Nov 22",
      "class": "android.widget.TextView",
      "scrollable": false,
      "selected": false,
      "long_clickable": false,
      "parent": 13,
      "temp_id": 15,
      "size": "-2527*144",
      "signature": "[class]android.widget.TextView[resource_id]None[text]Fri  Nov 22[enabled,,]",
      "view_str": "8216bd9ac79b58e1c260375771068506",
      "content_free_signature": "[class]android.widget.TextView[resource_id]None"
    },
    {
      "package": "com.haringeymobile.ukweather",
      "visible": false,
      "checkable": false,
      "child_count": 0,
      "editable": false,
      "clickable": true,
      "is_password": false,
      "focusable": true,
      "enabled": true,
      "content_description": null,
      "children": [],
      "focused": false,
      "bounds": [
        [
          15,
          258
        ],
        [
          -2183,
          402
        ]
      ],
      "resource_id": null,
      "checked": false,
      "text": "Sat  Nov 23",
      "class": "android.widget.TextView",
      "scrollable": false,
      "selected": false,
      "long_clickable": false,
      "parent": 13,
      "temp_id": 16,
      "size": "-2198*144",
      "signature": "[class]android.widget.TextView[resource_id]None[text]Sat  Nov 23[enabled,,]",
      "view_str": "c60a4d1ecedee0c50e3667db5f0515fb",
      "content_free_signature": "[class]android.widget.TextView[resource_id]None"
    },
    {
      "package": "com.haringeymobile.ukweather",
      "visible": false,
      "checkable": false,
      "child_count": 0,
      "editable": false,
      "clickable": true,
      "is_password": false,
      "focusable": true,
      "enabled": true,
      "content_description": null,
      "children": [],
      "focused": false,
      "bounds": [
        [
          15,
          258
        ],
        [
          -1845,
          402
        ]
      ],
      "resource_id": null,
      "checked": false,
      "text": "Sun  Nov 24",
      "class": "android.widget.TextView",
      "scrollable": false,
      "selected": false,
      "long_clickable": false,
      "parent": 13,
      "temp_id": 17,
      "size": "-1860*144",
      "signature": "[class]android.widget.TextView[resource_id]None[text]Sun  Nov 24[enabled,,]",
      "view_str": "7a1141c28656ebc5d5c27e6a1d5eb7de",
      "content_free_signature": "[class]android.widget.TextView[resource_id]None"
    },
    {
      "package": "com.haringeymobile.ukweather",
      "visible": false,
      "checkable": false,
      "child_count": 0,
      "editable": false,
      "clickable": true,
      "is_password": false,
      "focusable": true,
      "enabled": true,
      "content_description": null,
      "children": [],
      "focused": false,
      "bounds": [
        [
          15,
          258
        ],
        [
          -1497,
          402
        ]
      ],
      "resource_id": null,
      "checked": false,
      "text": "Mon  Nov 25",
      "class": "android.widget.TextView",
      "scrollable": false,
      "selected": false,
      "long_clickable": false,
      "parent": 13,
      "temp_id": 18,
      "size": "-1512*144",
      "signature": "[class]android.widget.TextView[resource_id]None[text]Mon  Nov 25[enabled,,]",
      "view_str": "c19c21f696067815f075ff0220323cbe",
      "content_free_signature": "[class]android.widget.TextView[resource_id]None"
    },
    {
      "package": "com.haringeymobile.ukweather",
      "visible": false,
      "checkable": false,
      "child_count": 0,
      "editable": false,
      "clickable": true,
      "is_password": false,
      "focusable": true,
      "enabled": true,
      "content_description": null,
      "children": [],
      "focused": false,
      "bounds": [
        [
          15,
          258
        ],
        [
          -1161,
          402
        ]
      ],
      "resource_id": null,
      "checked": false,
      "text": "Tue  Nov 26",
      "class": "android.widget.TextView",
      "scrollable": false,
      "selected": false,
      "long_clickable": false,
      "parent": 13,
      "temp_id": 19,
      "size": "-1176*144",
      "signature": "[class]android.widget.TextView[resource_id]None[text]Tue  Nov 26[enabled,,]",
      "view_str": "f84813f8d1e4069175d9c5935576762e",
      "content_free_signature": "[class]android.widget.TextView[resource_id]None"
    },
    {
      "package": "com.haringeymobile.ukweather",
      "visible": false,
      "checkable": false,
      "child_count": 0,
      "editable": false,
      "clickable": true,
      "is_password": false,
      "focusable": true,
      "enabled": true,
      "content_description": null,
      "children": [],
      "focused": false,
      "bounds": [
        [
          15,
          258
        ],
        [
          -815,
          402
        ]
      ],
      "resource_id": null,
      "checked": false,
      "text": "Wed  Nov 27",
      "class": "android.widget.TextView",
      "scrollable": false,
      "selected": false,
      "long_clickable": false,
      "parent": 13,
      "temp_id": 20,
      "size": "-830*144",
      "signature": "[class]android.widget.TextView[resource_id]None[text]Wed  Nov 27[enabled,,]",
      "view_str": "66e8c5477acd7f763b3f46e85b18473a",
      "content_free_signature": "[class]android.widget.TextView[resource_id]None"
    },
    {
      "package": "com.haringeymobile.ukweather",
      "visible": false,
      "checkable": false,
      "child_count": 0,
      "editable": false,
      "clickable": true,
      "is_password": false,
      "focusable": true,
      "enabled": true,
      "content_description": null,
      "children": [],
      "focused": false,
      "bounds": [
        [
          15,
          258
        ],
        [
          -477,
          402
        ]
      ],
      "resource_id": null,
      "checked": false,
      "text": "Thu  Nov 28",
      "class": "android.widget.TextView",
      "scrollable": false,
      "selected": false,
      "long_clickable": false,
      "parent": 13,
      "temp_id": 21,
      "size": "-492*144",
      "signature": "[class]android.widget.TextView[resource_id]None[text]Thu  Nov 28[enabled,,]",
      "view_str": "441ee44daacc36cf4e8ed2f861c957c0",
      "content_free_signature": "[class]android.widget.TextView[resource_id]None"
    },
    {
      "package": "com.haringeymobile.ukweather",
      "visible": false,
      "checkable": false,
      "child_count": 0,
      "editable": false,
      "clickable": true,
      "is_password": false,
      "focusable": true,
      "enabled": true,
      "content_description": null,
      "children": [],
      "focused": false,
      "bounds": [
        [
          15,
          258
        ],
        [
          -158,
          402
        ]
      ],
      "resource_id": null,
      "checked": false,
      "text": "Fri  Nov 29",
      "class": "android.widget.TextView",
      "scrollable": false,
      "selected": false,
      "long_clickable": false,
      "parent": 13,
      "temp_id": 22,
      "size": "-173*144",
      "signature": "[class]android.widget.TextView[resource_id]None[text]Fri  Nov 29[enabled,,]",
      "view_str": "d945e9a03490921f0ffd3e76f2949f68",
      "content_free_signature": "[class]android.widget.TextView[resource_id]None"
    },
    {
      "package": "com.haringeymobile.ukweather",
      "visible": true,
      "checkable": false,
      "child_count": 0,
      "editable": false,
      "clickable": true,
      "is_password": false,
      "focusable": true,
      "enabled": true,
      "content_description": null,
      "children": [],
      "focused": false,
      "bounds": [
        [
          15,
          258
        ],
        [
          171,
          402
        ]
      ],
      "resource_id": null,
      "checked": false,
      "text": "Sat  Nov 30",
      "class": "android.widget.TextView",
      "scrollable": false,
      "selected": false,
      "long_clickable": false,
      "parent": 13,
      "temp_id": 23,
      "size": "156*144",
      "signature": "[class]android.widget.TextView[resource_id]None[text]Sat  Nov 30[enabled,,]",
      "view_str": "f331414d94a3b0442502681238bb536c",
      "content_free_signature": "[class]android.widget.TextView[resource_id]None"
    },
    {
      "package": "com.haringeymobile.ukweather",
      "visible": true,
      "checkable": false,
      "child_count": 0,
      "editable": false,
      "clickable": true,
      "is_password": false,
      "focusable": true,
      "enabled": true,
      "content_description": null,
      "children": [],
      "focused": false,
      "bounds": [
        [
          171,
          258
        ],
        [
          507,
          402
        ]
      ],
      "resource_id": null,
      "checked": false,
      "text": "Sun  Dec 01",
      "class": "android.widget.TextView",
      "scrollable": false,
      "selected": false,
      "long_clickable": false,
      "parent": 13,
      "temp_id": 24,
      "size": "336*144",
      "signature": "[class]android.widget.TextView[resource_id]None[text]Sun  Dec 01[enabled,,]",
      "view_str": "27a7e8d16eb5d93a91a19dc0e51b0953",
      "content_free_signature": "[class]android.widget.TextView[resource_id]None"
    },
    {
      "package": "com.haringeymobile.ukweather",
      "visible": true,
      "checkable": false,
      "child_count": 0,
      "editable": false,
      "clickable": true,
      "is_password": false,
      "focusable": true,
      "enabled": true,
      "content_description": null,
      "children": [],
      "focused": false,
      "bounds": [
        [
          507,
          258
        ],
        [
          853,
          402
        ]
      ],
      "resource_id": null,
      "checked": false,
      "text": "Mon  Dec 02",
      "class": "android.widget.TextView",
      "scrollable": false,
      "selected": false,
      "long_clickable": false,
      "parent": 13,
      "temp_id": 25,
      "size": "346*144",
      "signature": "[class]android.widget.TextView[resource_id]None[text]Mon  Dec 02[enabled,,]",
      "view_str": "10da243e27130f4cd9e832e37675233f",
      "content_free_signature": "[class]android.widget.TextView[resource_id]None"
    },
    {
      "package": "com.haringeymobile.ukweather",
      "visible": true,
      "checkable": false,
      "child_count": 0,
      "editable": false,
      "clickable": true,
      "is_password": false,
      "focusable": true,
      "enabled": true,
      "content_description": null,
      "children": [],
      "focused": false,
      "bounds": [
        [
          853,
          258
        ],
        [
          1065,
          402
        ]
      ],
      "resource_id": null,
      "checked": false,
      "text": "Tue  Dec 03",
      "class": "android.widget.TextView",
      "scrollable": false,
      "selected": false,
      "long_clickable": false,
      "parent": 13,
      "temp_id": 26,
      "size": "212*144",
      "signature": "[class]android.widget.TextView[resource_id]None[text]Tue  Dec 03[enabled,,]",
      "view_str": "68ac9e09ed5f14f3750eaa6f7f197b57",
      "content_free_signature": "[class]android.widget.TextView[resource_id]None"
    },
    {
      "package": "com.haringeymobile.ukweather",
      "visible": false,
      "checkable": false,
      "child_count": 0,
      "editable": false,
      "clickable": true,
      "is_password": false,
      "focusable": true,
      "enabled": true,
      "content_description": null,
      "children": [],
      "focused": false,
      "bounds": [
        [
          1187,
          258
        ],
        [
          1065,
          402
        ]
      ],
      "resource_id": null,
      "checked": false,
      "text": "Wed  Dec 04",
      "class": "android.widget.TextView",
      "scrollable": false,
      "selected": false,
      "long_clickable": false,
      "parent": 13,
      "temp_id": 27,
      "size": "-122*144",
      "signature": "[class]android.widget.TextView[resource_id]None[text]Wed  Dec 04[enabled,,]",
      "view_str": "d11192508337be531e8e4ebf5f1de6b1",
      "content_free_signature": "[class]android.widget.TextView[resource_id]None"
    },
    {
      "package": "com.haringeymobile.ukweather",
      "visible": false,
      "checkable": false,
      "child_count": 0,
      "editable": false,
      "clickable": true,
      "is_password": false,
      "focusable": true,
      "enabled": true,
      "content_description": null,
      "children": [],
      "focused": false,
      "bounds": [
        [
          1531,
          258
        ],
        [
          1065,
          402
        ]
      ],
      "resource_id": null,
      "checked": false,
      "text": "Thu  Dec 05",
      "class": "android.widget.TextView",
      "scrollable": false,
      "selected": false,
      "long_clickable": false,
      "parent": 13,
      "temp_id": 28,
      "size": "-466*144",
      "signature": "[class]android.widget.TextView[resource_id]None[text]Thu  Dec 05[enabled,,]",
      "view_str": "2032e42f01618c43621bde5ee20ed33e",
      "content_free_signature": "[class]android.widget.TextView[resource_id]None"
    },
    {
      "package": "com.haringeymobile.ukweather",
      "visible": false,
      "checkable": false,
      "child_count": 0,
      "editable": false,
      "clickable": true,
      "is_password": false,
      "focusable": true,
      "enabled": true,
      "content_description": null,
      "children": [],
      "focused": false,
      "bounds": [
        [
          1867,
          258
        ],
        [
          1065,
          402
        ]
      ],
      "resource_id": null,
      "checked": false,
      "text": "Fri  Dec 06",
      "class": "android.widget.TextView",
      "scrollable": false,
      "selected": false,
      "long_clickable": false,
      "parent": 13,
      "temp_id": 29,
      "size": "-802*144",
      "signature": "[class]android.widget.TextView[resource_id]None[text]Fri  Dec 06[enabled,,]",
      "view_str": "7f774b5b872df6157d25c7e6901cafc8",
      "content_free_signature": "[class]android.widget.TextView[resource_id]None"
    },
    {
      "package": "com.haringeymobile.ukweather",
      "visible": true,
      "checkable": false,
      "child_count": 3,
      "editable": false,
      "clickable": false,
      "is_password": false,
      "focusable": true,
      "enabled": true,
      "content_description": null,
      "children": [
        31,
        50,
        69
      ],
      "focused": false,
      "bounds": [
        [
          15,
          402
        ],
        [
          1065,
          1767
        ]
      ],
      "resource_id": "com.haringeymobile.ukweather:id/pager",
      "checked": false,
      "text": null,
      "class": "android.support.v4.view.ViewPager",
      "scrollable": true,
      "selected": false,
      "long_clickable": false,
      "parent": 11,
      "temp_id": 30,
      "size": "1050*1365",
      "signature": "[class]android.support.v4.view.ViewPager[resource_id]com.haringeymobile.ukweather:id/pager[text]None[enabled,,]",
      "view_str": "197fb37e0b89357c19cbacb622069f42",
      "content_free_signature": "[class]android.support.v4.view.ViewPager[resource_id]com.haringeymobile.ukweather:id/pager"
    },
    {
      "package": "com.haringeymobile.ukweather",
      "visible": false,
      "checkable": false,
      "child_count": 1,
      "editable": false,
      "clickable": false,
      "is_password": false,
      "focusable": true,
      "enabled": true,
      "content_description": null,
      "children": [
        32
      ],
      "focused": false,
      "bounds": [
        [
          15,
          402
        ],
        [
          15,
          1767
        ]
      ],
      "resource_id": null,
      "checked": false,
      "text": null,
      "class": "android.widget.ScrollView",
      "scrollable": false,
      "selected": false,
      "long_clickable": false,
      "parent": 30,
      "temp_id": 31,
      "size": "0*1365",
      "signature": "[class]android.widget.ScrollView[resource_id]None[text]None[enabled,,]",
      "view_str": "966a252bf5a27f34463e447e57e7c866",
      "content_free_signature": "[class]android.widget.ScrollView[resource_id]None"
    },
    {
      "package": "com.haringeymobile.ukweather",
      "visible": false,
      "checkable": false,
      "child_count": 3,
      "editable": false,
      "clickable": false,
      "is_password": false,
      "focusable": false,
      "enabled": true,
      "content_description": null,
      "children": [
        33,
        40,
        44
      ],
      "focused": false,
      "bounds": [
        [
          15,
          411
        ],
        [
          0,
          1758
        ]
      ],
      "resource_id": null,
      "checked": false,
      "text": null,
      "class": "android.widget.LinearLayout",
      "scrollable": false,
      "selected": false,
      "long_clickable": false,
      "parent": 31,
      "temp_id": 32,
      "size": "-15*1347",
      "signature": "[class]android.widget.LinearLayout[resource_id]None[text]None[enabled,,]",
      "view_str": "6c682e5c046f05251eebafdcc26fa6cb",
      "content_free_signature": "[class]android.widget.LinearLayout[resource_id]None"
    },
    {
      "package": "com.haringeymobile.ukweather",
      "visible": false,
      "checkable": false,
      "child_count": 2,
      "editable": false,
      "clickable": false,
      "is_password": false,
      "focusable": false,
      "enabled": true,
      "content_description": null,
      "children": [
        34,
        37
      ],
      "focused": false,
      "bounds": [
        [
          15,
          562
        ],
        [
          0,
          958
        ]
      ],
      "resource_id": null,
      "checked": false,
      "text": null,
      "class": "android.widget.LinearLayout",
      "scrollable": false,
      "selected": false,
      "long_clickable": false,
      "parent": 32,
      "temp_id": 33,
      "size": "-15*396",
      "signature": "[class]android.widget.LinearLayout[resource_id]None[text]None[enabled,,]",
      "view_str": "e8eaf8986b0544d0bf61ab45441c742f",
      "content_free_signature": "[class]android.widget.LinearLayout[resource_id]None"
    },
    {
      "package": "com.haringeymobile.ukweather",
      "visible": false,
      "checkable": false,
      "child_count": 2,
      "editable": false,
      "clickable": false,
      "is_password": false,
      "focusable": false,
      "enabled": true,
      "content_description": null,
      "children": [
        35,
        36
      ],
      "focused": false,
      "bounds": [
        [
          15,
          577
        ],
        [
          -15,
          798
        ]
      ],
      "resource_id": null,
      "checked": false,
      "text": null,
      "class": "android.widget.LinearLayout",
      "scrollable": false,
      "selected": false,
      "long_clickable": false,
      "parent": 33,
      "temp_id": 34,
      "size": "-30*221",
      "signature": "[class]android.widget.LinearLayout[resource_id]None[text]None[enabled,,]",
      "view_str": "85ec7c6110ff3f0b4eee059341affb72",
      "content_free_signature": "[class]android.widget.LinearLayout[resource_id]None"
    },
    {
      "package": "com.haringeymobile.ukweather",
      "visible": false,
      "checkable": false,
      "child_count": 0,
      "editable": false,
      "clickable": false,
      "is_password": false,
      "focusable": false,
      "enabled": true,
      "content_description": null,
      "children": [],
      "focused": false,
      "bounds": [
        [
          15,
          617
        ],
        [
          -637,
          758
        ]
      ],
      "resource_id": "com.haringeymobile.ukweather:id/temperature_text_view",
      "checked": false,
      "text": "22.2\u2103",
      "class": "android.widget.TextView",
      "scrollable": false,
      "selected": false,
      "long_clickable": false,
      "parent": 34,
      "temp_id": 35,
      "size": "-652*141",
      "signature": "[class]android.widget.TextView[resource_id]com.haringeymobile.ukweather:id/temperature_text_view[text]22.2\u2103[enabled,,]",
      "view_str": "1ca9edb865ce8408e8cd6b456e252a7c",
      "content_free_signature": "[class]android.widget.TextView[resource_id]com.haringeymobile.ukweather:id/temperature_text_view"
    },
    {
      "package": "com.haringeymobile.ukweather",
      "visible": false,
      "checkable": false,
      "child_count": 0,
      "editable": false,
      "clickable": false,
      "is_password": false,
      "focusable": false,
      "enabled": true,
      "content_description": null,
      "children": [],
      "focused": false,
      "bounds": [
        [
          15,
          592
        ],
        [
          -30,
          783
        ]
      ],
      "resource_id": "com.haringeymobile.ukweather:id/city_extra_info_text_view",
      "checked": false,
      "text": "Sat, Nov 30, 2019\n1:00 PM\nMexico City",
      "class": "android.widget.TextView",
      "scrollable": false,
      "selected": false,
      "long_clickable": false,
      "parent": 34,
      "temp_id": 36,
      "size": "-45*191",
      "signature": "[class]android.widget.TextView[resource_id]com.haringeymobile.ukweather:id/city_extra_info_text_view[text]Sat, Nov 30, 2019\n1:00 PM\nMexico City[enabled,,]",
      "view_str": "38b0602d7bbc25d40ac784836a940f1f",
      "content_free_signature": "[class]android.widget.TextView[resource_id]com.haringeymobile.ukweather:id/city_extra_info_text_view"
    },
    {
      "package": "com.haringeymobile.ukweather",
      "visible": false,
      "checkable": false,
      "child_count": 2,
      "editable": false,
      "clickable": false,
      "is_password": false,
      "focusable": false,
      "enabled": true,
      "content_description": null,
      "children": [
        38,
        39
      ],
      "focused": false,
      "bounds": [
        [
          15,
          798
        ],
        [
          -15,
          943
        ]
      ],
      "resource_id": null,
      "checked": false,
      "text": null,
      "class": "android.widget.LinearLayout",
      "scrollable": false,
      "selected": false,
      "long_clickable": false,
      "parent": 33,
      "temp_id": 37,
      "size": "-30*145",
      "signature": "[class]android.widget.LinearLayout[resource_id]None[text]None[enabled,,]",
      "view_str": "c5b179097e72c6cf8a5015ae4b191d17",
      "content_free_signature": "[class]android.widget.LinearLayout[resource_id]None"
    },
    {
      "package": "com.haringeymobile.ukweather",
      "visible": false,
      "checkable": false,
      "child_count": 0,
      "editable": false,
      "clickable": false,
      "is_password": false,
      "focusable": false,
      "enabled": true,
      "content_description": null,
      "children": [],
      "focused": false,
      "bounds": [
        [
          15,
          798
        ],
        [
          -510,
          943
        ]
      ],
      "resource_id": "com.haringeymobile.ukweather:id/night_morning_evening_title",
      "checked": false,
      "text": "Night:\nMorning:\nEvening:",
      "class": "android.widget.TextView",
      "scrollable": false,
      "selected": false,
      "long_clickable": false,
      "parent": 37,
      "temp_id": 38,
      "size": "-525*145",
      "signature": "[class]android.widget.TextView[resource_id]com.haringeymobile.ukweather:id/night_morning_evening_title[text]Night:\nMorning:\nEvening:[enabled,,]",
      "view_str": "ac9a60f4e138613470d20b2c2b8d59bb",
      "content_free_signature": "[class]android.widget.TextView[resource_id]com.haringeymobile.ukweather:id/night_morning_evening_title"
    },
    {
      "package": "com.haringeymobile.ukweather",
      "visible": false,
      "checkable": false,
      "child_count": 0,
      "editable": false,
      "clickable": false,
      "is_password": false,
      "focusable": false,
      "enabled": true,
      "content_description": null,
      "children": [],
      "focused": false,
      "bounds": [
        [
          15,
          798
        ],
        [
          -15,
          943
        ]
      ],
      "resource_id": "com.haringeymobile.ukweather:id/night_morning_evening_temperatures_text_view",
      "checked": false,
      "text": "18\u2103\n16.1\u2103\n21.7\u2103",
      "class": "android.widget.TextView",
      "scrollable": false,
      "selected": false,
      "long_clickable": false,
      "parent": 37,
      "temp_id": 39,
      "size": "-30*145",
      "signature": "[class]android.widget.TextView[resource_id]com.haringeymobile.ukweather:id/night_morning_evening_temperatures_text_view[text]18\u2103\n16.1\u2103\n21.7\u2103[enabled,,]",
      "view_str": "aabc115511755f658df6c3686cb5e709",
      "content_free_signature": "[class]android.widget.TextView[resource_id]com.haringeymobile.ukweather:id/night_morning_evening_temperatures_text_view"
    },
    {
      "package": "com.haringeymobile.ukweather",
      "visible": false,
      "checkable": false,
      "child_count": 1,
      "editable": false,
      "clickable": false,
      "is_password": false,
      "focusable": false,
      "enabled": true,
      "content_description": null,
      "children": [
        41
      ],
      "focused": false,
      "bounds": [
        [
          15,
          976
        ],
        [
          0,
          1144
        ]
      ],
      "resource_id": null,
      "checked": false,
      "text": null,
      "class": "android.widget.FrameLayout",
      "scrollable": false,
      "selected": false,
      "long_clickable": false,
      "parent": 32,
      "temp_id": 40,
      "size": "-15*168",
      "signature": "[class]android.widget.FrameLayout[resource_id]None[text]None[enabled,,]",
      "view_str": "3af2675fa54df145cbdd22b67d1eb686",
      "content_free_signature": "[class]android.widget.FrameLayout[resource_id]None"
    },
    {
      "package": "com.haringeymobile.ukweather",
      "visible": false,
      "checkable": false,
      "child_count": 2,
      "editable": false,
      "clickable": false,
      "is_password": false,
      "focusable": false,
      "enabled": true,
      "content_description": null,
      "children": [
        42,
        43
      ],
      "focused": false,
      "bounds": [
        [
          15,
          991
        ],
        [
          -284,
          1129
        ]
      ],
      "resource_id": null,
      "checked": false,
      "text": null,
      "class": "android.widget.LinearLayout",
      "scrollable": false,
      "selected": false,
      "long_clickable": false,
      "parent": 40,
      "temp_id": 41,
      "size": "-299*138",
      "signature": "[class]android.widget.LinearLayout[resource_id]None[text]None[enabled,,]",
      "view_str": "ea6aab78b71f1ab4dee7f2fe47533f30",
      "content_free_signature": "[class]android.widget.LinearLayout[resource_id]None"
    },
    {
      "package": "com.haringeymobile.ukweather",
      "visible": false,
      "checkable": false,
      "child_count": 0,
      "editable": false,
      "clickable": false,
      "is_password": false,
      "focusable": false,
      "enabled": true,
      "content_description": "Weather",
      "children": [],
      "focused": false,
      "bounds": [
        [
          15,
          1015
        ],
        [
          -593,
          1105
        ]
      ],
      "resource_id": "com.haringeymobile.ukweather:id/weather_conditions_image_view",
      "checked": false,
      "text": null,
      "class": "android.widget.ImageView",
      "scrollable": false,
      "selected": false,
      "long_clickable": false,
      "parent": 41,
      "temp_id": 42,
      "size": "-608*90",
      "signature": "[class]android.widget.ImageView[resource_id]com.haringeymobile.ukweather:id/weather_conditions_image_view[text]None[enabled,,]",
      "view_str": "9cd523163754c2ad3ddb632cc01ddebf",
      "content_free_signature": "[class]android.widget.ImageView[resource_id]com.haringeymobile.ukweather:id/weather_conditions_image_view"
    },
    {
      "package": "com.haringeymobile.ukweather",
      "visible": false,
      "checkable": false,
      "child_count": 0,
      "editable": false,
      "clickable": false,
      "is_password": false,
      "focusable": false,
      "enabled": true,
      "content_description": null,
      "children": [],
      "focused": false,
      "bounds": [
        [
          15,
          1001
        ],
        [
          -284,
          1118
        ]
      ],
      "resource_id": "com.haringeymobile.ukweather:id/weather_conditions_text_view",
      "checked": false,
      "text": "Light rain",
      "class": "android.widget.TextView",
      "scrollable": false,
      "selected": false,
      "long_clickable": false,
      "parent": 41,
      "temp_id": 43,
      "size": "-299*117",
      "signature": "[class]android.widget.TextView[resource_id]com.haringeymobile.ukweather:id/weather_conditions_text_view[text]Light rain[enabled,,]",
      "view_str": "a726138a1535122b24c519322861787d",
      "content_free_signature": "[class]android.widget.TextView[resource_id]com.haringeymobile.ukweather:id/weather_conditions_text_view"
    },
    {
      "package": "com.haringeymobile.ukweather",
      "visible": false,
      "checkable": false,
      "child_count": 3,
      "editable": false,
      "clickable": false,
      "is_password": false,
      "focusable": false,
      "enabled": true,
      "content_description": null,
      "children": [
        45,
        46,
        47
      ],
      "focused": false,
      "bounds": [
        [
          15,
          1162
        ],
        [
          0,
          1607
        ]
      ],
      "resource_id": null,
      "checked": false,
      "text": null,
      "class": "android.widget.LinearLayout",
      "scrollable": false,
      "selected": false,
      "long_clickable": false,
      "parent": 32,
      "temp_id": 44,
      "size": "-15*445",
      "signature": "[class]android.widget.LinearLayout[resource_id]None[text]None[enabled,,]",
      "view_str": "793a1a5c28b5b709913c02e1a93bf9d1",
      "content_free_signature": "[class]android.widget.LinearLayout[resource_id]None"
    },
    {
      "package": "com.haringeymobile.ukweather",
      "visible": false,
      "checkable": false,
      "child_count": 0,
      "editable": false,
      "clickable": false,
      "is_password": false,
      "focusable": false,
      "enabled": true,
      "content_description": null,
      "children": [],
      "focused": false,
      "bounds": [
        [
          15,
          1186
        ],
        [
          -24,
          1271
        ]
      ],
      "resource_id": "com.haringeymobile.ukweather:id/atmospheric_pressure_text_view",
      "checked": false,
      "text": "Pressure: 1014 hPa",
      "class": "android.widget.TextView",
      "scrollable": false,
      "selected": false,
      "long_clickable": false,
      "parent": 44,
      "temp_id": 45,
      "size": "-39*85",
      "signature": "[class]android.widget.TextView[resource_id]com.haringeymobile.ukweather:id/atmospheric_pressure_text_view[text]Pressure: 1014 hPa[enabled,,]",
      "view_str": "2375d878d88fb2ef3d3884b08c72baeb",
      "content_free_signature": "[class]android.widget.TextView[resource_id]com.haringeymobile.ukweather:id/atmospheric_pressure_text_view"
    },
    {
      "package": "com.haringeymobile.ukweather",
      "visible": false,
      "checkable": false,
      "child_count": 0,
      "editable": false,
      "clickable": false,
      "is_password": false,
      "focusable": false,
      "enabled": true,
      "content_description": null,
      "children": [],
      "focused": false,
      "bounds": [
        [
          15,
          1289
        ],
        [
          -24,
          1374
        ]
      ],
      "resource_id": "com.haringeymobile.ukweather:id/humidity_text_view",
      "checked": false,
      "text": "Humidity: 37%",
      "class": "android.widget.TextView",
      "scrollable": false,
      "selected": false,
      "long_clickable": false,
      "parent": 44,
      "temp_id": 46,
      "size": "-39*85",
      "signature": "[class]android.widget.TextView[resource_id]com.haringeymobile.ukweather:id/humidity_text_view[text]Humidity: 37%[enabled,,]",
      "view_str": "684fc4a2ba287f0c2d447bae5f6694ce",
      "content_free_signature": "[class]android.widget.TextView[resource_id]com.haringeymobile.ukweather:id/humidity_text_view"
    },
    {
      "package": "com.haringeymobile.ukweather",
      "visible": false,
      "checkable": false,
      "child_count": 2,
      "editable": false,
      "clickable": false,
      "is_password": false,
      "focusable": false,
      "enabled": true,
      "content_description": null,
      "children": [
        48,
        49
      ],
      "focused": false,
      "bounds": [
        [
          15,
          1383
        ],
        [
          -414,
          1592
        ]
      ],
      "resource_id": null,
      "checked": false,
      "text": null,
      "class": "android.widget.LinearLayout",
      "scrollable": false,
      "selected": false,
      "long_clickable": false,
      "parent": 44,
      "temp_id": 47,
      "size": "-429*209",
      "signature": "[class]android.widget.LinearLayout[resource_id]None[text]None[enabled,,]",
      "view_str": "02b3b3379a9ed7937dc703a337470def",
      "content_free_signature": "[class]android.widget.LinearLayout[resource_id]None"
    },
    {
      "package": "com.haringeymobile.ukweather",
      "visible": false,
      "checkable": false,
      "child_count": 0,
      "editable": false,
      "clickable": false,
      "is_password": false,
      "focusable": false,
      "enabled": true,
      "content_description": "Wind",
      "children": [],
      "focused": false,
      "bounds": [
        [
          15,
          1383
        ],
        [
          -885,
          1592
        ]
      ],
      "resource_id": null,
      "checked": false,
      "text": null,
      "class": "android.widget.ImageView",
      "scrollable": false,
      "selected": false,
      "long_clickable": false,
      "parent": 47,
      "temp_id": 48,
      "size": "-900*209",
      "signature": "[class]android.widget.ImageView[resource_id]None[text]None[enabled,,]",
      "view_str": "a37aa99e73561e43de9ec32daef8451f",
      "content_free_signature": "[class]android.widget.ImageView[resource_id]None"
    },
    {
      "package": "com.haringeymobile.ukweather",
      "visible": false,
      "checkable": false,
      "child_count": 0,
      "editable": false,
      "clickable": false,
      "is_password": false,
      "focusable": false,
      "enabled": true,
      "content_description": null,
      "children": [],
      "focused": false,
      "bounds": [
        [
          15,
          1392
        ],
        [
          -423,
          1583
        ]
      ],
      "resource_id": "com.haringeymobile.ukweather:id/wind_text_view",
      "checked": false,
      "text": "Wind speed: 1.1 mps\nWind direction: 341\u00b0\n(North-northwest)",
      "class": "android.widget.TextView",
      "scrollable": false,
      "selected": false,
      "long_clickable": false,
      "parent": 47,
      "temp_id": 49,
      "size": "-438*191",
      "signature": "[class]android.widget.TextView[resource_id]com.haringeymobile.ukweather:id/wind_text_view[text]None[enabled,,]",
      "view_str": "996a42465269a73d7b6e44de81c6aa9a",
      "content_free_signature": "[class]android.widget.TextView[resource_id]com.haringeymobile.ukweather:id/wind_text_view"
    },
    {
      "package": "com.haringeymobile.ukweather",
      "visible": true,
      "checkable": false,
      "child_count": 1,
      "editable": false,
      "clickable": false,
      "is_password": false,
      "focusable": true,
      "enabled": true,
      "content_description": null,
      "children": [
        51
      ],
      "focused": false,
      "bounds": [
        [
          15,
          402
        ],
        [
          1065,
          1767
        ]
      ],
      "resource_id": null,
      "checked": false,
      "text": null,
      "class": "android.widget.ScrollView",
      "scrollable": false,
      "selected": false,
      "long_clickable": false,
      "parent": 30,
      "temp_id": 50,
      "size": "1050*1365",
      "signature": "[class]android.widget.ScrollView[resource_id]None[text]None[enabled,,]",
      "view_str": "966a252bf5a27f34463e447e57e7c866",
      "content_free_signature": "[class]android.widget.ScrollView[resource_id]None"
    },
    {
      "package": "com.haringeymobile.ukweather",
      "visible": true,
      "checkable": false,
      "child_count": 3,
      "editable": false,
      "clickable": false,
      "is_password": false,
      "focusable": false,
      "enabled": true,
      "content_description": null,
      "children": [
        52,
        59,
        63
      ],
      "focused": false,
      "bounds": [
        [
          30,
          411
        ],
        [
          1050,
          1758
        ]
      ],
      "resource_id": null,
      "checked": false,
      "text": null,
      "class": "android.widget.LinearLayout",
      "scrollable": false,
      "selected": false,
      "long_clickable": false,
      "parent": 50,
      "temp_id": 51,
      "size": "1020*1347",
      "signature": "[class]android.widget.LinearLayout[resource_id]None[text]None[enabled,,]",
      "view_str": "6c682e5c046f05251eebafdcc26fa6cb",
      "content_free_signature": "[class]android.widget.LinearLayout[resource_id]None"
    },
    {
      "package": "com.haringeymobile.ukweather",
      "visible": true,
      "checkable": false,
      "child_count": 2,
      "editable": false,
      "clickable": false,
      "is_password": false,
      "focusable": false,
      "enabled": true,
      "content_description": null,
      "children": [
        53,
        56
      ],
      "focused": false,
      "bounds": [
        [
          30,
          562
        ],
        [
          1050,
          958
        ]
      ],
      "resource_id": null,
      "checked": false,
      "text": null,
      "class": "android.widget.LinearLayout",
      "scrollable": false,
      "selected": false,
      "long_clickable": false,
      "parent": 51,
      "temp_id": 52,
      "size": "1020*396",
      "signature": "[class]android.widget.LinearLayout[resource_id]None[text]None[enabled,,]",
      "view_str": "e8eaf8986b0544d0bf61ab45441c742f",
      "content_free_signature": "[class]android.widget.LinearLayout[resource_id]None"
    },
    {
      "package": "com.haringeymobile.ukweather",
      "visible": true,
      "checkable": false,
      "child_count": 2,
      "editable": false,
      "clickable": false,
      "is_password": false,
      "focusable": false,
      "enabled": true,
      "content_description": null,
      "children": [
        54,
        55
      ],
      "focused": false,
      "bounds": [
        [
          45,
          577
        ],
        [
          1035,
          798
        ]
      ],
      "resource_id": null,
      "checked": false,
      "text": null,
      "class": "android.widget.LinearLayout",
      "scrollable": false,
      "selected": false,
      "long_clickable": false,
      "parent": 52,
      "temp_id": 53,
      "size": "990*221",
      "signature": "[class]android.widget.LinearLayout[resource_id]None[text]None[enabled,,]",
      "view_str": "aa3c5ac4fb3bd6745aa3f9edeb51ddd9",
      "content_free_signature": "[class]android.widget.LinearLayout[resource_id]None"
    },
    {
      "package": "com.haringeymobile.ukweather",
      "visible": true,
      "checkable": false,
      "child_count": 0,
      "editable": false,
      "clickable": false,
      "is_password": false,
      "focusable": false,
      "enabled": true,
      "content_description": null,
      "children": [],
      "focused": false,
      "bounds": [
        [
          60,
          617
        ],
        [
          413,
          758
        ]
      ],
      "resource_id": "com.haringeymobile.ukweather:id/temperature_text_view",
      "checked": false,
      "text": "22.1\u2103",
      "class": "android.widget.TextView",
      "scrollable": false,
      "selected": false,
      "long_clickable": false,
      "parent": 53,
      "temp_id": 54,
      "size": "353*141",
      "signature": "[class]android.widget.TextView[resource_id]com.haringeymobile.ukweather:id/temperature_text_view[text]22.1\u2103[enabled,,]",
      "view_str": "664abb69b09504de2ef16fc1a2dad4d0",
      "content_free_signature": "[class]android.widget.TextView[resource_id]com.haringeymobile.ukweather:id/temperature_text_view"
    },
    {
      "package": "com.haringeymobile.ukweather",
      "visible": true,
      "checkable": false,
      "child_count": 0,
      "editable": false,
      "clickable": false,
      "is_password": false,
      "focusable": false,
      "enabled": true,
      "content_description": null,
      "children": [],
      "focused": false,
      "bounds": [
        [
          413,
          592
        ],
        [
          1020,
          783
        ]
      ],
      "resource_id": "com.haringeymobile.ukweather:id/city_extra_info_text_view",
      "checked": false,
      "text": "Sun, Dec 1, 2019\n1:00 PM\nMexico City",
      "class": "android.widget.TextView",
      "scrollable": false,
      "selected": false,
      "long_clickable": false,
      "parent": 53,
      "temp_id": 55,
      "size": "607*191",
      "signature": "[class]android.widget.TextView[resource_id]com.haringeymobile.ukweather:id/city_extra_info_text_view[text]Sun, Dec 1, 2019\n1:00 PM\nMexico City[enabled,,]",
      "view_str": "9d5bb577343aa6721b67f038a3bcf13e",
      "content_free_signature": "[class]android.widget.TextView[resource_id]com.haringeymobile.ukweather:id/city_extra_info_text_view"
    },
    {
      "package": "com.haringeymobile.ukweather",
      "visible": true,
      "checkable": false,
      "child_count": 2,
      "editable": false,
      "clickable": false,
      "is_password": false,
      "focusable": false,
      "enabled": true,
      "content_description": null,
      "children": [
        57,
        58
      ],
      "focused": false,
      "bounds": [
        [
          45,
          798
        ],
        [
          1035,
          943
        ]
      ],
      "resource_id": null,
      "checked": false,
      "text": null,
      "class": "android.widget.LinearLayout",
      "scrollable": false,
      "selected": false,
      "long_clickable": false,
      "parent": 52,
      "temp_id": 56,
      "size": "990*145",
      "signature": "[class]android.widget.LinearLayout[resource_id]None[text]None[enabled,,]",
      "view_str": "e3fe005454d75ac8aa6d4bfd1909534e",
      "content_free_signature": "[class]android.widget.LinearLayout[resource_id]None"
    },
    {
      "package": "com.haringeymobile.ukweather",
      "visible": true,
      "checkable": false,
      "child_count": 0,
      "editable": false,
      "clickable": false,
      "is_password": false,
      "focusable": false,
      "enabled": true,
      "content_description": null,
      "children": [],
      "focused": false,
      "bounds": [
        [
          45,
          798
        ],
        [
          540,
          943
        ]
      ],
      "resource_id": "com.haringeymobile.ukweather:id/night_morning_evening_title",
      "checked": false,
      "text": "Night:\nMorning:\nEvening:",
      "class": "android.widget.TextView",
      "scrollable": false,
      "selected": false,
      "long_clickable": false,
      "parent": 56,
      "temp_id": 57,
      "size": "495*145",
      "signature": "[class]android.widget.TextView[resource_id]com.haringeymobile.ukweather:id/night_morning_evening_title[text]Night:\nMorning:\nEvening:[enabled,,]",
      "view_str": "ac9a60f4e138613470d20b2c2b8d59bb",
      "content_free_signature": "[class]android.widget.TextView[resource_id]com.haringeymobile.ukweather:id/night_morning_evening_title"
    },
    {
      "package": "com.haringeymobile.ukweather",
      "visible": true,
      "checkable": false,
      "child_count": 0,
      "editable": false,
      "clickable": false,
      "is_password": false,
      "focusable": false,
      "enabled": true,
      "content_description": null,
      "children": [],
      "focused": false,
      "bounds": [
        [
          540,
          798
        ],
        [
          1035,
          943
        ]
      ],
      "resource_id": "com.haringeymobile.ukweather:id/night_morning_evening_temperatures_text_view",
      "checked": false,
      "text": "17.7\u2103\n16.4\u2103\n22.1\u2103",
      "class": "android.widget.TextView",
      "scrollable": false,
      "selected": false,
      "long_clickable": false,
      "parent": 56,
      "temp_id": 58,
      "size": "495*145",
      "signature": "[class]android.widget.TextView[resource_id]com.haringeymobile.ukweather:id/night_morning_evening_temperatures_text_view[text]17.7\u2103\n16.4\u2103\n22.1\u2103[enabled,,]",
      "view_str": "6af8d438c054fcf91c728a4eb20242b4",
      "content_free_signature": "[class]android.widget.TextView[resource_id]com.haringeymobile.ukweather:id/night_morning_evening_temperatures_text_view"
    },
    {
      "package": "com.haringeymobile.ukweather",
      "visible": true,
      "checkable": false,
      "child_count": 1,
      "editable": false,
      "clickable": false,
      "is_password": false,
      "focusable": false,
      "enabled": true,
      "content_description": null,
      "children": [
        60
      ],
      "focused": false,
      "bounds": [
        [
          30,
          976
        ],
        [
          1050,
          1144
        ]
      ],
      "resource_id": null,
      "checked": false,
      "text": null,
      "class": "android.widget.FrameLayout",
      "scrollable": false,
      "selected": false,
      "long_clickable": false,
      "parent": 51,
      "temp_id": 59,
      "size": "1020*168",
      "signature": "[class]android.widget.FrameLayout[resource_id]None[text]None[enabled,,]",
      "view_str": "3af2675fa54df145cbdd22b67d1eb686",
      "content_free_signature": "[class]android.widget.FrameLayout[resource_id]None"
    },
    {
      "package": "com.haringeymobile.ukweather",
      "visible": true,
      "checkable": false,
      "child_count": 2,
      "editable": false,
      "clickable": false,
      "is_password": false,
      "focusable": false,
      "enabled": true,
      "content_description": null,
      "children": [
        61,
        62
      ],
      "focused": false,
      "bounds": [
        [
          313,
          991
        ],
        [
          766,
          1129
        ]
      ],
      "resource_id": null,
      "checked": false,
      "text": null,
      "class": "android.widget.LinearLayout",
      "scrollable": false,
      "selected": false,
      "long_clickable": false,
      "parent": 59,
      "temp_id": 60,
      "size": "453*138",
      "signature": "[class]android.widget.LinearLayout[resource_id]None[text]None[enabled,,]",
      "view_str": "ea6aab78b71f1ab4dee7f2fe47533f30",
      "content_free_signature": "[class]android.widget.LinearLayout[resource_id]None"
    },
    {
      "package": "com.haringeymobile.ukweather",
      "visible": true,
      "checkable": false,
      "child_count": 0,
      "editable": false,
      "clickable": false,
      "is_password": false,
      "focusable": false,
      "enabled": true,
      "content_description": "Weather",
      "children": [],
      "focused": false,
      "bounds": [
        [
          337,
          1015
        ],
        [
          457,
          1105
        ]
      ],
      "resource_id": "com.haringeymobile.ukweather:id/weather_conditions_image_view",
      "checked": false,
      "text": null,
      "class": "android.widget.ImageView",
      "scrollable": false,
      "selected": false,
      "long_clickable": false,
      "parent": 60,
      "temp_id": 61,
      "size": "120*90",
      "signature": "[class]android.widget.ImageView[resource_id]com.haringeymobile.ukweather:id/weather_conditions_image_view[text]None[enabled,,]",
      "view_str": "9cd523163754c2ad3ddb632cc01ddebf",
      "content_free_signature": "[class]android.widget.ImageView[resource_id]com.haringeymobile.ukweather:id/weather_conditions_image_view"
    },
    {
      "package": "com.haringeymobile.ukweather",
      "visible": true,
      "checkable": false,
      "child_count": 0,
      "editable": false,
      "clickable": false,
      "is_password": false,
      "focusable": false,
      "enabled": true,
      "content_description": null,
      "children": [],
      "focused": false,
      "bounds": [
        [
          481,
          1001
        ],
        [
          766,
          1118
        ]
      ],
      "resource_id": "com.haringeymobile.ukweather:id/weather_conditions_text_view",
      "checked": false,
      "text": "Light rain",
      "class": "android.widget.TextView",
      "scrollable": false,
      "selected": false,
      "long_clickable": false,
      "parent": 60,
      "temp_id": 62,
      "size": "285*117",
      "signature": "[class]android.widget.TextView[resource_id]com.haringeymobile.ukweather:id/weather_conditions_text_view[text]Light rain[enabled,,]",
      "view_str": "a726138a1535122b24c519322861787d",
      "content_free_signature": "[class]android.widget.TextView[resource_id]com.haringeymobile.ukweather:id/weather_conditions_text_view"
    },
    {
      "package": "com.haringeymobile.ukweather",
      "visible": true,
      "checkable": false,
      "child_count": 3,
      "editable": false,
      "clickable": false,
      "is_password": false,
      "focusable": false,
      "enabled": true,
      "content_description": null,
      "children": [
        64,
        65,
        66
      ],
      "focused": false,
      "bounds": [
        [
          30,
          1162
        ],
        [
          1050,
          1607
        ]
      ],
      "resource_id": null,
      "checked": false,
      "text": null,
      "class": "android.widget.LinearLayout",
      "scrollable": false,
      "selected": false,
      "long_clickable": false,
      "parent": 51,
      "temp_id": 63,
      "size": "1020*445",
      "signature": "[class]android.widget.LinearLayout[resource_id]None[text]None[enabled,,]",
      "view_str": "793a1a5c28b5b709913c02e1a93bf9d1",
      "content_free_signature": "[class]android.widget.LinearLayout[resource_id]None"
    },
    {
      "package": "com.haringeymobile.ukweather",
      "visible": true,
      "checkable": false,
      "child_count": 0,
      "editable": false,
      "clickable": false,
      "is_password": false,
      "focusable": false,
      "enabled": true,
      "content_description": null,
      "children": [],
      "focused": false,
      "bounds": [
        [
          54,
          1186
        ],
        [
          1026,
          1271
        ]
      ],
      "resource_id": "com.haringeymobile.ukweather:id/atmospheric_pressure_text_view",
      "checked": false,
      "text": "Pressure: 1014 hPa",
      "class": "android.widget.TextView",
      "scrollable": false,
      "selected": false,
      "long_clickable": false,
      "parent": 63,
      "temp_id": 64,
      "size": "972*85",
      "signature": "[class]android.widget.TextView[resource_id]com.haringeymobile.ukweather:id/atmospheric_pressure_text_view[text]Pressure: 1014 hPa[enabled,,]",
      "view_str": "2375d878d88fb2ef3d3884b08c72baeb",
      "content_free_signature": "[class]android.widget.TextView[resource_id]com.haringeymobile.ukweather:id/atmospheric_pressure_text_view"
    },
    {
      "package": "com.haringeymobile.ukweather",
      "visible": true,
      "checkable": false,
      "child_count": 0,
      "editable": false,
      "clickable": false,
      "is_password": false,
      "focusable": false,
      "enabled": true,
      "content_description": null,
      "children": [],
      "focused": false,
      "bounds": [
        [
          54,
          1289
        ],
        [
          1026,
          1374
        ]
      ],
      "resource_id": "com.haringeymobile.ukweather:id/humidity_text_view",
      "checked": false,
      "text": "Humidity: 37%",
      "class": "android.widget.TextView",
      "scrollable": false,
      "selected": false,
      "long_clickable": false,
      "parent": 63,
      "temp_id": 65,
      "size": "972*85",
      "signature": "[class]android.widget.TextView[resource_id]com.haringeymobile.ukweather:id/humidity_text_view[text]Humidity: 37%[enabled,,]",
      "view_str": "684fc4a2ba287f0c2d447bae5f6694ce",
      "content_free_signature": "[class]android.widget.TextView[resource_id]com.haringeymobile.ukweather:id/humidity_text_view"
    },
    {
      "package": "com.haringeymobile.ukweather",
      "visible": true,
      "checkable": false,
      "child_count": 2,
      "editable": false,
      "clickable": false,
      "is_password": false,
      "focusable": false,
      "enabled": true,
      "content_description": null,
      "children": [
        67,
        68
      ],
      "focused": false,
      "bounds": [
        [
          45,
          1383
        ],
        [
          636,
          1592
        ]
      ],
      "resource_id": null,
      "checked": false,
      "text": null,
      "class": "android.widget.LinearLayout",
      "scrollable": false,
      "selected": false,
      "long_clickable": false,
      "parent": 63,
      "temp_id": 66,
      "size": "591*209",
      "signature": "[class]android.widget.LinearLayout[resource_id]None[text]None[enabled,,]",
      "view_str": "02b3b3379a9ed7937dc703a337470def",
      "content_free_signature": "[class]android.widget.LinearLayout[resource_id]None"
    },
    {
      "package": "com.haringeymobile.ukweather",
      "visible": true,
      "checkable": false,
      "child_count": 0,
      "editable": false,
      "clickable": false,
      "is_password": false,
      "focusable": false,
      "enabled": true,
      "content_description": "Wind",
      "children": [],
      "focused": false,
      "bounds": [
        [
          45,
          1383
        ],
        [
          165,
          1592
        ]
      ],
      "resource_id": null,
      "checked": false,
      "text": null,
      "class": "android.widget.ImageView",
      "scrollable": false,
      "selected": false,
      "long_clickable": false,
      "parent": 66,
      "temp_id": 67,
      "size": "120*209",
      "signature": "[class]android.widget.ImageView[resource_id]None[text]None[enabled,,]",
      "view_str": "a37aa99e73561e43de9ec32daef8451f",
      "content_free_signature": "[class]android.widget.ImageView[resource_id]None"
    },
    {
      "package": "com.haringeymobile.ukweather",
      "visible": true,
      "checkable": false,
      "child_count": 0,
      "editable": false,
      "clickable": false,
      "is_password": false,
      "focusable": false,
      "enabled": true,
      "content_description": null,
      "children": [],
      "focused": false,
      "bounds": [
        [
          174,
          1392
        ],
        [
          627,
          1583
        ]
      ],
      "resource_id": "com.haringeymobile.ukweather:id/wind_text_view",
      "checked": false,
      "text": "Wind speed: 1.1 mps\nWind direction: 345\u00b0\n(North-northwest)",
      "class": "android.widget.TextView",
      "scrollable": false,
      "selected": false,
      "long_clickable": false,
      "parent": 66,
      "temp_id": 68,
      "size": "453*191",
      "signature": "[class]android.widget.TextView[resource_id]com.haringeymobile.ukweather:id/wind_text_view[text]None[enabled,,]",
      "view_str": "996a42465269a73d7b6e44de81c6aa9a",
      "content_free_signature": "[class]android.widget.TextView[resource_id]com.haringeymobile.ukweather:id/wind_text_view"
    },
    {
      "package": "com.haringeymobile.ukweather",
      "visible": false,
      "checkable": false,
      "child_count": 1,
      "editable": false,
      "clickable": false,
      "is_password": false,
      "focusable": true,
      "enabled": true,
      "content_description": null,
      "children": [
        70
      ],
      "focused": false,
      "bounds": [
        [
          1065,
          402
        ],
        [
          1065,
          1767
        ]
      ],
      "resource_id": null,
      "checked": false,
      "text": null,
      "class": "android.widget.ScrollView",
      "scrollable": false,
      "selected": false,
      "long_clickable": false,
      "parent": 30,
      "temp_id": 69,
      "size": "0*1365",
      "signature": "[class]android.widget.ScrollView[resource_id]None[text]None[enabled,,]",
      "view_str": "966a252bf5a27f34463e447e57e7c866",
      "content_free_signature": "[class]android.widget.ScrollView[resource_id]None"
    },
    {
      "package": "com.haringeymobile.ukweather",
      "visible": false,
      "checkable": false,
      "child_count": 3,
      "editable": false,
      "clickable": false,
      "is_password": false,
      "focusable": false,
      "enabled": true,
      "content_description": null,
      "children": [
        71,
        78,
        82
      ],
      "focused": false,
      "bounds": [
        [
          1080,
          411
        ],
        [
          1065,
          1758
        ]
      ],
      "resource_id": null,
      "checked": false,
      "text": null,
      "class": "android.widget.LinearLayout",
      "scrollable": false,
      "selected": false,
      "long_clickable": false,
      "parent": 69,
      "temp_id": 70,
      "size": "-15*1347",
      "signature": "[class]android.widget.LinearLayout[resource_id]None[text]None[enabled,,]",
      "view_str": "6c682e5c046f05251eebafdcc26fa6cb",
      "content_free_signature": "[class]android.widget.LinearLayout[resource_id]None"
    },
    {
      "package": "com.haringeymobile.ukweather",
      "visible": false,
      "checkable": false,
      "child_count": 2,
      "editable": false,
      "clickable": false,
      "is_password": false,
      "focusable": false,
      "enabled": true,
      "content_description": null,
      "children": [
        72,
        75
      ],
      "focused": false,
      "bounds": [
        [
          1080,
          562
        ],
        [
          1065,
          958
        ]
      ],
      "resource_id": null,
      "checked": false,
      "text": null,
      "class": "android.widget.LinearLayout",
      "scrollable": false,
      "selected": false,
      "long_clickable": false,
      "parent": 70,
      "temp_id": 71,
      "size": "-15*396",
      "signature": "[class]android.widget.LinearLayout[resource_id]None[text]None[enabled,,]",
      "view_str": "e8eaf8986b0544d0bf61ab45441c742f",
      "content_free_signature": "[class]android.widget.LinearLayout[resource_id]None"
    },
    {
      "package": "com.haringeymobile.ukweather",
      "visible": false,
      "checkable": false,
      "child_count": 2,
      "editable": false,
      "clickable": false,
      "is_password": false,
      "focusable": false,
      "enabled": true,
      "content_description": null,
      "children": [
        73,
        74
      ],
      "focused": false,
      "bounds": [
        [
          1095,
          577
        ],
        [
          1065,
          798
        ]
      ],
      "resource_id": null,
      "checked": false,
      "text": null,
      "class": "android.widget.LinearLayout",
      "scrollable": false,
      "selected": false,
      "long_clickable": false,
      "parent": 71,
      "temp_id": 72,
      "size": "-30*221",
      "signature": "[class]android.widget.LinearLayout[resource_id]None[text]None[enabled,,]",
      "view_str": "a7ebe75a963b687195c77d1be17e3239",
      "content_free_signature": "[class]android.widget.LinearLayout[resource_id]None"
    },
    {
      "package": "com.haringeymobile.ukweather",
      "visible": false,
      "checkable": false,
      "child_count": 0,
      "editable": false,
      "clickable": false,
      "is_password": false,
      "focusable": false,
      "enabled": true,
      "content_description": null,
      "children": [],
      "focused": false,
      "bounds": [
        [
          1110,
          617
        ],
        [
          1065,
          758
        ]
      ],
      "resource_id": "com.haringeymobile.ukweather:id/temperature_text_view",
      "checked": false,
      "text": "21.2\u2103",
      "class": "android.widget.TextView",
      "scrollable": false,
      "selected": false,
      "long_clickable": false,
      "parent": 72,
      "temp_id": 73,
      "size": "-45*141",
      "signature": "[class]android.widget.TextView[resource_id]com.haringeymobile.ukweather:id/temperature_text_view[text]21.2\u2103[enabled,,]",
      "view_str": "b3ee4576531b8ccb976fe32c9e31a9ff",
      "content_free_signature": "[class]android.widget.TextView[resource_id]com.haringeymobile.ukweather:id/temperature_text_view"
    },
    {
      "package": "com.haringeymobile.ukweather",
      "visible": false,
      "checkable": false,
      "child_count": 0,
      "editable": false,
      "clickable": false,
      "is_password": false,
      "focusable": false,
      "enabled": true,
      "content_description": null,
      "children": [],
      "focused": false,
      "bounds": [
        [
          1463,
          592
        ],
        [
          1065,
          783
        ]
      ],
      "resource_id": "com.haringeymobile.ukweather:id/city_extra_info_text_view",
      "checked": false,
      "text": "Mon, Dec 2, 2019\n1:00 PM\nMexico City",
      "class": "android.widget.TextView",
      "scrollable": false,
      "selected": false,
      "long_clickable": false,
      "parent": 72,
      "temp_id": 74,
      "size": "-398*191",
      "signature": "[class]android.widget.TextView[resource_id]com.haringeymobile.ukweather:id/city_extra_info_text_view[text]Mon, Dec 2, 2019\n1:00 PM\nMexico City[enabled,,]",
      "view_str": "400d21b76bccae6d2bd50b88a5f62844",
      "content_free_signature": "[class]android.widget.TextView[resource_id]com.haringeymobile.ukweather:id/city_extra_info_text_view"
    },
    {
      "package": "com.haringeymobile.ukweather",
      "visible": false,
      "checkable": false,
      "child_count": 2,
      "editable": false,
      "clickable": false,
      "is_password": false,
      "focusable": false,
      "enabled": true,
      "content_description": null,
      "children": [
        76,
        77
      ],
      "focused": false,
      "bounds": [
        [
          1095,
          798
        ],
        [
          1065,
          943
        ]
      ],
      "resource_id": null,
      "checked": false,
      "text": null,
      "class": "android.widget.LinearLayout",
      "scrollable": false,
      "selected": false,
      "long_clickable": false,
      "parent": 71,
      "temp_id": 75,
      "size": "-30*145",
      "signature": "[class]android.widget.LinearLayout[resource_id]None[text]None[enabled,,]",
      "view_str": "df97dcea1c25b92d17077eb7fa198f0a",
      "content_free_signature": "[class]android.widget.LinearLayout[resource_id]None"
    },
    {
      "package": "com.haringeymobile.ukweather",
      "visible": false,
      "checkable": false,
      "child_count": 0,
      "editable": false,
      "clickable": false,
      "is_password": false,
      "focusable": false,
      "enabled": true,
      "content_description": null,
      "children": [],
      "focused": false,
      "bounds": [
        [
          1095,
          798
        ],
        [
          1065,
          943
        ]
      ],
      "resource_id": "com.haringeymobile.ukweather:id/night_morning_evening_title",
      "checked": false,
      "text": "Night:\nMorning:\nEvening:",
      "class": "android.widget.TextView",
      "scrollable": false,
      "selected": false,
      "long_clickable": false,
      "parent": 75,
      "temp_id": 76,
      "size": "-30*145",
      "signature": "[class]android.widget.TextView[resource_id]com.haringeymobile.ukweather:id/night_morning_evening_title[text]Night:\nMorning:\nEvening:[enabled,,]",
      "view_str": "ac9a60f4e138613470d20b2c2b8d59bb",
      "content_free_signature": "[class]android.widget.TextView[resource_id]com.haringeymobile.ukweather:id/night_morning_evening_title"
    },
    {
      "package": "com.haringeymobile.ukweather",
      "visible": false,
      "checkable": false,
      "child_count": 0,
      "editable": false,
      "clickable": false,
      "is_password": false,
      "focusable": false,
      "enabled": true,
      "content_description": null,
      "children": [],
      "focused": false,
      "bounds": [
        [
          1590,
          798
        ],
        [
          1065,
          943
        ]
      ],
      "resource_id": "com.haringeymobile.ukweather:id/night_morning_evening_temperatures_text_view",
      "checked": false,
      "text": "18.1\u2103\n16.2\u2103\n21.2\u2103",
      "class": "android.widget.TextView",
      "scrollable": false,
      "selected": false,
      "long_clickable": false,
      "parent": 75,
      "temp_id": 77,
      "size": "-525*145",
      "signature": "[class]android.widget.TextView[resource_id]com.haringeymobile.ukweather:id/night_morning_evening_temperatures_text_view[text]18.1\u2103\n16.2\u2103\n21.2\u2103[enabled,,]",
      "view_str": "e6d1018c2e252977a9b8556339352b97",
      "content_free_signature": "[class]android.widget.TextView[resource_id]com.haringeymobile.ukweather:id/night_morning_evening_temperatures_text_view"
    },
    {
      "package": "com.haringeymobile.ukweather",
      "visible": false,
      "checkable": false,
      "child_count": 1,
      "editable": false,
      "clickable": false,
      "is_password": false,
      "focusable": false,
      "enabled": true,
      "content_description": null,
      "children": [
        79
      ],
      "focused": false,
      "bounds": [
        [
          1080,
          976
        ],
        [
          1065,
          1144
        ]
      ],
      "resource_id": null,
      "checked": false,
      "text": null,
      "class": "android.widget.FrameLayout",
      "scrollable": false,
      "selected": false,
      "long_clickable": false,
      "parent": 70,
      "temp_id": 78,
      "size": "-15*168",
      "signature": "[class]android.widget.FrameLayout[resource_id]None[text]None[enabled,,]",
      "view_str": "3af2675fa54df145cbdd22b67d1eb686",
      "content_free_signature": "[class]android.widget.FrameLayout[resource_id]None"
    },
    {
      "package": "com.haringeymobile.ukweather",
      "visible": false,
      "checkable": false,
      "child_count": 2,
      "editable": false,
      "clickable": false,
      "is_password": false,
      "focusable": false,
      "enabled": true,
      "content_description": null,
      "children": [
        80,
        81
      ],
      "focused": false,
      "bounds": [
        [
          1299,
          991
        ],
        [
          1065,
          1129
        ]
      ],
      "resource_id": null,
      "checked": false,
      "text": null,
      "class": "android.widget.LinearLayout",
      "scrollable": false,
      "selected": false,
      "long_clickable": false,
      "parent": 78,
      "temp_id": 79,
      "size": "-234*138",
      "signature": "[class]android.widget.LinearLayout[resource_id]None[text]None[enabled,,]",
      "view_str": "cbbde7f39154e5482536a26c7791e36e",
      "content_free_signature": "[class]android.widget.LinearLayout[resource_id]None"
    },
    {
      "package": "com.haringeymobile.ukweather",
      "visible": false,
      "checkable": false,
      "child_count": 0,
      "editable": false,
      "clickable": false,
      "is_password": false,
      "focusable": false,
      "enabled": true,
      "content_description": "Weather",
      "children": [],
      "focused": false,
      "bounds": [
        [
          1323,
          1015
        ],
        [
          1065,
          1105
        ]
      ],
      "resource_id": "com.haringeymobile.ukweather:id/weather_conditions_image_view",
      "checked": false,
      "text": null,
      "class": "android.widget.ImageView",
      "scrollable": false,
      "selected": false,
      "long_clickable": false,
      "parent": 79,
      "temp_id": 80,
      "size": "-258*90",
      "signature": "[class]android.widget.ImageView[resource_id]com.haringeymobile.ukweather:id/weather_conditions_image_view[text]None[enabled,,]",
      "view_str": "9cd523163754c2ad3ddb632cc01ddebf",
      "content_free_signature": "[class]android.widget.ImageView[resource_id]com.haringeymobile.ukweather:id/weather_conditions_image_view"
    },
    {
      "package": "com.haringeymobile.ukweather",
      "visible": false,
      "checkable": false,
      "child_count": 0,
      "editable": false,
      "clickable": false,
      "is_password": false,
      "focusable": false,
      "enabled": true,
      "content_description": null,
      "children": [],
      "focused": false,
      "bounds": [
        [
          1467,
          1001
        ],
        [
          1065,
          1118
        ]
      ],
      "resource_id": "com.haringeymobile.ukweather:id/weather_conditions_text_view",
      "checked": false,
      "text": "Broken clouds",
      "class": "android.widget.TextView",
      "scrollable": false,
      "selected": false,
      "long_clickable": false,
      "parent": 79,
      "temp_id": 81,
      "size": "-402*117",
      "signature": "[class]android.widget.TextView[resource_id]com.haringeymobile.ukweather:id/weather_conditions_text_view[text]Broken clouds[enabled,,]",
      "view_str": "f5e87deb898afd606c173ee531c9892b",
      "content_free_signature": "[class]android.widget.TextView[resource_id]com.haringeymobile.ukweather:id/weather_conditions_text_view"
    },
    {
      "package": "com.haringeymobile.ukweather",
      "visible": false,
      "checkable": false,
      "child_count": 3,
      "editable": false,
      "clickable": false,
      "is_password": false,
      "focusable": false,
      "enabled": true,
      "content_description": null,
      "children": [
        83,
        84,
        85
      ],
      "focused": false,
      "bounds": [
        [
          1080,
          1162
        ],
        [
          1065,
          1607
        ]
      ],
      "resource_id": null,
      "checked": false,
      "text": null,
      "class": "android.widget.LinearLayout",
      "scrollable": false,
      "selected": false,
      "long_clickable": false,
      "parent": 70,
      "temp_id": 82,
      "size": "-15*445",
      "signature": "[class]android.widget.LinearLayout[resource_id]None[text]None[enabled,,]",
      "view_str": "39af15153a66288117968797a0d4cad8",
      "content_free_signature": "[class]android.widget.LinearLayout[resource_id]None"
    },
    {
      "package": "com.haringeymobile.ukweather",
      "visible": false,
      "checkable": false,
      "child_count": 0,
      "editable": false,
      "clickable": false,
      "is_password": false,
      "focusable": false,
      "enabled": true,
      "content_description": null,
      "children": [],
      "focused": false,
      "bounds": [
        [
          1104,
          1186
        ],
        [
          1065,
          1271
        ]
      ],
      "resource_id": "com.haringeymobile.ukweather:id/atmospheric_pressure_text_view",
      "checked": false,
      "text": "Pressure: 1015 hPa",
      "class": "android.widget.TextView",
      "scrollable": false,
      "selected": false,
      "long_clickable": false,
      "parent": 82,
      "temp_id": 83,
      "size": "-39*85",
      "signature": "[class]android.widget.TextView[resource_id]com.haringeymobile.ukweather:id/atmospheric_pressure_text_view[text]Pressure: 1015 hPa[enabled,,]",
      "view_str": "71524cfd88544a31195f592a71896f08",
      "content_free_signature": "[class]android.widget.TextView[resource_id]com.haringeymobile.ukweather:id/atmospheric_pressure_text_view"
    },
    {
      "package": "com.haringeymobile.ukweather",
      "visible": false,
      "checkable": false,
      "child_count": 0,
      "editable": false,
      "clickable": false,
      "is_password": false,
      "focusable": false,
      "enabled": true,
      "content_description": null,
      "children": [],
      "focused": false,
      "bounds": [
        [
          1104,
          1289
        ],
        [
          1065,
          1374
        ]
      ],
      "resource_id": "com.haringeymobile.ukweather:id/humidity_text_view",
      "checked": false,
      "text": "Humidity: 40%",
      "class": "android.widget.TextView",
      "scrollable": false,
      "selected": false,
      "long_clickable": false,
      "parent": 82,
      "temp_id": 84,
      "size": "-39*85",
      "signature": "[class]android.widget.TextView[resource_id]com.haringeymobile.ukweather:id/humidity_text_view[text]Humidity: 40%[enabled,,]",
      "view_str": "875fcea2f5b2e1c04d9066aff7eede69",
      "content_free_signature": "[class]android.widget.TextView[resource_id]com.haringeymobile.ukweather:id/humidity_text_view"
    },
    {
      "package": "com.haringeymobile.ukweather",
      "visible": false,
      "checkable": false,
      "child_count": 2,
      "editable": false,
      "clickable": false,
      "is_password": false,
      "focusable": false,
      "enabled": true,
      "content_description": null,
      "children": [
        86,
        87
      ],
      "focused": false,
      "bounds": [
        [
          1095,
          1383
        ],
        [
          1065,
          1592
        ]
      ],
      "resource_id": null,
      "checked": false,
      "text": null,
      "class": "android.widget.LinearLayout",
      "scrollable": false,
      "selected": false,
      "long_clickable": false,
      "parent": 82,
      "temp_id": 85,
      "size": "-30*209",
      "signature": "[class]android.widget.LinearLayout[resource_id]None[text]None[enabled,,]",
      "view_str": "02b3b3379a9ed7937dc703a337470def",
      "content_free_signature": "[class]android.widget.LinearLayout[resource_id]None"
    },
    {
      "package": "com.haringeymobile.ukweather",
      "visible": false,
      "checkable": false,
      "child_count": 0,
      "editable": false,
      "clickable": false,
      "is_password": false,
      "focusable": false,
      "enabled": true,
      "content_description": "Wind",
      "children": [],
      "focused": false,
      "bounds": [
        [
          1095,
          1383
        ],
        [
          1065,
          1592
        ]
      ],
      "resource_id": null,
      "checked": false,
      "text": null,
      "class": "android.widget.ImageView",
      "scrollable": false,
      "selected": false,
      "long_clickable": false,
      "parent": 85,
      "temp_id": 86,
      "size": "-30*209",
      "signature": "[class]android.widget.ImageView[resource_id]None[text]None[enabled,,]",
      "view_str": "a37aa99e73561e43de9ec32daef8451f",
      "content_free_signature": "[class]android.widget.ImageView[resource_id]None"
    },
    {
      "package": "com.haringeymobile.ukweather",
      "visible": false,
      "checkable": false,
      "child_count": 0,
      "editable": false,
      "clickable": false,
      "is_password": false,
      "focusable": false,
      "enabled": true,
      "content_description": null,
      "children": [],
      "focused": false,
      "bounds": [
        [
          1224,
          1392
        ],
        [
          1065,
          1583
        ]
      ],
      "resource_id": "com.haringeymobile.ukweather:id/wind_text_view",
      "checked": false,
      "text": "Wind speed: 0.5 mps\nWind direction: 292\u00b0\n(West-northwest)",
      "class": "android.widget.TextView",
      "scrollable": false,
      "selected": false,
      "long_clickable": false,
      "parent": 85,
      "temp_id": 87,
      "size": "-159*191",
      "signature": "[class]android.widget.TextView[resource_id]com.haringeymobile.ukweather:id/wind_text_view[text]None[enabled,,]",
      "view_str": "996a42465269a73d7b6e44de81c6aa9a",
      "content_free_signature": "[class]android.widget.TextView[resource_id]com.haringeymobile.ukweather:id/wind_text_view"
    },
    {
      "package": "com.haringeymobile.ukweather",
      "visible": false,
      "checkable": false,
      "child_count": 0,
      "editable": false,
      "clickable": false,
      "is_password": false,
      "focusable": false,
      "enabled": true,
      "content_description": null,
      "children": [],
      "focused": false,
      "bounds": [
        [
          0,
          0
        ],
        [
          1080,
          72
        ]
      ],
      "resource_id": "android:id/statusBarBackground",
      "checked": false,
      "text": null,
      "class": "android.view.View",
      "scrollable": false,
      "selected": false,
      "long_clickable": false,
      "parent": 0,
      "temp_id": 88,
      "size": "1080*72",
      "signature": "[class]android.view.View[resource_id]android:id/statusBarBackground[text]None[enabled,,]",
      "view_str": "8ca9d2b05dc23a3a766d55732985de29",
      "content_free_signature": "[class]android.view.View[resource_id]android:id/statusBarBackground"
    },
    {
      "package": "com.haringeymobile.ukweather",
      "visible": false,
      "checkable": false,
      "child_count": 0,
      "editable": false,
      "clickable": false,
      "is_password": false,
      "focusable": false,
      "enabled": true,
      "content_description": null,
      "children": [],
      "focused": false,
      "bounds": [
        [
          0,
          1776
        ],
        [
          1080,
          1920
        ]
      ],
      "resource_id": "android:id/navigationBarBackground",
      "checked": false,
      "text": null,
      "class": "android.view.View",
      "scrollable": false,
      "selected": false,
      "long_clickable": false,
      "parent": 0,
      "temp_id": 89,
      "size": "1080*144",
      "signature": "[class]android.view.View[resource_id]android:id/navigationBarBackground[text]None[enabled,,]",
      "view_str": "19bf679965d7461fd9a823b10c601018",
      "content_free_signature": "[class]android.view.View[resource_id]android:id/navigationBarBackground"
    }
  ]
}