{
  "tag": "2019-11-21_235407",
  "state_str": "f01138cd5900844fb91d0930b3dde918",
  "state_str_content_free": "27b83874f6240699680ec04af53b6481",
  "foreground_activity": "com.google.android.gm/.ComposeActivityGmailExternal",
  "activity_stack": [
    "com.google.android.gm/.ComposeActivityGmailExternal"
  ],
  "background_services": [
    "com.google.android.apps.messaging/com.google.android.ims.service.JibeService",
    "com.google.android.gms/.deviceconnection.service.DeviceConnectionWatcherService",
    "com.google.android.gms/com.google.android.location.places.service.PlaceDetectionAsyncService",
    "com.android.systemui/.keyguard.KeyguardService",
    "com.android.systemui/.ImageWallpaper",
    "com.google.android.inputmethod.latin/com.android.inputmethod.latin.spellcheck.AndroidSpellCheckerService",
    "com.google.android.gms/com.google.android.location.geocode.GeocodeService",
    "com.google.android.gms/.auth.setup.devicesignals.LockScreenService",
    "com.google.android.gms/.gcm.GcmService",
    "com.google.android.gms/.auth.proximity.firstparty.SystemMemoryCacheService",
    "com.google.android.gms/.chimera.PersistentApiService",
    "com.android.phone/com.android.internal.telephony.CellularNetworkService",
    "com.google.android.gms/.chimera.PersistentBoundBrokerService",
    "com.google.android.ext.services/android.ext.services.resolver.LRResolverRankerService",
    "com.google.android.gm/org.chromium.content.app.SandboxedProcessService0",
    "com.google.android.ims/.services.WakeLockService",
    "com.google.android.gms/.chimera.GmsBoundBrokerService",
    "com.google.android.gms/.chimera.GmsApiService",
    "com.google.android.gms/.fido.fido2.pollux.CableAuthenticatorService",
    "com.google.android.googlequicksearchbox/com.google.android.apps.gsa.nowoverlayservice.DrawerOverlayService",
    "io.github.ylimit.droidbotapp/.DroidBotIME",
    "com.google.android.gms/com.google.android.location.fused.FusedLocationService",
    "com.google.android.gms/.gcm.nts.SchedulerService",
    "com.android.vending/com.google.android.finsky.deviceconfig.PhoneskyFirebaseMessagingService",
    "io.github.ylimit.droidbotapp/io.github.privacystreams.accessibility.PSAccessibilityService",
    "com.google.android.gms/com.google.android.location.geofencer.service.GeofenceProviderService",
    "com.android.chrome/org.chromium.android_webview.services.VariationsSeedServer",
    "com.google.android.gms/.thunderbird.EmergencyPersistentService",
    "com.google.android.apps.messaging/.fcm.BugleFirebaseInstanceIDService",
    "com.android.systemui/.SystemUIService",
    "android/.hardware.location.GeofenceHardwareService",
    "com.android.se/.SecureElementService",
    "com.google.android.ims/.services.RcsService",
    "com.google.android.gms/.chimera.PersistentDirectBootAwareApiService",
    "com.google.android.ext.services/android.ext.services.notification.Assistant",
    "com.google.android.gms/.location.persistent.LocationPersistentService",
    "com.google.android.gms/com.google.android.location.internal.PendingIntentCallbackService",
    "com.google.android.gms/com.google.android.location.internal.server.GoogleLocationService",
    "com.google.android.gms/com.google.android.contextmanager.service.ContextManagerService",
    "com.google.android.gms/com.google.android.location.network.NetworkLocationService",
    "com.google.android.gms/com.google.android.location.internal.GoogleLocationManagerService",
    "com.google.android.apps.messaging/com.google.firebase.iid.FirebaseInstanceIdService",
    "com.android.phone/com.android.internal.telephony.dataconnection.CellularDataService",
    "com.android.server.telecom/.components.TelecomService",
    "com.google.android.googlequicksearchbox/com.google.android.voiceinteraction.GsaVoiceInteractionService",
    "com.android.smspush/.WapPushManager",
    "com.android.phone/.vvm.RemoteVvmTaskManager",
    "android/com.android.server.content.SyncJobService",
    "com.google.android.gms/.common.stats.GmsCoreStatsService",
    "com.google.android.gms/com.google.android.location.internal.server.HardwareArProviderService",
    "com.google.android.gms/.config.ConfigService",
    "com.android.phone/.TelephonyDebugService",
    "com.google.android.videos/.service.pinning.TransferService",
    "com.google.android.apps.nexuslauncher/com.android.quickstep.TouchInteractionService",
    "com.google.android.ims/.services.NetworkConnectionsService"
  ],
  "views": [
    {
      "package": "android",
      "visible": true,
      "checkable": false,
      "child_count": 2,
      "editable": false,
      "clickable": false,
      "is_password": false,
      "focusable": false,
      "enabled": true,
      "content_description": null,
      "children": [
        1,
        29
      ],
      "focused": false,
      "bounds": [
        [
          0,
          0
        ],
        [
          1080,
          1920
        ]
      ],
      "resource_id": null,
      "checked": false,
      "text": null,
      "class": "android.widget.FrameLayout",
      "scrollable": false,
      "selected": false,
      "long_clickable": false,
      "parent": -1,
      "temp_id": 0,
      "size": "1080*1920",
      "signature": "[class]android.widget.FrameLayout[resource_id]None[text]None[enabled,,]",
      "view_str": "92a24a6a87287bbfb05f57330be853d9",
      "content_free_signature": "[class]android.widget.FrameLayout[resource_id]None"
    },
    {
      "package": "android",
      "visible": true,
      "checkable": false,
      "child_count": 1,
      "editable": false,
      "clickable": false,
      "is_password": false,
      "focusable": false,
      "enabled": true,
      "content_description": null,
      "children": [
        2
      ],
      "focused": false,
      "bounds": [
        [
          0,
          0
        ],
        [
          1080,
          1776
        ]
      ],
      "resource_id": null,
      "checked": false,
      "text": null,
      "class": "android.widget.LinearLayout",
      "scrollable": false,
      "selected": false,
      "long_clickable": false,
      "parent": 0,
      "temp_id": 1,
      "size": "1080*1776",
      "signature": "[class]android.widget.LinearLayout[resource_id]None[text]None[enabled,,]",
      "view_str": "e3dd825fc558e411e712db40d2e93ef7",
      "content_free_signature": "[class]android.widget.LinearLayout[resource_id]None"
    },
    {
      "package": "android",
      "visible": true,
      "checkable": false,
      "child_count": 1,
      "editable": false,
      "clickable": false,
      "is_password": false,
      "focusable": false,
      "enabled": true,
      "content_description": null,
      "children": [
        3
      ],
      "focused": false,
      "bounds": [
        [
          0,
          72
        ],
        [
          1080,
          1776
        ]
      ],
      "resource_id": "android:id/content",
      "checked": false,
      "text": null,
      "class": "android.widget.FrameLayout",
      "scrollable": false,
      "selected": false,
      "long_clickable": false,
      "parent": 1,
      "temp_id": 2,
      "size": "1080*1704",
      "signature": "[class]android.widget.FrameLayout[resource_id]android:id/content[text]None[enabled,,]",
      "view_str": "1981f9658ced96ea701acdd55a50f05e",
      "content_free_signature": "[class]android.widget.FrameLayout[resource_id]android:id/content"
    },
    {
      "package": "android",
      "visible": true,
      "checkable": false,
      "child_count": 2,
      "editable": false,
      "clickable": false,
      "is_password": false,
      "focusable": false,
      "enabled": true,
      "content_description": null,
      "children": [
        4,
        6
      ],
      "focused": false,
      "bounds": [
        [
          0,
          72
        ],
        [
          1080,
          1776
        ]
      ],
      "resource_id": "android:id/contentPanel",
      "checked": false,
      "text": null,
      "class": "android.widget.ScrollView",
      "scrollable": true,
      "selected": false,
      "long_clickable": false,
      "parent": 2,
      "temp_id": 3,
      "size": "1080*1704",
      "signature": "[class]android.widget.ScrollView[resource_id]android:id/contentPanel[text]None[enabled,,]",
      "view_str": "d6d8990fbb5333193216f57df90e5f08",
      "content_free_signature": "[class]android.widget.ScrollView[resource_id]android:id/contentPanel"
    },
    {
      "package": "android",
      "visible": true,
      "checkable": false,
      "child_count": 1,
      "editable": false,
      "clickable": false,
      "is_password": false,
      "focusable": false,
      "enabled": true,
      "content_description": null,
      "children": [
        5
      ],
      "focused": false,
      "bounds": [
        [
          0,
          783
        ],
        [
          1080,
          912
        ]
      ],
      "resource_id": null,
      "checked": false,
      "text": null,
      "class": "android.widget.RelativeLayout",
      "scrollable": false,
      "selected": false,
      "long_clickable": false,
      "parent": 3,
      "temp_id": 4,
      "size": "1080*129",
      "signature": "[class]android.widget.RelativeLayout[resource_id]None[text]None[enabled,,]",
      "view_str": "7a1b49e616ea756319cffcf8b4018444",
      "content_free_signature": "[class]android.widget.RelativeLayout[resource_id]None"
    },
    {
      "package": "android",
      "visible": true,
      "checkable": false,
      "child_count": 0,
      "editable": false,
      "clickable": false,
      "is_password": false,
      "focusable": false,
      "enabled": true,
      "content_description": null,
      "children": [],
      "focused": false,
      "bounds": [
        [
          48,
          783
        ],
        [
          316,
          912
        ]
      ],
      "resource_id": "android:id/title",
      "checked": false,
      "text": "Share with",
      "class": "android.widget.TextView",
      "scrollable": false,
      "selected": false,
      "long_clickable": false,
      "parent": 4,
      "temp_id": 5,
      "size": "268*129",
      "signature": "[class]android.widget.TextView[resource_id]android:id/title[text]Share with[enabled,,]",
      "view_str": "42ffb01ddf6470ca387ee9cfc5f36d7a",
      "content_free_signature": "[class]android.widget.TextView[resource_id]android:id/title"
    },
    {
      "package": "android",
      "visible": true,
      "checkable": false,
      "child_count": 2,
      "editable": false,
      "clickable": false,
      "is_password": false,
      "focusable": true,
      "enabled": true,
      "content_description": null,
      "children": [
        7,
        24
      ],
      "focused": false,
      "bounds": [
        [
          0,
          912
        ],
        [
          1080,
          1776
        ]
      ],
      "resource_id": "android:id/resolver_list",
      "checked": false,
      "text": null,
      "class": "android.widget.ListView",
      "scrollable": false,
      "selected": false,
      "long_clickable": false,
      "parent": 3,
      "temp_id": 6,
      "size": "1080*864",
      "signature": "[class]android.widget.ListView[resource_id]android:id/resolver_list[text]None[enabled,,]",
      "view_str": "8467f5e692871c98e17520ff23fd42ca",
      "content_free_signature": "[class]android.widget.ListView[resource_id]android:id/resolver_list"
    },
    {
      "package": "android",
      "visible": true,
      "checkable": false,
      "child_count": 4,
      "editable": false,
      "clickable": false,
      "is_password": false,
      "focusable": false,
      "enabled": true,
      "content_description": null,
      "children": [
        8,
        12,
        16,
        20
      ],
      "focused": false,
      "bounds": [
        [
          0,
          912
        ],
        [
          1080,
          1216
        ]
      ],
      "resource_id": null,
      "checked": false,
      "text": null,
      "class": "android.widget.LinearLayout",
      "scrollable": false,
      "selected": false,
      "long_clickable": false,
      "parent": 6,
      "temp_id": 7,
      "size": "1080*304",
      "signature": "[class]android.widget.LinearLayout[resource_id]None[text]None[enabled,,]",
      "view_str": "12fdf56c5f8c3476ba8bd64a119bd5e3",
      "content_free_signature": "[class]android.widget.LinearLayout[resource_id]None"
    },
    {
      "package": "android",
      "visible": true,
      "checkable": false,
      "child_count": 2,
      "editable": false,
      "clickable": true,
      "is_password": false,
      "focusable": true,
      "enabled": true,
      "content_description": null,
      "children": [
        9,
        11
      ],
      "focused": false,
      "bounds": [
        [
          48,
          936
        ],
        [
          276,
          1216
        ]
      ],
      "resource_id": null,
      "checked": false,
      "text": null,
      "class": "android.widget.LinearLayout",
      "scrollable": false,
      "selected": false,
      "long_clickable": true,
      "parent": 7,
      "temp_id": 8,
      "size": "228*280",
      "signature": "[class]android.widget.LinearLayout[resource_id]None[text]None[enabled,,]",
      "view_str": "fd63fdf1ecb260d376b23261b6ad5932",
      "content_free_signature": "[class]android.widget.LinearLayout[resource_id]None"
    },
    {
      "package": "android",
      "visible": true,
      "checkable": false,
      "child_count": 1,
      "editable": false,
      "clickable": false,
      "is_password": false,
      "focusable": false,
      "enabled": true,
      "content_description": null,
      "children": [
        10
      ],
      "focused": false,
      "bounds": [
        [
          81,
          960
        ],
        [
          243,
          1113
        ]
      ],
      "resource_id": null,
      "checked": false,
      "text": null,
      "class": "android.widget.FrameLayout",
      "scrollable": false,
      "selected": false,
      "long_clickable": false,
      "parent": 8,
      "temp_id": 9,
      "size": "162*153",
      "signature": "[class]android.widget.FrameLayout[resource_id]None[text]None[enabled,,]",
      "view_str": "55e4f3835a34ce81a793f91ffafd6d70",
      "content_free_signature": "[class]android.widget.FrameLayout[resource_id]None"
    },
    {
      "package": "android",
      "visible": true,
      "checkable": false,
      "child_count": 0,
      "editable": false,
      "clickable": false,
      "is_password": false,
      "focusable": false,
      "enabled": true,
      "content_description": null,
      "children": [],
      "focused": false,
      "bounds": [
        [
          90,
          960
        ],
        [
          234,
          1104
        ]
      ],
      "resource_id": "android:id/icon",
      "checked": false,
      "text": null,
      "class": "android.widget.ImageView",
      "scrollable": false,
      "selected": false,
      "long_clickable": false,
      "parent": 9,
      "temp_id": 10,
      "size": "144*144",
      "signature": "[class]android.widget.ImageView[resource_id]android:id/icon[text]None[enabled,,]",
      "view_str": "5654d26d4ec572a146421f2d84021e1e",
      "content_free_signature": "[class]android.widget.ImageView[resource_id]android:id/icon"
    },
    {
      "package": "android",
      "visible": true,
      "checkable": false,
      "child_count": 0,
      "editable": false,
      "clickable": false,
      "is_password": false,
      "focusable": false,
      "enabled": true,
      "content_description": null,
      "children": [],
      "focused": false,
      "bounds": [
        [
          60,
          1125
        ],
        [
          264,
          1216
        ]
      ],
      "resource_id": "android:id/text1",
      "checked": false,
      "text": "Copy to clipboard",
      "class": "android.widget.TextView",
      "scrollable": false,
      "selected": false,
      "long_clickable": false,
      "parent": 8,
      "temp_id": 11,
      "size": "204*91",
      "signature": "[class]android.widget.TextView[resource_id]android:id/text1[text]Copy to clipboard[enabled,,]",
      "view_str": "2737be5c6246d04c74e3e683d4fb3c1c",
      "content_free_signature": "[class]android.widget.TextView[resource_id]android:id/text1"
    },
    {
      "package": "android",
      "visible": true,
      "checkable": false,
      "child_count": 2,
      "editable": false,
      "clickable": true,
      "is_password": false,
      "focusable": true,
      "enabled": true,
      "content_description": null,
      "children": [
        13,
        15
      ],
      "focused": false,
      "bounds": [
        [
          300,
          936
        ],
        [
          528,
          1216
        ]
      ],
      "resource_id": null,
      "checked": false,
      "text": null,
      "class": "android.widget.LinearLayout",
      "scrollable": false,
      "selected": false,
      "long_clickable": true,
      "parent": 7,
      "temp_id": 12,
      "size": "228*280",
      "signature": "[class]android.widget.LinearLayout[resource_id]None[text]None[enabled,,]",
      "view_str": "4174146ac5ae2b620d49def1f6cbdc3d",
      "content_free_signature": "[class]android.widget.LinearLayout[resource_id]None"
    },
    {
      "package": "android",
      "visible": true,
      "checkable": false,
      "child_count": 1,
      "editable": false,
      "clickable": false,
      "is_password": false,
      "focusable": false,
      "enabled": true,
      "content_description": null,
      "children": [
        14
      ],
      "focused": false,
      "bounds": [
        [
          333,
          960
        ],
        [
          495,
          1113
        ]
      ],
      "resource_id": null,
      "checked": false,
      "text": null,
      "class": "android.widget.FrameLayout",
      "scrollable": false,
      "selected": false,
      "long_clickable": false,
      "parent": 12,
      "temp_id": 13,
      "size": "162*153",
      "signature": "[class]android.widget.FrameLayout[resource_id]None[text]None[enabled,,]",
      "view_str": "55e4f3835a34ce81a793f91ffafd6d70",
      "content_free_signature": "[class]android.widget.FrameLayout[resource_id]None"
    },
    {
      "package": "android",
      "visible": true,
      "checkable": false,
      "child_count": 0,
      "editable": false,
      "clickable": false,
      "is_password": false,
      "focusable": false,
      "enabled": true,
      "content_description": null,
      "children": [],
      "focused": false,
      "bounds": [
        [
          342,
          960
        ],
        [
          486,
          1104
        ]
      ],
      "resource_id": "android:id/icon",
      "checked": false,
      "text": null,
      "class": "android.widget.ImageView",
      "scrollable": false,
      "selected": false,
      "long_clickable": false,
      "parent": 13,
      "temp_id": 14,
      "size": "144*144",
      "signature": "[class]android.widget.ImageView[resource_id]android:id/icon[text]None[enabled,,]",
      "view_str": "5654d26d4ec572a146421f2d84021e1e",
      "content_free_signature": "[class]android.widget.ImageView[resource_id]android:id/icon"
    },
    {
      "package": "android",
      "visible": true,
      "checkable": false,
      "child_count": 0,
      "editable": false,
      "clickable": false,
      "is_password": false,
      "focusable": false,
      "enabled": true,
      "content_description": null,
      "children": [],
      "focused": false,
      "bounds": [
        [
          321,
          1125
        ],
        [
          506,
          1216
        ]
      ],
      "resource_id": "android:id/text1",
      "checked": false,
      "text": "Save to Drive",
      "class": "android.widget.TextView",
      "scrollable": false,
      "selected": false,
      "long_clickable": false,
      "parent": 12,
      "temp_id": 15,
      "size": "185*91",
      "signature": "[class]android.widget.TextView[resource_id]android:id/text1[text]Save to Drive[enabled,,]",
      "view_str": "b1cab3906fb82afa50f986484236890d",
      "content_free_signature": "[class]android.widget.TextView[resource_id]android:id/text1"
    },
    {
      "package": "android",
      "visible": true,
      "checkable": false,
      "child_count": 2,
      "editable": false,
      "clickable": true,
      "is_password": false,
      "focusable": true,
      "enabled": true,
      "content_description": null,
      "children": [
        17,
        19
      ],
      "focused": false,
      "bounds": [
        [
          552,
          936
        ],
        [
          780,
          1216
        ]
      ],
      "resource_id": null,
      "checked": false,
      "text": null,
      "class": "android.widget.LinearLayout",
      "scrollable": false,
      "selected": false,
      "long_clickable": true,
      "parent": 7,
      "temp_id": 16,
      "size": "228*280",
      "signature": "[class]android.widget.LinearLayout[resource_id]None[text]None[enabled,,]",
      "view_str": "e9e43a4393de79bc98c12c6afc7de629",
      "content_free_signature": "[class]android.widget.LinearLayout[resource_id]None"
    },
    {
      "package": "android",
      "visible": true,
      "checkable": false,
      "child_count": 1,
      "editable": false,
      "clickable": false,
      "is_password": false,
      "focusable": false,
      "enabled": true,
      "content_description": null,
      "children": [
        18
      ],
      "focused": false,
      "bounds": [
        [
          585,
          960
        ],
        [
          747,
          1113
        ]
      ],
      "resource_id": null,
      "checked": false,
      "text": null,
      "class": "android.widget.FrameLayout",
      "scrollable": false,
      "selected": false,
      "long_clickable": false,
      "parent": 16,
      "temp_id": 17,
      "size": "162*153",
      "signature": "[class]android.widget.FrameLayout[resource_id]None[text]None[enabled,,]",
      "view_str": "55e4f3835a34ce81a793f91ffafd6d70",
      "content_free_signature": "[class]android.widget.FrameLayout[resource_id]None"
    },
    {
      "package": "android",
      "visible": true,
      "checkable": false,
      "child_count": 0,
      "editable": false,
      "clickable": false,
      "is_password": false,
      "focusable": false,
      "enabled": true,
      "content_description": null,
      "children": [],
      "focused": false,
      "bounds": [
        [
          594,
          960
        ],
        [
          738,
          1104
        ]
      ],
      "resource_id": "android:id/icon",
      "checked": false,
      "text": null,
      "class": "android.widget.ImageView",
      "scrollable": false,
      "selected": false,
      "long_clickable": false,
      "parent": 17,
      "temp_id": 18,
      "size": "144*144",
      "signature": "[class]android.widget.ImageView[resource_id]android:id/icon[text]None[enabled,,]",
      "view_str": "5654d26d4ec572a146421f2d84021e1e",
      "content_free_signature": "[class]android.widget.ImageView[resource_id]android:id/icon"
    },
    {
      "package": "android",
      "visible": true,
      "checkable": false,
      "child_count": 0,
      "editable": false,
      "clickable": false,
      "is_password": false,
      "focusable": false,
      "enabled": true,
      "content_description": null,
      "children": [],
      "focused": false,
      "bounds": [
        [
          594,
          1125
        ],
        [
          738,
          1216
        ]
      ],
      "resource_id": "android:id/text1",
      "checked": false,
      "text": "Messages",
      "class": "android.widget.TextView",
      "scrollable": false,
      "selected": false,
      "long_clickable": false,
      "parent": 16,
      "temp_id": 19,
      "size": "144*91",
      "signature": "[class]android.widget.TextView[resource_id]android:id/text1[text]Messages[enabled,,]",
      "view_str": "5efe3deb4097ed3ec0d66c573a8bf902",
      "content_free_signature": "[class]android.widget.TextView[resource_id]android:id/text1"
    },
    {
      "package": "android",
      "visible": true,
      "checkable": false,
      "child_count": 2,
      "editable": false,
      "clickable": true,
      "is_password": false,
      "focusable": true,
      "enabled": true,
      "content_description": null,
      "children": [
        21,
        23
      ],
      "focused": false,
      "bounds": [
        [
          804,
          936
        ],
        [
          1032,
          1216
        ]
      ],
      "resource_id": null,
      "checked": false,
      "text": null,
      "class": "android.widget.LinearLayout",
      "scrollable": false,
      "selected": false,
      "long_clickable": true,
      "parent": 7,
      "temp_id": 20,
      "size": "228*280",
      "signature": "[class]android.widget.LinearLayout[resource_id]None[text]None[enabled,,]",
      "view_str": "fd232b4542b8a7688d84c77f15f3c4df",
      "content_free_signature": "[class]android.widget.LinearLayout[resource_id]None"
    },
    {
      "package": "android",
      "visible": true,
      "checkable": false,
      "child_count": 1,
      "editable": false,
      "clickable": false,
      "is_password": false,
      "focusable": false,
      "enabled": true,
      "content_description": null,
      "children": [
        22
      ],
      "focused": false,
      "bounds": [
        [
          837,
          960
        ],
        [
          999,
          1113
        ]
      ],
      "resource_id": null,
      "checked": false,
      "text": null,
      "class": "android.widget.FrameLayout",
      "scrollable": false,
      "selected": false,
      "long_clickable": false,
      "parent": 20,
      "temp_id": 21,
      "size": "162*153",
      "signature": "[class]android.widget.FrameLayout[resource_id]None[text]None[enabled,,]",
      "view_str": "55e4f3835a34ce81a793f91ffafd6d70",
      "content_free_signature": "[class]android.widget.FrameLayout[resource_id]None"
    },
    {
      "package": "android",
      "visible": true,
      "checkable": false,
      "child_count": 0,
      "editable": false,
      "clickable": false,
      "is_password": false,
      "focusable": false,
      "enabled": true,
      "content_description": null,
      "children": [],
      "focused": false,
      "bounds": [
        [
          846,
          960
        ],
        [
          990,
          1104
        ]
      ],
      "resource_id": "android:id/icon",
      "checked": false,
      "text": null,
      "class": "android.widget.ImageView",
      "scrollable": false,
      "selected": false,
      "long_clickable": false,
      "parent": 21,
      "temp_id": 22,
      "size": "144*144",
      "signature": "[class]android.widget.ImageView[resource_id]android:id/icon[text]None[enabled,,]",
      "view_str": "5654d26d4ec572a146421f2d84021e1e",
      "content_free_signature": "[class]android.widget.ImageView[resource_id]android:id/icon"
    },
    {
      "package": "android",
      "visible": true,
      "checkable": false,
      "child_count": 0,
      "editable": false,
      "clickable": false,
      "is_password": false,
      "focusable": false,
      "enabled": true,
      "content_description": null,
      "children": [],
      "focused": false,
      "bounds": [
        [
          849,
          1125
        ],
        [
          986,
          1216
        ]
      ],
      "resource_id": "android:id/text1",
      "checked": false,
      "text": "Bluetooth",
      "class": "android.widget.TextView",
      "scrollable": false,
      "selected": false,
      "long_clickable": false,
      "parent": 20,
      "temp_id": 23,
      "size": "137*91",
      "signature": "[class]android.widget.TextView[resource_id]android:id/text1[text]Bluetooth[enabled,,]",
      "view_str": "ce4d2c5785fa52f6d119a3c5628e014f",
      "content_free_signature": "[class]android.widget.TextView[resource_id]android:id/text1"
    },
    {
      "package": "android",
      "visible": true,
      "checkable": false,
      "child_count": 1,
      "editable": false,
      "clickable": false,
      "is_password": false,
      "focusable": false,
      "enabled": true,
      "content_description": null,
      "children": [
        25
      ],
      "focused": false,
      "bounds": [
        [
          0,
          1216
        ],
        [
          1080,
          1520
        ]
      ],
      "resource_id": null,
      "checked": false,
      "text": null,
      "class": "android.widget.LinearLayout",
      "scrollable": false,
      "selected": false,
      "long_clickable": false,
      "parent": 6,
      "temp_id": 24,
      "size": "1080*304",
      "signature": "[class]android.widget.LinearLayout[resource_id]None[text]None[enabled,,]",
      "view_str": "771948bd086b58862c301fa2eb7465b6",
      "content_free_signature": "[class]android.widget.LinearLayout[resource_id]None"
    },
    {
      "package": "android",
      "visible": true,
      "checkable": false,
      "child_count": 2,
      "editable": false,
      "clickable": true,
      "is_password": false,
      "focusable": true,
      "enabled": true,
      "content_description": null,
      "children": [
        26,
        28
      ],
      "focused": false,
      "bounds": [
        [
          48,
          1216
        ],
        [
          276,
          1520
        ]
      ],
      "resource_id": null,
      "checked": false,
      "text": null,
      "class": "android.widget.LinearLayout",
      "scrollable": false,
      "selected": false,
      "long_clickable": true,
      "parent": 24,
      "temp_id": 25,
      "size": "228*304",
      "signature": "[class]android.widget.LinearLayout[resource_id]None[text]None[enabled,,]",
      "view_str": "af3f7d6acee482378e9e593d6e211477",
      "content_free_signature": "[class]android.widget.LinearLayout[resource_id]None"
    },
    {
      "package": "android",
      "visible": true,
      "checkable": false,
      "child_count": 1,
      "editable": false,
      "clickable": false,
      "is_password": false,
      "focusable": false,
      "enabled": true,
      "content_description": null,
      "children": [
        27
      ],
      "focused": false,
      "bounds": [
        [
          81,
          1240
        ],
        [
          243,
          1393
        ]
      ],
      "resource_id": null,
      "checked": false,
      "text": null,
      "class": "android.widget.FrameLayout",
      "scrollable": false,
      "selected": false,
      "long_clickable": false,
      "parent": 25,
      "temp_id": 26,
      "size": "162*153",
      "signature": "[class]android.widget.FrameLayout[resource_id]None[text]None[enabled,,]",
      "view_str": "55e4f3835a34ce81a793f91ffafd6d70",
      "content_free_signature": "[class]android.widget.FrameLayout[resource_id]None"
    },
    {
      "package": "android",
      "visible": true,
      "checkable": false,
      "child_count": 0,
      "editable": false,
      "clickable": false,
      "is_password": false,
      "focusable": false,
      "enabled": true,
      "content_description": null,
      "children": [],
      "focused": false,
      "bounds": [
        [
          90,
          1240
        ],
        [
          234,
          1384
        ]
      ],
      "resource_id": "android:id/icon",
      "checked": false,
      "text": null,
      "class": "android.widget.ImageView",
      "scrollable": false,
      "selected": false,
      "long_clickable": false,
      "parent": 26,
      "temp_id": 27,
      "size": "144*144",
      "signature": "[class]android.widget.ImageView[resource_id]android:id/icon[text]None[enabled,,]",
      "view_str": "5654d26d4ec572a146421f2d84021e1e",
      "content_free_signature": "[class]android.widget.ImageView[resource_id]android:id/icon"
    },
    {
      "package": "android",
      "visible": true,
      "checkable": false,
      "child_count": 0,
      "editable": false,
      "clickable": false,
      "is_password": false,
      "focusable": false,
      "enabled": true,
      "content_description": null,
      "children": [],
      "focused": false,
      "bounds": [
        [
          121,
          1405
        ],
        [
          202,
          1496
        ]
      ],
      "resource_id": "android:id/text1",
      "checked": false,
      "text": "Gmail",
      "class": "android.widget.TextView",
      "scrollable": false,
      "selected": false,
      "long_clickable": false,
      "parent": 25,
      "temp_id": 28,
      "size": "81*91",
      "signature": "[class]android.widget.TextView[resource_id]android:id/text1[text]Gmail[enabled,,]",
      "view_str": "eb96e6079cc8c1579bffecd4b1e6519b",
      "content_free_signature": "[class]android.widget.TextView[resource_id]android:id/text1"
    },
    {
      "package": "android",
      "visible": false,
      "checkable": false,
      "child_count": 0,
      "editable": false,
      "clickable": false,
      "is_password": false,
      "focusable": false,
      "enabled": true,
      "content_description": null,
      "children": [],
      "focused": false,
      "bounds": [
        [
          0,
          1776
        ],
        [
          1080,
          1920
        ]
      ],
      "resource_id": "android:id/navigationBarBackground",
      "checked": false,
      "text": null,
      "class": "android.view.View",
      "scrollable": false,
      "selected": false,
      "long_clickable": false,
      "parent": 0,
      "temp_id": 29,
      "size": "1080*144",
      "signature": "[class]android.view.View[resource_id]android:id/navigationBarBackground[text]None[enabled,,]",
      "view_str": "77f826bd84372a93d6931c54cec37e19",
      "content_free_signature": "[class]android.view.View[resource_id]android:id/navigationBarBackground"
    }
  ]
}